{
	"parent": "block/block",
	"textures": {
		"0": "block/laptop",
		"particle": "block/laptop"
	},
	"elements": [
		{
			"from": [3, 0, 2],
			"to": [15, 1, 12],
			"faces": {
				"north": {"uv": [0, 9.5, 6, 10], "texture": "#0"},
				"east": {"uv": [0, 4.5, 0.5, 8.5], "rotation": 90, "texture": "#0"},
				"south": {"uv": [0, 5, 6, 5.5], "texture": "#0"},
				"west": {"uv": [0, 4.5, 0.5, 8.5], "rotation": 90, "texture": "#0"},
				"up": {"uv": [0, 5, 6, 10], "rotation": 180, "texture": "#0"},
				"down": {"uv": [0, 11, 6, 16], "texture": "#0"}
			}
		},
		{
			"from": [3, 0.5, 11.5],
			"to": [15, 10.5, 12.5],
			"faces": {
				"north": {"uv": [0, 0, 6, 5], "rotation": 180, "texture": "#0"},
				"east": {"uv": [0, 0, 0.5, 5], "texture": "#0"},
				"south": {"uv": [0, 11, 6, 16], "texture": "#0"},
				"west": {"uv": [0, 0, 0.5, 5], "texture": "#0"},
				"up": {"uv": [0, 0, 6, 0.5], "texture": "#0"},
				"down": {"uv": [0, 4.5, 6, 5], "rotation": 180, "texture": "#0"}
			}
		},
		{
			"from": [0, 0, 5],
			"to": [2, 1, 8],
			"faces": {
				"north": {"uv": [7.5, 3, 8.5, 3.5], "texture": "#0"},
				"east": {"uv": [7.5, 2, 8, 3.5], "texture": "#0"},
				"south": {"uv": [7.5, 2, 8.5, 2.5], "texture": "#0"},
				"west": {"uv": [8, 2, 8.5, 3.5], "texture": "#0"},
				"up": {"uv": [7.5, 2, 8.5, 3.5], "texture": "#0"},
				"down": {"uv": [7.5, 2, 8.5, 3.5], "texture": "#0"}
			}
		},
		{
			"from": [0.75, 1, 6.75],
			"to": [1.25, 1.25, 7.5],
			"faces": {
				"north": {"uv": [8.5, 2, 9, 2.5], "texture": "#0"},
				"east": {"uv": [8.5, 2, 9, 2.5], "texture": "#0"},
				"south": {"uv": [8.5, 2, 9, 2.5], "texture": "#0"},
				"west": {"uv": [8.5, 2, 9, 2.5], "texture": "#0"},
				"up": {"uv": [8.5, 2, 9, 2.5], "texture": "#0"},
				"down": {"uv": [8.5, 2, 9, 2.5], "texture": "#0"}
			}
		},
		{
			"from": [0.75, 0, 8],
			"to": [1.25, 0.5, 9],
			"faces": {
				"north": {"uv": [2.5, 2, 3.5, 2.5], "texture": "#0"},
				"east": {"uv": [2.5, 2, 3.5, 2.5], "texture": "#0"},
				"south": {"uv": [2.5, 2, 3.5, 2.5], "texture": "#0"},
				"west": {"uv": [2.5, 2, 3.5, 2.5], "texture": "#0"},
				"up": {"uv": [2.5, 2, 3.5, 2.5], "texture": "#0"},
				"down": {"uv": [2.5, 2, 3.5, 2.5], "texture": "#0"}
			}
		},
		{
			"from": [1.25, 0, 9],
			"to": [1.75, 0.5, 10],
			"faces": {
				"north": {"uv": [2.5, 2, 3.5, 2.5], "texture": "#0"},
				"east": {"uv": [2.5, 2, 3.5, 2.5], "texture": "#0"},
				"south": {"uv": [2.5, 2, 3.5, 2.5], "texture": "#0"},
				"west": {"uv": [2.5, 2, 3.5, 2.5], "texture": "#0"},
				"up": {"uv": [2.5, 2, 3.5, 2.5], "texture": "#0"},
				"down": {"uv": [2.5, 2, 3.5, 2.5], "texture": "#0"}
			}
		},
		{
			"from": [1.75, 0.1, 10],
			"to": [2.25, 0.6, 10.5],
			"faces": {
				"north": {"uv": [2.5, 2, 3.5, 2.5], "texture": "#0"},
				"east": {"uv": [2.5, 2, 3.5, 2.5], "texture": "#0"},
				"south": {"uv": [2.5, 2, 3.5, 2.5], "texture": "#0"},
				"west": {"uv": [2.5, 2, 3.5, 2.5], "texture": "#0"},
				"up": {"uv": [2.5, 2, 3.5, 2.5], "texture": "#0"},
				"down": {"uv": [2.5, 2, 3.5, 2.5], "texture": "#0"}
			}
		},
		{
			"from": [2.25, 0.25, 10.5],
			"to": [3, 0.75, 11],
			"faces": {
				"north": {"uv": [2.5, 2, 3.5, 2.5], "texture": "#0"},
				"east": {"uv": [2.5, 2, 3.5, 2.5], "texture": "#0"},
				"south": {"uv": [2.5, 2, 3.5, 2.5], "texture": "#0"},
				"west": {"uv": [2.5, 2, 3.5, 2.5], "texture": "#0"},
				"up": {"uv": [2.5, 2, 3.5, 2.5], "texture": "#0"},
				"down": {"uv": [2.5, 2, 3.5, 2.5], "texture": "#0"}
			}
		}
	],
	"display": {
		"fixed": {
			"scale": [2.5, 2.6, 2.5],
			"rotation": [-90, 0, 0],
			"translation": [-2, 2.5, -18.5]
		}
	}
}