{
	"credit": "Made with Blockbench",
	"parent": "item/sword_display",
	"textures": {
		"0": "item/gold_sword",
		"particle": "item/gold_sword"
	},
	"elements": [
		{
			"name": "Blade top to bottom top",
			"from": [19, 19, 7.75],
			"to": [20, 20, 8.25],
			"faces": {
				"north": {"uv": [15.01, 0.01, 15.99, 0.99], "texture": "#0", "cullface": "Know2Good"},
				"east": {"uv": [15, 0, 15.97969, 0.97969], "texture": "#0", "cullface": "Know2Good"},
				"south": {"uv": [15.01, 0.01, 15.99, 0.99], "texture": "#0", "cullface": "Know2Good"},
				"west": {"uv": [15.01, 0.01, 15.99, 0.99], "texture": "#0", "cullface": "Know2Good"},
				"up": {"uv": [15.01, 0.01, 15.99, 0.99], "texture": "#0", "cullface": "Know2Good"},
				"down": {"uv": [15.01, 0.01, 15.99, 0.99], "texture": "#0", "cullface": "Know2Good"}
			}
		},
		{
			"name": "Blade top to bottom middle",
			"from": [14, 14, 7.25],
			"to": [15, 15, 8.75],
			"faces": {
				"north": {"uv": [13, 2, 13.97969, 2.97969], "texture": "#0", "cullface": "Know2Good"},
				"east": {"uv": [13, 2, 13.97969, 2.97969], "texture": "#0", "cullface": "Know2Good"},
				"south": {"uv": [13, 2, 13.97969, 2.97969], "texture": "#0", "cullface": "Know2Good"},
				"west": {"uv": [13, 2, 13.97969, 2.97969], "texture": "#0", "cullface": "Know2Good"},
				"up": {"uv": [13, 2, 13.97969, 2.97969], "texture": "#0", "cullface": "Know2Good"},
				"down": {"uv": [13, 2, 13.97969, 2.97969], "texture": "#0", "cullface": "Know2Good"}
			}
		},
		{
			"name": "Blade top to bottom middle",
			"from": [13, 13, 7.25],
			"to": [14, 14, 8.75],
			"faces": {
				"north": {"uv": [13, 2, 13.97969, 2.97969], "texture": "#0", "cullface": "Know2Good"},
				"east": {"uv": [13, 2, 13.97969, 2.97969], "texture": "#0", "cullface": "Know2Good"},
				"south": {"uv": [13, 2, 13.97969, 2.97969], "texture": "#0", "cullface": "Know2Good"},
				"west": {"uv": [13, 2, 13.97969, 2.97969], "texture": "#0", "cullface": "Know2Good"},
				"up": {"uv": [13, 2, 13.97969, 2.97969], "texture": "#0", "cullface": "Know2Good"},
				"down": {"uv": [13, 2, 13.97969, 2.97969], "texture": "#0", "cullface": "Know2Good"}
			}
		},
		{
			"name": "Blade top to bottom middle",
			"from": [12, 12, 7.25],
			"to": [13, 13, 8.75],
			"faces": {
				"north": {"uv": [13, 2, 13.97969, 2.97969], "texture": "#0", "cullface": "Know2Good"},
				"east": {"uv": [13, 2, 13.97969, 2.97969], "texture": "#0", "cullface": "Know2Good"},
				"south": {"uv": [13, 2, 13.97969, 2.97969], "texture": "#0", "cullface": "Know2Good"},
				"west": {"uv": [13, 2, 13.97969, 2.97969], "texture": "#0", "cullface": "Know2Good"},
				"up": {"uv": [13, 2, 13.97969, 2.97969], "texture": "#0", "cullface": "Know2Good"},
				"down": {"uv": [13, 2, 13.97969, 2.97969], "texture": "#0", "cullface": "Know2Good"}
			}
		},
		{
			"name": "Blade top to bottom middle",
			"from": [11, 11, 7.25],
			"to": [12, 12, 8.75],
			"faces": {
				"north": {"uv": [13, 2, 13.97969, 2.97969], "texture": "#0", "cullface": "Know2Good"},
				"east": {"uv": [13, 2, 13.97969, 2.97969], "texture": "#0", "cullface": "Know2Good"},
				"south": {"uv": [13, 2, 13.97969, 2.97969], "texture": "#0", "cullface": "Know2Good"},
				"west": {"uv": [13, 2, 13.97969, 2.97969], "texture": "#0", "cullface": "Know2Good"},
				"up": {"uv": [13, 2, 13.97969, 2.97969], "texture": "#0", "cullface": "Know2Good"},
				"down": {"uv": [13, 2, 13.97969, 2.97969], "texture": "#0", "cullface": "Know2Good"}
			}
		},
		{
			"name": "Blade top to bottom middle",
			"from": [10, 10, 7.25],
			"to": [11, 11, 8.75],
			"faces": {
				"north": {"uv": [13, 2, 13.97969, 2.97969], "texture": "#0", "cullface": "Know2Good"},
				"east": {"uv": [13, 2, 13.97969, 2.97969], "texture": "#0", "cullface": "Know2Good"},
				"south": {"uv": [13, 2, 13.97969, 2.97969], "texture": "#0", "cullface": "Know2Good"},
				"west": {"uv": [13, 2, 13.97969, 2.97969], "texture": "#0", "cullface": "Know2Good"},
				"up": {"uv": [13, 2, 13.97969, 2.97969], "texture": "#0", "cullface": "Know2Good"},
				"down": {"uv": [13, 2, 13.97969, 2.97969], "texture": "#0", "cullface": "Know2Good"}
			}
		},
		{
			"name": "Blade top to bottom middle",
			"from": [9, 9, 7.25],
			"to": [10, 10, 8.75],
			"faces": {
				"north": {"uv": [13, 2, 13.97969, 2.97969], "texture": "#0", "cullface": "Know2Good"},
				"east": {"uv": [13, 2, 13.97969, 2.97969], "texture": "#0", "cullface": "Know2Good"},
				"south": {"uv": [13, 2, 13.97969, 2.97969], "texture": "#0", "cullface": "Know2Good"},
				"west": {"uv": [13, 2, 13.97969, 2.97969], "texture": "#0", "cullface": "Know2Good"},
				"up": {"uv": [13, 2, 13.97969, 2.97969], "texture": "#0", "cullface": "Know2Good"},
				"down": {"uv": [13, 2, 13.97969, 2.97969], "texture": "#0", "cullface": "Know2Good"}
			}
		},
		{
			"name": "Blade top to bottom middle",
			"from": [8, 8, 7.25],
			"to": [9, 9, 8.75],
			"faces": {
				"north": {"uv": [7, 8, 7.97969, 8.97969], "texture": "#0", "cullface": "Know2Good"},
				"east": {"uv": [7, 8, 7.97969, 8.97969], "texture": "#0", "cullface": "Know2Good"},
				"south": {"uv": [7, 8, 7.97969, 8.97969], "texture": "#0", "cullface": "Know2Good"},
				"west": {"uv": [7, 8, 7.97969, 8.97969], "texture": "#0", "cullface": "Know2Good"},
				"up": {"uv": [7, 8, 7.97969, 8.97969], "texture": "#0", "cullface": "Know2Good"},
				"down": {"uv": [7, 8, 7.97969, 8.97969], "texture": "#0", "cullface": "Know2Good"}
			}
		},
		{
			"name": "Blade top to bottom middle",
			"from": [7, 7, 7.25],
			"to": [8, 8, 8.75],
			"faces": {
				"north": {"uv": [7, 8, 7.97969, 8.97969], "texture": "#0", "cullface": "Know2Good"},
				"east": {"uv": [7, 8, 7.97969, 8.97969], "texture": "#0", "cullface": "Know2Good"},
				"south": {"uv": [7, 8, 7.97969, 8.97969], "texture": "#0", "cullface": "Know2Good"},
				"west": {"uv": [7, 8, 7.97969, 8.97969], "texture": "#0", "cullface": "Know2Good"},
				"up": {"uv": [7, 8, 7.97969, 8.97969], "texture": "#0", "cullface": "Know2Good"},
				"down": {"uv": [7, 8, 7.97969, 8.97969], "texture": "#0", "cullface": "Know2Good"}
			}
		},
		{
			"name": "Blade top to bottom middle",
			"from": [6, 6, 7.25],
			"to": [7, 7, 8.75],
			"faces": {
				"north": {"uv": [6, 9, 6.97969, 9.97969], "texture": "#0", "cullface": "Know2Good"},
				"east": {"uv": [6, 9, 6.97969, 9.97969], "texture": "#0", "cullface": "Know2Good"},
				"south": {"uv": [6, 9, 6.97969, 9.97969], "texture": "#0", "cullface": "Know2Good"},
				"west": {"uv": [6, 9, 6.97969, 9.97969], "texture": "#0", "cullface": "Know2Good"},
				"up": {"uv": [6, 9, 6.97969, 9.97969], "texture": "#0", "cullface": "Know2Good"},
				"down": {"uv": [6, 9, 6.97969, 9.97969], "texture": "#0", "cullface": "Know2Good"}
			}
		},
		{
			"name": "Blade top to bottom up",
			"from": [17, 19, 7.75],
			"to": [19, 20, 8.25],
			"faces": {
				"north": {"uv": [13, 0, 14.97969, 0.97969], "texture": "#0", "rotation": 180, "cullface": "Know2Good"},
				"east": {"uv": [14, 0, 14.97969, 0.97969], "texture": "#0", "cullface": "Know2Good"},
				"south": {"uv": [13, 0, 13.97969, 0.97969], "texture": "#0", "cullface": "Know2Good"},
				"west": {"uv": [14, 0, 14.97969, 0.97969], "texture": "#0", "cullface": "Know2Good"},
				"up": {"uv": [13, 0, 13.97969, 0.97969], "texture": "#0", "cullface": "Know2Good"},
				"down": {"uv": [14, 0, 14.97969, 0.97969], "texture": "#0", "cullface": "Know2Good"}
			}
		},
		{
			"name": "Blade top to bottom up",
			"from": [12, 14, 7.75],
			"to": [13, 15, 8.25],
			"faces": {
				"north": {"uv": [12, 1, 12.97969, 1.97969], "texture": "#0", "cullface": "Know2Good"},
				"east": {"uv": [12, 1, 12.97969, 1.97969], "texture": "#0", "cullface": "Know2Good"},
				"south": {"uv": [12, 1, 12.97969, 1.97969], "texture": "#0", "cullface": "Know2Good"},
				"west": {"uv": [12, 1, 12.97969, 1.97969], "texture": "#0", "cullface": "Know2Good"},
				"up": {"uv": [12, 1, 12.97969, 1.97969], "texture": "#0", "cullface": "Know2Good"},
				"down": {"uv": [12, 1, 12.97969, 1.97969], "texture": "#0", "cullface": "Know2Good"}
			}
		},
		{
			"name": "Blade top to bottom up",
			"from": [11, 13, 7.75],
			"to": [12, 14, 8.25],
			"faces": {
				"north": {"uv": [12, 1, 12.97969, 1.97969], "texture": "#0", "cullface": "Know2Good"},
				"east": {"uv": [12, 1, 12.97969, 1.97969], "texture": "#0", "cullface": "Know2Good"},
				"south": {"uv": [12, 1, 12.97969, 1.97969], "texture": "#0", "cullface": "Know2Good"},
				"west": {"uv": [12, 1, 12.97969, 1.97969], "texture": "#0", "cullface": "Know2Good"},
				"up": {"uv": [12, 1, 12.97969, 1.97969], "texture": "#0", "cullface": "Know2Good"},
				"down": {"uv": [12, 1, 12.97969, 1.97969], "texture": "#0", "cullface": "Know2Good"}
			}
		},
		{
			"name": "Blade top to bottom up",
			"from": [10, 12, 7.75],
			"to": [11, 13, 8.25],
			"faces": {
				"north": {"uv": [12, 1, 12.97969, 1.97969], "texture": "#0", "cullface": "Know2Good"},
				"east": {"uv": [12, 1, 12.97969, 1.97969], "texture": "#0", "cullface": "Know2Good"},
				"south": {"uv": [12, 1, 12.97969, 1.97969], "texture": "#0", "cullface": "Know2Good"},
				"west": {"uv": [12, 1, 12.97969, 1.97969], "texture": "#0", "cullface": "Know2Good"},
				"up": {"uv": [12, 1, 12.97969, 1.97969], "texture": "#0", "cullface": "Know2Good"},
				"down": {"uv": [12, 1, 12.97969, 1.97969], "texture": "#0", "cullface": "Know2Good"}
			}
		},
		{
			"name": "Blade top to bottom up",
			"from": [9, 11, 7.75],
			"to": [10, 12, 8.25],
			"faces": {
				"north": {"uv": [12, 1, 12.97969, 1.97969], "texture": "#0", "cullface": "Know2Good"},
				"east": {"uv": [12, 1, 12.97969, 1.97969], "texture": "#0", "cullface": "Know2Good"},
				"south": {"uv": [12, 1, 12.97969, 1.97969], "texture": "#0", "cullface": "Know2Good"},
				"west": {"uv": [12, 1, 12.97969, 1.97969], "texture": "#0", "cullface": "Know2Good"},
				"up": {"uv": [12, 1, 12.97969, 1.97969], "texture": "#0", "cullface": "Know2Good"},
				"down": {"uv": [12, 1, 12.97969, 1.97969], "texture": "#0", "cullface": "Know2Good"}
			}
		},
		{
			"name": "Blade top to bottom up",
			"from": [8, 10, 7.75],
			"to": [9, 11, 8.25],
			"faces": {
				"north": {"uv": [12, 1, 12.97969, 1.97969], "texture": "#0", "cullface": "Know2Good"},
				"east": {"uv": [12, 1, 12.97969, 1.97969], "texture": "#0", "cullface": "Know2Good"},
				"south": {"uv": [12, 1, 12.97969, 1.97969], "texture": "#0", "cullface": "Know2Good"},
				"west": {"uv": [12, 1, 12.97969, 1.97969], "texture": "#0", "cullface": "Know2Good"},
				"up": {"uv": [12, 1, 12.97969, 1.97969], "texture": "#0", "cullface": "Know2Good"},
				"down": {"uv": [12, 1, 12.97969, 1.97969], "texture": "#0", "cullface": "Know2Good"}
			}
		},
		{
			"name": "Blade top to bottom up",
			"from": [7, 9, 7.75],
			"to": [8, 10, 8.25],
			"faces": {
				"north": {"uv": [12, 1, 12.97969, 1.97969], "texture": "#0", "cullface": "Know2Good"},
				"east": {"uv": [12, 1, 12.97969, 1.97969], "texture": "#0", "cullface": "Know2Good"},
				"south": {"uv": [12, 1, 12.97969, 1.97969], "texture": "#0", "cullface": "Know2Good"},
				"west": {"uv": [12, 1, 12.97969, 1.97969], "texture": "#0", "cullface": "Know2Good"},
				"up": {"uv": [12, 1, 12.97969, 1.97969], "texture": "#0", "cullface": "Know2Good"},
				"down": {"uv": [12, 1, 12.97969, 1.97969], "texture": "#0", "cullface": "Know2Good"}
			}
		},
		{
			"name": "Blade top to bottom up",
			"from": [6, 8, 7.75],
			"to": [7, 9, 8.25],
			"faces": {
				"north": {"uv": [12, 1, 12.97969, 1.97969], "texture": "#0", "cullface": "Know2Good"},
				"east": {"uv": [12, 1, 12.97969, 1.97969], "texture": "#0", "cullface": "Know2Good"},
				"south": {"uv": [12, 1, 12.97969, 1.97969], "texture": "#0", "cullface": "Know2Good"},
				"west": {"uv": [12, 1, 12.97969, 1.97969], "texture": "#0", "cullface": "Know2Good"},
				"up": {"uv": [12, 1, 12.97969, 1.97969], "texture": "#0", "cullface": "Know2Good"},
				"down": {"uv": [12, 1, 12.97969, 1.97969], "texture": "#0", "cullface": "Know2Good"}
			}
		},
		{
			"name": "Blade top to bottom up-middle",
			"from": [13, 14, 7.5],
			"to": [14, 15, 8.5],
			"faces": {
				"north": {"uv": [13, 3, 13.97969, 3.97969], "texture": "#0", "cullface": "Know2Good"},
				"east": {"uv": [13, 3, 13.97969, 3.97969], "texture": "#0", "cullface": "Know2Good"},
				"south": {"uv": [13, 3, 13.97969, 3.97969], "texture": "#0", "cullface": "Know2Good"},
				"west": {"uv": [13, 3, 13.97969, 3.97969], "texture": "#0", "cullface": "Know2Good"},
				"up": {"uv": [13, 3, 13.97969, 3.97969], "texture": "#0", "cullface": "Know2Good"},
				"down": {"uv": [13, 3, 13.97969, 3.97969], "texture": "#0", "cullface": "Know2Good"}
			}
		},
		{
			"name": "Blade top to bottom up-middle",
			"from": [12, 13, 7.5],
			"to": [13, 14, 8.5],
			"faces": {
				"north": {"uv": [13, 3, 13.97969, 3.97969], "texture": "#0", "cullface": "Know2Good"},
				"east": {"uv": [13, 3, 13.97969, 3.97969], "texture": "#0", "cullface": "Know2Good"},
				"south": {"uv": [13, 3, 13.97969, 3.97969], "texture": "#0", "cullface": "Know2Good"},
				"west": {"uv": [13, 3, 13.97969, 3.97969], "texture": "#0", "cullface": "Know2Good"},
				"up": {"uv": [13, 3, 13.97969, 3.97969], "texture": "#0", "cullface": "Know2Good"},
				"down": {"uv": [13, 3, 13.97969, 3.97969], "texture": "#0", "cullface": "Know2Good"}
			}
		},
		{
			"name": "Blade top to bottom up-middle",
			"from": [11, 12, 7.5],
			"to": [12, 13, 8.5],
			"faces": {
				"north": {"uv": [13, 3, 13.97969, 3.97969], "texture": "#0", "cullface": "Know2Good"},
				"east": {"uv": [13, 3, 13.97969, 3.97969], "texture": "#0", "cullface": "Know2Good"},
				"south": {"uv": [13, 3, 13.97969, 3.97969], "texture": "#0", "cullface": "Know2Good"},
				"west": {"uv": [13, 3, 13.97969, 3.97969], "texture": "#0", "cullface": "Know2Good"},
				"up": {"uv": [13, 3, 13.97969, 3.97969], "texture": "#0", "cullface": "Know2Good"},
				"down": {"uv": [13, 3, 13.97969, 3.97969], "texture": "#0", "cullface": "Know2Good"}
			}
		},
		{
			"name": "Blade top to bottom up-middle",
			"from": [10, 11, 7.5],
			"to": [11, 12, 8.5],
			"faces": {
				"north": {"uv": [12, 4, 12.97969, 4.97969], "texture": "#0", "cullface": "Know2Good"},
				"east": {"uv": [12, 4, 12.97969, 4.97969], "texture": "#0", "cullface": "Know2Good"},
				"south": {"uv": [12, 4, 12.97969, 4.97969], "texture": "#0", "cullface": "Know2Good"},
				"west": {"uv": [12, 4, 12.97969, 4.97969], "texture": "#0", "cullface": "Know2Good"},
				"up": {"uv": [12, 4, 12.97969, 4.97969], "texture": "#0", "cullface": "Know2Good"},
				"down": {"uv": [12, 4, 12.97969, 4.97969], "texture": "#0", "cullface": "Know2Good"}
			}
		},
		{
			"name": "Blade top to bottom up-middle",
			"from": [9, 10, 7.5],
			"to": [10, 11, 8.5],
			"faces": {
				"north": {"uv": [12, 4, 12.97969, 4.97969], "texture": "#0", "cullface": "Know2Good"},
				"east": {"uv": [12, 4, 12.97969, 4.97969], "texture": "#0", "cullface": "Know2Good"},
				"south": {"uv": [12, 4, 12.97969, 4.97969], "texture": "#0", "cullface": "Know2Good"},
				"west": {"uv": [12, 4, 12.97969, 4.97969], "texture": "#0", "cullface": "Know2Good"},
				"up": {"uv": [12, 4, 12.97969, 4.97969], "texture": "#0", "cullface": "Know2Good"},
				"down": {"uv": [12, 4, 12.97969, 4.97969], "texture": "#0", "cullface": "Know2Good"}
			}
		},
		{
			"name": "Blade top to bottom up-middle",
			"from": [8, 9, 7.5],
			"to": [9, 10, 8.5],
			"faces": {
				"north": {"uv": [12, 4, 12.97969, 4.97969], "texture": "#0", "cullface": "Know2Good"},
				"east": {"uv": [12, 4, 12.97969, 4.97969], "texture": "#0", "cullface": "Know2Good"},
				"south": {"uv": [12, 4, 12.97969, 4.97969], "texture": "#0", "cullface": "Know2Good"},
				"west": {"uv": [12, 4, 12.97969, 4.97969], "texture": "#0", "cullface": "Know2Good"},
				"up": {"uv": [12, 4, 12.97969, 4.97969], "texture": "#0", "cullface": "Know2Good"},
				"down": {"uv": [12, 4, 12.97969, 4.97969], "texture": "#0", "cullface": "Know2Good"}
			}
		},
		{
			"name": "Blade top to bottom up-middle",
			"from": [7, 8, 7.5],
			"to": [8, 9, 8.5],
			"faces": {
				"north": {"uv": [12, 4, 12.97969, 4.97969], "texture": "#0", "cullface": "Know2Good"},
				"east": {"uv": [12, 4, 12.97969, 4.97969], "texture": "#0", "cullface": "Know2Good"},
				"south": {"uv": [12, 4, 12.97969, 4.97969], "texture": "#0", "cullface": "Know2Good"},
				"west": {"uv": [12, 4, 12.97969, 4.97969], "texture": "#0", "cullface": "Know2Good"},
				"up": {"uv": [12, 4, 12.97969, 4.97969], "texture": "#0", "cullface": "Know2Good"},
				"down": {"uv": [12, 4, 12.97969, 4.97969], "texture": "#0", "cullface": "Know2Good"}
			}
		},
		{
			"name": "Blade top to bottom up-middle",
			"from": [6, 7, 7.5],
			"to": [7, 8, 8.5],
			"faces": {
				"north": {"uv": [6, 8, 6.97969, 8.97969], "texture": "#0", "cullface": "Know2Good"},
				"east": {"uv": [6, 8, 6.97969, 8.97969], "texture": "#0", "cullface": "Know2Good"},
				"south": {"uv": [6, 8, 6.97969, 8.97969], "texture": "#0", "cullface": "Know2Good"},
				"west": {"uv": [6, 8, 6.97969, 8.97969], "texture": "#0", "cullface": "Know2Good"},
				"up": {"uv": [6, 8, 6.97969, 8.97969], "texture": "#0", "cullface": "Know2Good"},
				"down": {"uv": [6, 8, 6.97969, 8.97969], "texture": "#0", "cullface": "Know2Good"}
			}
		},
		{
			"name": "Blade top to bottom down",
			"from": [19, 17, 7.75],
			"to": [20, 19, 8.25],
			"faces": {
				"north": {"uv": [12, 1, 12.97969, 1.97969], "texture": "#0", "cullface": "Know2Good"},
				"east": {"uv": [12, 1, 12.97969, 1.97969], "texture": "#0", "cullface": "Know2Good"},
				"south": {"uv": [12, 1, 12.97969, 1.97969], "texture": "#0", "cullface": "Know2Good"},
				"west": {"uv": [12, 1, 12.97969, 1.97969], "texture": "#0", "cullface": "Know2Good"},
				"up": {"uv": [12, 1, 12.97969, 1.97969], "texture": "#0", "cullface": "Know2Good"},
				"down": {"uv": [12, 1, 12.97969, 1.97969], "texture": "#0", "cullface": "Know2Good"}
			}
		},
		{
			"name": "Blade top to bottom down",
			"from": [14, 12, 7.75],
			"to": [15, 13, 8.25],
			"faces": {
				"north": {"uv": [12, 1, 12.97969, 1.97969], "texture": "#0", "cullface": "Know2Good"},
				"east": {"uv": [12, 1, 12.97969, 1.97969], "texture": "#0", "cullface": "Know2Good"},
				"south": {"uv": [12, 1, 12.97969, 1.97969], "texture": "#0", "cullface": "Know2Good"},
				"west": {"uv": [12, 1, 12.97969, 1.97969], "texture": "#0", "cullface": "Know2Good"},
				"up": {"uv": [12, 1, 12.97969, 1.97969], "texture": "#0", "cullface": "Know2Good"},
				"down": {"uv": [12, 1, 12.97969, 1.97969], "texture": "#0", "cullface": "Know2Good"}
			}
		},
		{
			"name": "Blade top to bottom down",
			"from": [13, 11, 7.75],
			"to": [14, 12, 8.25],
			"faces": {
				"north": {"uv": [12, 1, 12.97969, 1.97969], "texture": "#0", "cullface": "Know2Good"},
				"east": {"uv": [12, 1, 12.97969, 1.97969], "texture": "#0", "cullface": "Know2Good"},
				"south": {"uv": [12, 1, 12.97969, 1.97969], "texture": "#0", "cullface": "Know2Good"},
				"west": {"uv": [12, 1, 12.97969, 1.97969], "texture": "#0", "cullface": "Know2Good"},
				"up": {"uv": [12, 1, 12.97969, 1.97969], "texture": "#0", "cullface": "Know2Good"},
				"down": {"uv": [12, 1, 12.97969, 1.97969], "texture": "#0", "cullface": "Know2Good"}
			}
		},
		{
			"name": "Blade top to bottom down",
			"from": [12, 10, 7.75],
			"to": [13, 11, 8.25],
			"faces": {
				"north": {"uv": [12, 1, 12.97969, 1.97969], "texture": "#0", "cullface": "Know2Good"},
				"east": {"uv": [12, 1, 12.97969, 1.97969], "texture": "#0", "cullface": "Know2Good"},
				"south": {"uv": [12, 1, 12.97969, 1.97969], "texture": "#0", "cullface": "Know2Good"},
				"west": {"uv": [12, 1, 12.97969, 1.97969], "texture": "#0", "cullface": "Know2Good"},
				"up": {"uv": [12, 1, 12.97969, 1.97969], "texture": "#0", "cullface": "Know2Good"},
				"down": {"uv": [12, 1, 12.97969, 1.97969], "texture": "#0", "cullface": "Know2Good"}
			}
		},
		{
			"name": "Blade top to bottom down",
			"from": [11, 9, 7.75],
			"to": [12, 10, 8.25],
			"faces": {
				"north": {"uv": [12, 1, 12.97969, 1.97969], "texture": "#0", "cullface": "Know2Good"},
				"east": {"uv": [12, 1, 12.97969, 1.97969], "texture": "#0", "cullface": "Know2Good"},
				"south": {"uv": [12, 1, 12.97969, 1.97969], "texture": "#0", "cullface": "Know2Good"},
				"west": {"uv": [12, 1, 12.97969, 1.97969], "texture": "#0", "cullface": "Know2Good"},
				"up": {"uv": [12, 1, 12.97969, 1.97969], "texture": "#0", "cullface": "Know2Good"},
				"down": {"uv": [12, 1, 12.97969, 1.97969], "texture": "#0", "cullface": "Know2Good"}
			}
		},
		{
			"name": "Blade top to bottom down",
			"from": [10, 8, 7.75],
			"to": [11, 9, 8.25],
			"faces": {
				"north": {"uv": [12, 1, 12.97969, 1.97969], "texture": "#0", "cullface": "Know2Good"},
				"east": {"uv": [12, 1, 12.97969, 1.97969], "texture": "#0", "cullface": "Know2Good"},
				"south": {"uv": [12, 1, 12.97969, 1.97969], "texture": "#0", "cullface": "Know2Good"},
				"west": {"uv": [12, 1, 12.97969, 1.97969], "texture": "#0", "cullface": "Know2Good"},
				"up": {"uv": [12, 1, 12.97969, 1.97969], "texture": "#0", "cullface": "Know2Good"},
				"down": {"uv": [12, 1, 12.97969, 1.97969], "texture": "#0", "cullface": "Know2Good"}
			}
		},
		{
			"name": "Blade top to bottom down",
			"from": [9, 7, 7.75],
			"to": [10, 8, 8.25],
			"faces": {
				"north": {"uv": [12, 1, 12.97969, 1.97969], "texture": "#0", "cullface": "Know2Good"},
				"east": {"uv": [12, 1, 12.97969, 1.97969], "texture": "#0", "cullface": "Know2Good"},
				"south": {"uv": [12, 1, 12.97969, 1.97969], "texture": "#0", "cullface": "Know2Good"},
				"west": {"uv": [12, 1, 12.97969, 1.97969], "texture": "#0", "cullface": "Know2Good"},
				"up": {"uv": [12, 1, 12.97969, 1.97969], "texture": "#0", "cullface": "Know2Good"},
				"down": {"uv": [12, 1, 12.97969, 1.97969], "texture": "#0", "cullface": "Know2Good"}
			}
		},
		{
			"name": "Blade top to bottom down",
			"from": [8, 6, 7.75],
			"to": [9, 7, 8.25],
			"faces": {
				"north": {"uv": [12, 1, 12.97969, 1.97969], "texture": "#0", "cullface": "Know2Good"},
				"east": {"uv": [12, 1, 12.97969, 1.97969], "texture": "#0", "cullface": "Know2Good"},
				"south": {"uv": [12, 1, 12.97969, 1.97969], "texture": "#0", "cullface": "Know2Good"},
				"west": {"uv": [12, 1, 12.97969, 1.97969], "texture": "#0", "cullface": "Know2Good"},
				"up": {"uv": [12, 1, 12.97969, 1.97969], "texture": "#0", "cullface": "Know2Good"},
				"down": {"uv": [12, 1, 12.97969, 1.97969], "texture": "#0", "cullface": "Know2Good"}
			}
		},
		{
			"name": "Blade top to bottom down-middle",
			"from": [14, 13, 7.5],
			"to": [15, 14, 8.5],
			"faces": {
				"north": {"uv": [12, 4, 12.97969, 4.97969], "texture": "#0", "cullface": "Know2Good"},
				"east": {"uv": [12, 4, 12.97969, 4.97969], "texture": "#0", "cullface": "Know2Good"},
				"south": {"uv": [12, 4, 12.97969, 4.97969], "texture": "#0", "cullface": "Know2Good"},
				"west": {"uv": [12, 4, 12.97969, 4.97969], "texture": "#0", "cullface": "Know2Good"},
				"up": {"uv": [12, 4, 12.97969, 4.97969], "texture": "#0", "cullface": "Know2Good"},
				"down": {"uv": [12, 4, 12.97969, 4.97969], "texture": "#0", "cullface": "Know2Good"}
			}
		},
		{
			"name": "Blade top to bottom down-middle",
			"from": [13, 12, 7.5],
			"to": [14, 13, 8.5],
			"faces": {
				"north": {"uv": [12, 4, 12.97969, 4.97969], "texture": "#0", "cullface": "Know2Good"},
				"east": {"uv": [12, 4, 12.97969, 4.97969], "texture": "#0", "cullface": "Know2Good"},
				"south": {"uv": [12, 4, 12.97969, 4.97969], "texture": "#0", "cullface": "Know2Good"},
				"west": {"uv": [12, 4, 12.97969, 4.97969], "texture": "#0", "cullface": "Know2Good"},
				"up": {"uv": [12, 4, 12.97969, 4.97969], "texture": "#0", "cullface": "Know2Good"},
				"down": {"uv": [12, 4, 12.97969, 4.97969], "texture": "#0", "cullface": "Know2Good"}
			}
		},
		{
			"name": "Blade top to bottom down-middle",
			"from": [12, 11, 7.5],
			"to": [13, 12, 8.5],
			"faces": {
				"north": {"uv": [12, 4, 12.97969, 4.97969], "texture": "#0", "cullface": "Know2Good"},
				"east": {"uv": [12, 4, 12.97969, 4.97969], "texture": "#0", "cullface": "Know2Good"},
				"south": {"uv": [12, 4, 12.97969, 4.97969], "texture": "#0", "cullface": "Know2Good"},
				"west": {"uv": [12, 4, 12.97969, 4.97969], "texture": "#0", "cullface": "Know2Good"},
				"up": {"uv": [12, 4, 12.97969, 4.97969], "texture": "#0", "cullface": "Know2Good"},
				"down": {"uv": [12, 4, 12.97969, 4.97969], "texture": "#0", "cullface": "Know2Good"}
			}
		},
		{
			"name": "Blade top to bottom down-middle",
			"from": [11, 10, 7.5],
			"to": [12, 11, 8.5],
			"faces": {
				"north": {"uv": [12, 4, 12.97969, 4.97969], "texture": "#0", "cullface": "Know2Good"},
				"east": {"uv": [12, 4, 12.97969, 4.97969], "texture": "#0", "cullface": "Know2Good"},
				"south": {"uv": [12, 4, 12.97969, 4.97969], "texture": "#0", "cullface": "Know2Good"},
				"west": {"uv": [12, 4, 12.97969, 4.97969], "texture": "#0", "cullface": "Know2Good"},
				"up": {"uv": [12, 4, 12.97969, 4.97969], "texture": "#0", "cullface": "Know2Good"},
				"down": {"uv": [12, 4, 12.97969, 4.97969], "texture": "#0", "cullface": "Know2Good"}
			}
		},
		{
			"name": "Blade top to bottom down-middle",
			"from": [10, 9, 7.5],
			"to": [11, 10, 8.5],
			"faces": {
				"north": {"uv": [12, 4, 12.97969, 4.97969], "texture": "#0", "cullface": "Know2Good"},
				"east": {"uv": [12, 4, 12.97969, 4.97969], "texture": "#0", "cullface": "Know2Good"},
				"south": {"uv": [12, 4, 12.97969, 4.97969], "texture": "#0", "cullface": "Know2Good"},
				"west": {"uv": [12, 4, 12.97969, 4.97969], "texture": "#0", "cullface": "Know2Good"},
				"up": {"uv": [12, 4, 12.97969, 4.97969], "texture": "#0", "cullface": "Know2Good"},
				"down": {"uv": [12, 4, 12.97969, 4.97969], "texture": "#0", "cullface": "Know2Good"}
			}
		},
		{
			"name": "Blade top to bottom down-middle",
			"from": [9, 8, 7.5],
			"to": [10, 9, 8.5],
			"faces": {
				"north": {"uv": [12, 4, 12.97969, 4.97969], "texture": "#0", "cullface": "Know2Good"},
				"east": {"uv": [12, 4, 12.97969, 4.97969], "texture": "#0", "cullface": "Know2Good"},
				"south": {"uv": [12, 4, 12.97969, 4.97969], "texture": "#0", "cullface": "Know2Good"},
				"west": {"uv": [12, 4, 12.97969, 4.97969], "texture": "#0", "cullface": "Know2Good"},
				"up": {"uv": [12, 4, 12.97969, 4.97969], "texture": "#0", "cullface": "Know2Good"},
				"down": {"uv": [12, 4, 12.97969, 4.97969], "texture": "#0", "cullface": "Know2Good"}
			}
		},
		{
			"name": "Blade top to bottom down-middle",
			"from": [8, 7, 7.5],
			"to": [9, 8, 8.5],
			"faces": {
				"north": {"uv": [12, 4, 12.97969, 4.97969], "texture": "#0", "cullface": "Know2Good"},
				"east": {"uv": [12, 4, 12.97969, 4.97969], "texture": "#0", "cullface": "Know2Good"},
				"south": {"uv": [12, 4, 12.97969, 4.97969], "texture": "#0", "cullface": "Know2Good"},
				"west": {"uv": [12, 4, 12.97969, 4.97969], "texture": "#0", "cullface": "Know2Good"},
				"up": {"uv": [12, 4, 12.97969, 4.97969], "texture": "#0", "cullface": "Know2Good"},
				"down": {"uv": [12, 4, 12.97969, 4.97969], "texture": "#0", "cullface": "Know2Good"}
			}
		},
		{
			"name": "Blade top to bottom down-middle",
			"from": [7, 6, 7.5],
			"to": [8, 7, 8.5],
			"faces": {
				"north": {"uv": [6, 8, 6.97969, 8.97969], "texture": "#0", "cullface": "Know2Good"},
				"east": {"uv": [6, 8, 6.97969, 8.97969], "texture": "#0", "cullface": "Know2Good"},
				"south": {"uv": [6, 8, 6.97969, 8.97969], "texture": "#0", "cullface": "Know2Good"},
				"west": {"uv": [6, 8, 6.97969, 8.97969], "texture": "#0", "cullface": "Know2Good"},
				"up": {"uv": [6, 8, 6.97969, 8.97969], "texture": "#0", "cullface": "Know2Good"},
				"down": {"uv": [6, 8, 6.97969, 8.97969], "texture": "#0", "cullface": "Know2Good"}
			}
		},
		{
			"name": "Guard center",
			"from": [5, 5, 7],
			"to": [6, 6, 9],
			"faces": {
				"north": {"uv": [5, 10, 5.97969, 10.97969], "texture": "#0", "cullface": "Know2Good"},
				"east": {"uv": [5, 10, 5.97969, 10.97969], "texture": "#0", "cullface": "Know2Good"},
				"south": {"uv": [5, 10, 5.97969, 10.97969], "texture": "#0", "cullface": "Know2Good"},
				"west": {"uv": [5, 10, 5.97969, 10.97969], "texture": "#0", "cullface": "Know2Good"},
				"up": {"uv": [5, 10, 5.97969, 10.97969], "texture": "#0", "cullface": "Know2Good"},
				"down": {"uv": [5, 10, 5.97969, 10.97969], "texture": "#0", "cullface": "Know2Good"}
			}
		},
		{
			"name": "Guard up center-up",
			"from": [5, 6, 7.25],
			"to": [6, 8, 8.75],
			"faces": {
				"north": {"uv": [12, 1, 12.97969, 1.97969], "texture": "#0", "cullface": "Know2Good"},
				"east": {"uv": [12, 1, 12.97969, 1.97969], "texture": "#0", "cullface": "Know2Good"},
				"south": {"uv": [12, 1, 12.97969, 1.97969], "texture": "#0", "cullface": "Know2Good"},
				"west": {"uv": [12, 1, 12.97969, 1.97969], "texture": "#0", "cullface": "Know2Good"},
				"up": {"uv": [12, 1, 12.97969, 1.97969], "texture": "#0", "cullface": "Know2Good"},
				"down": {"uv": [12, 1, 12.97969, 1.97969], "texture": "#0", "cullface": "Know2Good"}
			}
		},
		{
			"name": "Guard up center-up",
			"from": [4, 6, 7],
			"to": [5, 8, 9],
			"faces": {
				"north": {"uv": [4, 8, 4.97969, 8.97969], "texture": "#0", "cullface": "Know2Good"},
				"east": {"uv": [4, 8, 4.97969, 8.97969], "texture": "#0", "cullface": "Know2Good"},
				"south": {"uv": [4, 8, 4.97969, 8.97969], "texture": "#0", "cullface": "Know2Good"},
				"west": {"uv": [4, 8, 4.97969, 8.97969], "texture": "#0", "cullface": "Know2Good"},
				"up": {"uv": [4, 8, 4.97969, 8.97969], "texture": "#0", "cullface": "Know2Good"},
				"down": {"uv": [4, 8, 4.97969, 8.97969], "texture": "#0", "cullface": "Know2Good"}
			}
		},
		{
			"name": "Guard up center-up",
			"from": [3, 6, 7.25],
			"to": [4, 8, 8.75],
			"faces": {
				"north": {"uv": [4, 7, 4.97969, 7.97969], "texture": "#0", "cullface": "Know2Good"},
				"east": {"uv": [4, 7, 4.97969, 7.97969], "texture": "#0", "cullface": "Know2Good"},
				"south": {"uv": [4, 7, 4.97969, 7.97969], "texture": "#0", "cullface": "Know2Good"},
				"west": {"uv": [4, 7, 4.97969, 7.97969], "texture": "#0", "cullface": "Know2Good"},
				"up": {"uv": [4, 7, 4.97969, 7.97969], "texture": "#0", "cullface": "Know2Good"},
				"down": {"uv": [4, 7, 4.97969, 7.97969], "texture": "#0", "cullface": "Know2Good"}
			}
		},
		{
			"name": "Guard up center-up",
			"from": [4, 8, 7.25],
			"to": [5, 9, 8.75],
			"faces": {
				"north": {"uv": [4, 7, 4.97969, 7.97969], "texture": "#0", "cullface": "Know2Good"},
				"east": {"uv": [4, 7, 4.97969, 7.97969], "texture": "#0", "cullface": "Know2Good"},
				"south": {"uv": [4, 7, 4.97969, 7.97969], "texture": "#0", "cullface": "Know2Good"},
				"west": {"uv": [4, 7, 4.97969, 7.97969], "texture": "#0", "cullface": "Know2Good"},
				"up": {"uv": [4, 7, 4.97969, 7.97969], "texture": "#0", "cullface": "Know2Good"},
				"down": {"uv": [4, 7, 4.97969, 7.97969], "texture": "#0", "cullface": "Know2Good"}
			}
		},
		{
			"name": "Guard up center-up",
			"from": [2, 9, 7.25],
			"to": [4, 10, 8.75],
			"faces": {
				"north": {"uv": [4, 7, 4.97969, 7.97969], "texture": "#0", "cullface": "Know2Good"},
				"east": {"uv": [4, 7, 4.97969, 7.97969], "texture": "#0", "cullface": "Know2Good"},
				"south": {"uv": [4, 7, 4.97969, 7.97969], "texture": "#0", "cullface": "Know2Good"},
				"west": {"uv": [4, 7, 4.97969, 7.97969], "texture": "#0", "cullface": "Know2Good"},
				"up": {"uv": [4, 7, 4.97969, 7.97969], "texture": "#0", "cullface": "Know2Good"},
				"down": {"uv": [4, 7, 4.97969, 7.97969], "texture": "#0", "cullface": "Know2Good"}
			}
		},
		{
			"name": "Guard up center-up",
			"from": [3, 8, 7],
			"to": [4, 9, 9],
			"faces": {
				"north": {"uv": [4, 8, 4.97969, 8.97969], "texture": "#0", "cullface": "Know2Good"},
				"east": {"uv": [4, 8, 4.97969, 8.97969], "texture": "#0", "cullface": "Know2Good"},
				"south": {"uv": [4, 8, 4.97969, 8.97969], "texture": "#0", "cullface": "Know2Good"},
				"west": {"uv": [4, 8, 4.97969, 8.97969], "texture": "#0", "cullface": "Know2Good"},
				"up": {"uv": [4, 8, 4.97969, 8.97969], "texture": "#0", "cullface": "Know2Good"},
				"down": {"uv": [4, 8, 4.97969, 8.97969], "texture": "#0", "cullface": "Know2Good"}
			}
		},
		{
			"name": "Guard up center-up",
			"from": [2, 8, 7.25],
			"to": [3, 9, 8.75],
			"faces": {
				"north": {"uv": [4, 7, 4.97969, 7.97969], "texture": "#0", "cullface": "Know2Good"},
				"east": {"uv": [4, 7, 4.97969, 7.97969], "texture": "#0", "cullface": "Know2Good"},
				"south": {"uv": [4, 7, 4.97969, 7.97969], "texture": "#0", "cullface": "Know2Good"},
				"west": {"uv": [4, 7, 4.97969, 7.97969], "texture": "#0", "cullface": "Know2Good"},
				"up": {"uv": [4, 7, 4.97969, 7.97969], "texture": "#0", "cullface": "Know2Good"},
				"down": {"uv": [4, 7, 4.97969, 7.97969], "texture": "#0", "cullface": "Know2Good"}
			}
		},
		{
			"name": "Guard up center-down",
			"from": [6, 5, 7.25],
			"to": [8, 6, 8.75],
			"faces": {
				"north": {"uv": [12, 1, 12.97969, 1.97969], "texture": "#0", "cullface": "Know2Good"},
				"east": {"uv": [12, 1, 12.97969, 1.97969], "texture": "#0", "cullface": "Know2Good"},
				"south": {"uv": [12, 1, 12.97969, 1.97969], "texture": "#0", "cullface": "Know2Good"},
				"west": {"uv": [12, 1, 12.97969, 1.97969], "texture": "#0", "cullface": "Know2Good"},
				"up": {"uv": [12, 1, 12.97969, 1.97969], "texture": "#0", "cullface": "Know2Good"},
				"down": {"uv": [12, 1, 12.97969, 1.97969], "texture": "#0", "cullface": "Know2Good"}
			}
		},
		{
			"name": "Guard up center-down",
			"from": [6, 4, 7],
			"to": [8, 5, 9],
			"faces": {
				"north": {"uv": [4, 8, 4.97969, 8.97969], "texture": "#0", "cullface": "Know2Good"},
				"east": {"uv": [4, 8, 4.97969, 8.97969], "texture": "#0", "cullface": "Know2Good"},
				"south": {"uv": [4, 8, 4.97969, 8.97969], "texture": "#0", "cullface": "Know2Good"},
				"west": {"uv": [4, 8, 4.97969, 8.97969], "texture": "#0", "cullface": "Know2Good"},
				"up": {"uv": [4, 8, 4.97969, 8.97969], "texture": "#0", "cullface": "Know2Good"},
				"down": {"uv": [4, 8, 4.97969, 8.97969], "texture": "#0", "cullface": "Know2Good"}
			}
		},
		{
			"name": "Guard up center-down",
			"from": [6, 3, 7.25],
			"to": [8, 4, 8.75],
			"faces": {
				"north": {"uv": [12, 1, 12.97969, 1.97969], "texture": "#0", "cullface": "Know2Good"},
				"east": {"uv": [12, 1, 12.97969, 1.97969], "texture": "#0", "cullface": "Know2Good"},
				"south": {"uv": [12, 1, 12.97969, 1.97969], "texture": "#0", "cullface": "Know2Good"},
				"west": {"uv": [12, 1, 12.97969, 1.97969], "texture": "#0", "cullface": "Know2Good"},
				"up": {"uv": [12, 1, 12.97969, 1.97969], "texture": "#0", "cullface": "Know2Good"},
				"down": {"uv": [12, 1, 12.97969, 1.97969], "texture": "#0", "cullface": "Know2Good"}
			}
		},
		{
			"name": "Guard up center-down",
			"from": [8, 4, 7.25],
			"to": [9, 5, 8.75],
			"faces": {
				"north": {"uv": [12, 1, 12.97969, 1.97969], "texture": "#0", "cullface": "Know2Good"},
				"east": {"uv": [12, 1, 12.97969, 1.97969], "texture": "#0", "cullface": "Know2Good"},
				"south": {"uv": [12, 1, 12.97969, 1.97969], "texture": "#0", "cullface": "Know2Good"},
				"west": {"uv": [12, 1, 12.97969, 1.97969], "texture": "#0", "cullface": "Know2Good"},
				"up": {"uv": [12, 1, 12.97969, 1.97969], "texture": "#0", "cullface": "Know2Good"},
				"down": {"uv": [12, 1, 12.97969, 1.97969], "texture": "#0", "cullface": "Know2Good"}
			}
		},
		{
			"name": "Guard up center-down",
			"from": [9, 2, 7.25],
			"to": [10, 4, 8.75],
			"faces": {
				"north": {"uv": [12, 1, 12.97969, 1.97969], "texture": "#0", "cullface": "Know2Good"},
				"east": {"uv": [12, 1, 12.97969, 1.97969], "texture": "#0", "cullface": "Know2Good"},
				"south": {"uv": [12, 1, 12.97969, 1.97969], "texture": "#0", "cullface": "Know2Good"},
				"west": {"uv": [12, 1, 12.97969, 1.97969], "texture": "#0", "cullface": "Know2Good"},
				"up": {"uv": [12, 1, 12.97969, 1.97969], "texture": "#0", "cullface": "Know2Good"},
				"down": {"uv": [12, 1, 12.97969, 1.97969], "texture": "#0", "cullface": "Know2Good"}
			}
		},
		{
			"name": "Guard up center-down",
			"from": [8, 2, 7.25],
			"to": [9, 3, 8.75],
			"faces": {
				"north": {"uv": [12, 1, 12.97969, 1.97969], "texture": "#0", "cullface": "Know2Good"},
				"east": {"uv": [12, 1, 12.97969, 1.97969], "texture": "#0", "cullface": "Know2Good"},
				"south": {"uv": [12, 1, 12.97969, 1.97969], "texture": "#0", "cullface": "Know2Good"},
				"west": {"uv": [12, 1, 12.97969, 1.97969], "texture": "#0", "cullface": "Know2Good"},
				"up": {"uv": [12, 1, 12.97969, 1.97969], "texture": "#0", "cullface": "Know2Good"},
				"down": {"uv": [12, 1, 12.97969, 1.97969], "texture": "#0", "cullface": "Know2Good"}
			}
		},
		{
			"name": "Guard up center-down",
			"from": [8, 3, 7],
			"to": [9, 4, 9],
			"faces": {
				"north": {"uv": [4, 8, 4.97969, 8.97969], "texture": "#0", "cullface": "Know2Good"},
				"east": {"uv": [4, 8, 4.97969, 8.97969], "texture": "#0", "cullface": "Know2Good"},
				"south": {"uv": [4, 8, 4.97969, 8.97969], "texture": "#0", "cullface": "Know2Good"},
				"west": {"uv": [4, 8, 4.97969, 8.97969], "texture": "#0", "cullface": "Know2Good"},
				"up": {"uv": [4, 8, 4.97969, 8.97969], "texture": "#0", "cullface": "Know2Good"},
				"down": {"uv": [4, 8, 4.97969, 8.97969], "texture": "#0", "cullface": "Know2Good"}
			}
		},
		{
			"name": "Handle center up",
			"from": [4, 5, 7.25],
			"to": [5, 6, 8.75],
			"faces": {
				"north": {"uv": [4, 7, 4.97969, 7.97969], "texture": "#0", "cullface": "Know2Good"},
				"east": {"uv": [4, 7, 4.97969, 7.97969], "texture": "#0", "cullface": "Know2Good"},
				"south": {"uv": [4, 7, 4.97969, 7.97969], "texture": "#0", "cullface": "Know2Good"},
				"west": {"uv": [4, 7, 4.97969, 7.97969], "texture": "#0", "cullface": "Know2Good"},
				"up": {"uv": [4, 7, 4.97969, 7.97969], "texture": "#0", "cullface": "Know2Good"},
				"down": {"uv": [4, 7, 4.97969, 7.97969], "texture": "#0", "cullface": "Know2Good"}
			}
		},
		{
			"name": "Handle center up",
			"from": [3, 4, 7.25],
			"to": [4, 5, 8.75],
			"faces": {
				"north": {"uv": [2, 12, 2.97969, 12.97969], "texture": "#0", "cullface": "Know2Good"},
				"east": {"uv": [2, 12, 2.97969, 12.97969], "texture": "#0", "cullface": "Know2Good"},
				"south": {"uv": [2, 12, 2.97969, 12.97969], "texture": "#0", "cullface": "Know2Good"},
				"west": {"uv": [2, 12, 2.97969, 12.97969], "texture": "#0", "cullface": "Know2Good"},
				"up": {"uv": [2, 12, 2.97969, 12.97969], "texture": "#0", "cullface": "Know2Good"},
				"down": {"uv": [2, 12, 2.97969, 12.97969], "texture": "#0", "cullface": "Know2Good"}
			}
		},
		{
			"name": "Handle center up",
			"from": [2, 3, 7.25],
			"to": [3, 4, 8.75],
			"faces": {
				"north": {"uv": [2, 12, 2.97969, 12.97969], "texture": "#0", "cullface": "Know2Good"},
				"east": {"uv": [2, 12, 2.97969, 12.97969], "texture": "#0", "cullface": "Know2Good"},
				"south": {"uv": [2, 12, 2.97969, 12.97969], "texture": "#0", "cullface": "Know2Good"},
				"west": {"uv": [2, 12, 2.97969, 12.97969], "texture": "#0", "cullface": "Know2Good"},
				"up": {"uv": [2, 12, 2.97969, 12.97969], "texture": "#0", "cullface": "Know2Good"},
				"down": {"uv": [2, 12, 2.97969, 12.97969], "texture": "#0", "cullface": "Know2Good"}
			}
		},
		{
			"name": "Handle center",
			"from": [4, 4, 7],
			"to": [5, 5, 9],
			"faces": {
				"north": {"uv": [2, 13, 2.97969, 13.97969], "texture": "#0", "cullface": "Know2Good"},
				"east": {"uv": [2, 13, 2.97969, 13.97969], "texture": "#0", "cullface": "Know2Good"},
				"south": {"uv": [2, 13, 2.97969, 13.97969], "texture": "#0", "cullface": "Know2Good"},
				"west": {"uv": [2, 13, 2.97969, 13.97969], "texture": "#0", "cullface": "Know2Good"},
				"up": {"uv": [2, 13, 2.97969, 13.97969], "texture": "#0", "cullface": "Know2Good"},
				"down": {"uv": [2, 13, 2.97969, 13.97969], "texture": "#0", "cullface": "Know2Good"}
			}
		},
		{
			"name": "Handle center",
			"from": [3, 3, 7],
			"to": [4, 4, 9],
			"faces": {
				"north": {"uv": [3, 12, 3.97969, 12.97969], "texture": "#0", "cullface": "Know2Good"},
				"east": {"uv": [3, 12, 3.97969, 12.97969], "texture": "#0", "cullface": "Know2Good"},
				"south": {"uv": [3, 12, 3.97969, 12.97969], "texture": "#0", "cullface": "Know2Good"},
				"west": {"uv": [3, 12, 3.97969, 12.97969], "texture": "#0", "cullface": "Know2Good"},
				"up": {"uv": [3, 12, 3.97969, 12.97969], "texture": "#0", "cullface": "Know2Good"},
				"down": {"uv": [3, 12, 3.97969, 12.97969], "texture": "#0", "cullface": "Know2Good"}
			}
		},
		{
			"name": "Handle center",
			"from": [2, 2, 7],
			"to": [3, 3, 9],
			"faces": {
				"north": {"uv": [2, 13, 2.97969, 13.97969], "texture": "#0", "cullface": "Know2Good"},
				"east": {"uv": [2, 13, 2.97969, 13.97969], "texture": "#0", "cullface": "Know2Good"},
				"south": {"uv": [2, 13, 2.97969, 13.97969], "texture": "#0", "cullface": "Know2Good"},
				"west": {"uv": [2, 13, 2.97969, 13.97969], "texture": "#0", "cullface": "Know2Good"},
				"up": {"uv": [2, 13, 2.97969, 13.97969], "texture": "#0", "cullface": "Know2Good"},
				"down": {"uv": [2, 13, 2.97969, 13.97969], "texture": "#0", "cullface": "Know2Good"}
			}
		},
		{
			"name": "Handle center",
			"from": [1, 1, 7],
			"to": [2, 2, 9],
			"faces": {
				"north": {"uv": [1, 14, 1.97969, 14.97969], "texture": "#0", "cullface": "Know2Good"},
				"east": {"uv": [1, 14, 1.97969, 14.97969], "texture": "#0", "cullface": "Know2Good"},
				"south": {"uv": [1, 14, 1.97969, 14.97969], "texture": "#0", "cullface": "Know2Good"},
				"west": {"uv": [1, 14, 1.97969, 14.97969], "texture": "#0", "cullface": "Know2Good"},
				"up": {"uv": [1, 14, 1.97969, 14.97969], "texture": "#0", "cullface": "Know2Good"},
				"down": {"uv": [1, 14, 1.97969, 14.97969], "texture": "#0", "cullface": "Know2Good"}
			}
		},
		{
			"name": "Handle center down",
			"from": [5, 4, 7.25],
			"to": [6, 5, 8.75],
			"faces": {
				"north": {"uv": [12, 1, 12.97969, 1.97969], "texture": "#0", "cullface": "Know2Good"},
				"east": {"uv": [12, 1, 12.97969, 1.97969], "texture": "#0", "cullface": "Know2Good"},
				"south": {"uv": [12, 1, 12.97969, 1.97969], "texture": "#0", "cullface": "Know2Good"},
				"west": {"uv": [12, 1, 12.97969, 1.97969], "texture": "#0", "cullface": "Know2Good"},
				"up": {"uv": [12, 1, 12.97969, 1.97969], "texture": "#0", "cullface": "Know2Good"},
				"down": {"uv": [12, 1, 12.97969, 1.97969], "texture": "#0", "cullface": "Know2Good"}
			}
		},
		{
			"name": "Handle center down",
			"from": [4, 3, 7.25],
			"to": [5, 4, 8.75],
			"faces": {
				"north": {"uv": [3, 13, 3.97969, 13.97969], "texture": "#0", "cullface": "Know2Good"},
				"east": {"uv": [3, 13, 3.97969, 13.97969], "texture": "#0", "cullface": "Know2Good"},
				"south": {"uv": [3, 13, 3.97969, 13.97969], "texture": "#0", "cullface": "Know2Good"},
				"west": {"uv": [3, 13, 3.97969, 13.97969], "texture": "#0", "cullface": "Know2Good"},
				"up": {"uv": [3, 13, 3.97969, 13.97969], "texture": "#0", "cullface": "Know2Good"},
				"down": {"uv": [3, 13, 3.97969, 13.97969], "texture": "#0", "cullface": "Know2Good"}
			}
		},
		{
			"name": "Handle center down",
			"from": [3, 2, 7.25],
			"to": [4, 3, 8.75],
			"faces": {
				"north": {"uv": [3, 13, 3.97969, 13.97969], "texture": "#0", "cullface": "Know2Good"},
				"east": {"uv": [3, 13, 3.97969, 13.97969], "texture": "#0", "cullface": "Know2Good"},
				"south": {"uv": [3, 13, 3.97969, 13.97969], "texture": "#0", "cullface": "Know2Good"},
				"west": {"uv": [3, 13, 3.97969, 13.97969], "texture": "#0", "cullface": "Know2Good"},
				"up": {"uv": [3, 13, 3.97969, 13.97969], "texture": "#0", "cullface": "Know2Good"},
				"down": {"uv": [3, 13, 3.97969, 13.97969], "texture": "#0", "cullface": "Know2Good"}
			}
		},
		{
			"name": "Pommel handle center up to down",
			"from": [1, 2, 7.25],
			"to": [2, 3, 8.75],
			"faces": {
				"north": {"uv": [4, 7, 4.97969, 7.97969], "texture": "#0", "cullface": "Know2Good"},
				"east": {"uv": [4, 7, 4.97969, 7.97969], "texture": "#0", "cullface": "Know2Good"},
				"south": {"uv": [4, 7, 4.97969, 7.97969], "texture": "#0", "cullface": "Know2Good"},
				"west": {"uv": [4, 7, 4.97969, 7.97969], "texture": "#0", "cullface": "Know2Good"},
				"up": {"uv": [4, 7, 4.97969, 7.97969], "texture": "#0", "cullface": "Know2Good"},
				"down": {"uv": [4, 7, 4.97969, 7.97969], "texture": "#0", "cullface": "Know2Good"}
			}
		},
		{
			"name": "Pommel handle center up to down",
			"from": [0, 1, 7.25],
			"to": [1, 2, 8.75],
			"faces": {
				"north": {"uv": [4, 7, 4.97969, 7.97969], "texture": "#0", "cullface": "Know2Good"},
				"east": {"uv": [4, 7, 4.97969, 7.97969], "texture": "#0", "cullface": "Know2Good"},
				"south": {"uv": [4, 7, 4.97969, 7.97969], "texture": "#0", "cullface": "Know2Good"},
				"west": {"uv": [4, 7, 4.97969, 7.97969], "texture": "#0", "cullface": "Know2Good"},
				"up": {"uv": [4, 7, 4.97969, 7.97969], "texture": "#0", "cullface": "Know2Good"},
				"down": {"uv": [4, 7, 4.97969, 7.97969], "texture": "#0", "cullface": "Know2Good"}
			}
		},
		{
			"name": "Pommel handle center up to down",
			"from": [0, 0, 7.25],
			"to": [1, 1, 8.75],
			"faces": {
				"north": {"uv": [4, 7, 4.97969, 7.97969], "texture": "#0", "cullface": "Know2Good"},
				"east": {"uv": [4, 7, 4.97969, 7.97969], "texture": "#0", "cullface": "Know2Good"},
				"south": {"uv": [4, 7, 4.97969, 7.97969], "texture": "#0", "cullface": "Know2Good"},
				"west": {"uv": [4, 7, 4.97969, 7.97969], "texture": "#0", "cullface": "Know2Good"},
				"up": {"uv": [4, 7, 4.97969, 7.97969], "texture": "#0", "cullface": "Know2Good"},
				"down": {"uv": [4, 7, 4.97969, 7.97969], "texture": "#0", "cullface": "Know2Good"}
			}
		},
		{
			"name": "Pommel handle center up to down",
			"from": [1, 0, 7.25],
			"to": [2, 1, 8.75],
			"faces": {
				"north": {"uv": [4, 7, 4.97969, 7.97969], "texture": "#0", "cullface": "Know2Good"},
				"east": {"uv": [4, 7, 4.97969, 7.97969], "texture": "#0", "cullface": "Know2Good"},
				"south": {"uv": [4, 7, 4.97969, 7.97969], "texture": "#0", "cullface": "Know2Good"},
				"west": {"uv": [4, 7, 4.97969, 7.97969], "texture": "#0", "cullface": "Know2Good"},
				"up": {"uv": [4, 7, 4.97969, 7.97969], "texture": "#0", "cullface": "Know2Good"},
				"down": {"uv": [4, 7, 4.97969, 7.97969], "texture": "#0", "cullface": "Know2Good"}
			}
		},
		{
			"name": "Pommel handle center up to down",
			"from": [2, 1, 7.25],
			"to": [3, 2, 8.75],
			"faces": {
				"north": {"uv": [4, 7, 4.97969, 7.97969], "texture": "#0", "cullface": "Know2Good"},
				"east": {"uv": [4, 7, 4.97969, 7.97969], "texture": "#0", "cullface": "Know2Good"},
				"south": {"uv": [4, 7, 4.97969, 7.97969], "texture": "#0", "cullface": "Know2Good"},
				"west": {"uv": [4, 7, 4.97969, 7.97969], "texture": "#0", "cullface": "Know2Good"},
				"up": {"uv": [4, 7, 4.97969, 7.97969], "texture": "#0", "cullface": "Know2Good"},
				"down": {"uv": [4, 7, 4.97969, 7.97969], "texture": "#0", "cullface": "Know2Good"}
			}
		},
		{
			"name": "Blade top to bottom up",
			"from": [13, 15, 7.75],
			"to": [14, 16, 8.25],
			"faces": {
				"north": {"uv": [12, 1, 12.97969, 1.97969], "texture": "#0", "cullface": "Know2Good"},
				"east": {"uv": [12, 1, 12.97969, 1.97969], "texture": "#0", "cullface": "Know2Good"},
				"south": {"uv": [12, 1, 12.97969, 1.97969], "texture": "#0", "cullface": "Know2Good"},
				"west": {"uv": [12, 1, 12.97969, 1.97969], "texture": "#0", "cullface": "Know2Good"},
				"up": {"uv": [12, 1, 12.97969, 1.97969], "texture": "#0", "cullface": "Know2Good"},
				"down": {"uv": [12, 1, 12.97969, 1.97969], "texture": "#0", "cullface": "Know2Good"}
			}
		},
		{
			"name": "Blade top to bottom up",
			"from": [14, 16, 7.75],
			"to": [15, 17, 8.25],
			"faces": {
				"north": {"uv": [12, 1, 12.97969, 1.97969], "texture": "#0", "cullface": "Know2Good"},
				"east": {"uv": [12, 1, 12.97969, 1.97969], "texture": "#0", "cullface": "Know2Good"},
				"south": {"uv": [12, 1, 12.97969, 1.97969], "texture": "#0", "cullface": "Know2Good"},
				"west": {"uv": [12, 1, 12.97969, 1.97969], "texture": "#0", "cullface": "Know2Good"},
				"up": {"uv": [12, 1, 12.97969, 1.97969], "texture": "#0", "cullface": "Know2Good"},
				"down": {"uv": [12, 1, 12.97969, 1.97969], "texture": "#0", "cullface": "Know2Good"}
			}
		},
		{
			"name": "Blade top to bottom down-middle",
			"from": [15, 14, 7.5],
			"to": [16, 15, 8.5],
			"faces": {
				"north": {"uv": [12, 4, 12.97969, 4.97969], "texture": "#0", "cullface": "Know2Good"},
				"east": {"uv": [12, 4, 12.97969, 4.97969], "texture": "#0", "cullface": "Know2Good"},
				"south": {"uv": [12, 4, 12.97969, 4.97969], "texture": "#0", "cullface": "Know2Good"},
				"west": {"uv": [12, 4, 12.97969, 4.97969], "texture": "#0", "cullface": "Know2Good"},
				"up": {"uv": [12, 4, 12.97969, 4.97969], "texture": "#0", "cullface": "Know2Good"},
				"down": {"uv": [12, 4, 12.97969, 4.97969], "texture": "#0", "cullface": "Know2Good"}
			}
		},
		{
			"name": "Blade top to bottom down",
			"from": [15, 13, 7.75],
			"to": [16, 14, 8.25],
			"faces": {
				"north": {"uv": [12, 1, 12.97969, 1.97969], "texture": "#0", "cullface": "Know2Good"},
				"east": {"uv": [12, 1, 12.97969, 1.97969], "texture": "#0", "cullface": "Know2Good"},
				"south": {"uv": [12, 1, 12.97969, 1.97969], "texture": "#0", "cullface": "Know2Good"},
				"west": {"uv": [12, 1, 12.97969, 1.97969], "texture": "#0", "cullface": "Know2Good"},
				"up": {"uv": [12, 1, 12.97969, 1.97969], "texture": "#0", "cullface": "Know2Good"},
				"down": {"uv": [12, 1, 12.97969, 1.97969], "texture": "#0", "cullface": "Know2Good"}
			}
		},
		{
			"name": "Blade top to bottom down",
			"from": [16, 14, 7.75],
			"to": [17, 15, 8.25],
			"faces": {
				"north": {"uv": [12, 1, 12.97969, 1.97969], "texture": "#0", "cullface": "Know2Good"},
				"east": {"uv": [12, 1, 12.97969, 1.97969], "texture": "#0", "cullface": "Know2Good"},
				"south": {"uv": [12, 1, 12.97969, 1.97969], "texture": "#0", "cullface": "Know2Good"},
				"west": {"uv": [12, 1, 12.97969, 1.97969], "texture": "#0", "cullface": "Know2Good"},
				"up": {"uv": [12, 1, 12.97969, 1.97969], "texture": "#0", "cullface": "Know2Good"},
				"down": {"uv": [12, 1, 12.97969, 1.97969], "texture": "#0", "cullface": "Know2Good"}
			}
		},
		{
			"name": "Blade top to bottom down-middle",
			"from": [14, 15, 7.5],
			"to": [15, 16, 8.5],
			"faces": {
				"north": {"uv": [13, 3, 13.97969, 3.97969], "texture": "#0", "cullface": "Know2Good"},
				"east": {"uv": [13, 3, 13.97969, 3.97969], "texture": "#0", "cullface": "Know2Good"},
				"south": {"uv": [13, 3, 13.97969, 3.97969], "texture": "#0", "cullface": "Know2Good"},
				"west": {"uv": [13, 3, 13.97969, 3.97969], "texture": "#0", "cullface": "Know2Good"},
				"up": {"uv": [13, 3, 13.97969, 3.97969], "texture": "#0", "cullface": "Know2Good"},
				"down": {"uv": [13, 3, 13.97969, 3.97969], "texture": "#0", "cullface": "Know2Good"}
			}
		},
		{
			"name": "Blade top to bottom down-middle",
			"from": [17, 18, 7.5],
			"to": [19, 19, 8.5],
			"faces": {
				"north": {"uv": [14.01, 2.01, 14.99, 2.99], "texture": "#0", "cullface": "Know2Good"},
				"east": {"uv": [13, 1, 13.97969, 1.97969], "texture": "#0", "cullface": "Know2Good"},
				"south": {"uv": [13, 1, 13.97969, 1.97969], "texture": "#0", "cullface": "Know2Good"},
				"west": {"uv": [14, 2, 14.97969, 2.97969], "texture": "#0", "cullface": "Know2Good"},
				"up": {"uv": [14, 2, 14.97969, 2.97969], "texture": "#0", "cullface": "Know2Good"},
				"down": {"uv": [14, 2, 14.97969, 2.97969], "texture": "#0", "cullface": "Know2Good"}
			}
		},
		{
			"name": "Blade top to bottom down-middle",
			"from": [18, 17, 7.5],
			"to": [19, 18, 8.5],
			"faces": {
				"north": {"uv": [14, 2, 14.97969, 2.97969], "texture": "#0", "cullface": "Know2Good"},
				"east": {"uv": [14, 2, 14.97969, 2.97969], "texture": "#0", "cullface": "Know2Good"},
				"south": {"uv": [14, 2, 14.97969, 2.97969], "texture": "#0", "cullface": "Know2Good"},
				"west": {"uv": [14, 2, 14.97969, 2.97969], "texture": "#0", "cullface": "Know2Good"},
				"up": {"uv": [14, 2, 14.97969, 2.97969], "texture": "#0", "cullface": "Know2Good"},
				"down": {"uv": [14, 2, 14.97969, 2.97969], "texture": "#0", "cullface": "Know2Good"}
			}
		},
		{
			"name": "Blade top to bottom middle",
			"from": [15, 15, 7.25],
			"to": [16, 16, 8.75],
			"faces": {
				"north": {"uv": [13, 2, 13.97969, 2.97969], "texture": "#0", "cullface": "Know2Good"},
				"east": {"uv": [13, 2, 13.97969, 2.97969], "texture": "#0", "cullface": "Know2Good"},
				"south": {"uv": [13, 2, 13.97969, 2.97969], "texture": "#0", "cullface": "Know2Good"},
				"west": {"uv": [13, 2, 13.97969, 2.97969], "texture": "#0", "cullface": "Know2Good"},
				"up": {"uv": [13, 2, 13.97969, 2.97969], "texture": "#0", "cullface": "Know2Good"},
				"down": {"uv": [13, 2, 13.97969, 2.97969], "texture": "#0", "cullface": "Know2Good"}
			}
		},
		{
			"name": "Blade top to bottom up",
			"from": [15, 17, 7.75],
			"to": [16, 18, 8.25],
			"faces": {
				"north": {"uv": [12, 1, 12.97969, 1.97969], "texture": "#0", "cullface": "Know2Good"},
				"east": {"uv": [12, 1, 12.97969, 1.97969], "texture": "#0", "cullface": "Know2Good"},
				"south": {"uv": [12, 1, 12.97969, 1.97969], "texture": "#0", "cullface": "Know2Good"},
				"west": {"uv": [12, 1, 12.97969, 1.97969], "texture": "#0", "cullface": "Know2Good"},
				"up": {"uv": [12, 1, 12.97969, 1.97969], "texture": "#0", "cullface": "Know2Good"},
				"down": {"uv": [12, 1, 12.97969, 1.97969], "texture": "#0", "cullface": "Know2Good"}
			}
		},
		{
			"name": "Blade top to bottom up",
			"from": [16, 18, 7.75],
			"to": [17, 19, 8.25],
			"faces": {
				"north": {"uv": [12, 1, 12.97969, 1.97969], "texture": "#0", "cullface": "Know2Good"},
				"east": {"uv": [12, 1, 12.97969, 1.97969], "texture": "#0", "cullface": "Know2Good"},
				"south": {"uv": [12, 1, 12.97969, 1.97969], "texture": "#0", "cullface": "Know2Good"},
				"west": {"uv": [12, 1, 12.97969, 1.97969], "texture": "#0", "cullface": "Know2Good"},
				"up": {"uv": [12, 1, 12.97969, 1.97969], "texture": "#0", "cullface": "Know2Good"},
				"down": {"uv": [12, 1, 12.97969, 1.97969], "texture": "#0", "cullface": "Know2Good"}
			}
		},
		{
			"name": "Blade top to bottom down",
			"from": [17, 15, 7.75],
			"to": [18, 16, 8.25],
			"faces": {
				"north": {"uv": [12, 1, 12.97969, 1.97969], "texture": "#0", "cullface": "Know2Good"},
				"east": {"uv": [12, 1, 12.97969, 1.97969], "texture": "#0", "cullface": "Know2Good"},
				"south": {"uv": [12, 1, 12.97969, 1.97969], "texture": "#0", "cullface": "Know2Good"},
				"west": {"uv": [12, 1, 12.97969, 1.97969], "texture": "#0", "cullface": "Know2Good"},
				"up": {"uv": [12, 1, 12.97969, 1.97969], "texture": "#0", "cullface": "Know2Good"},
				"down": {"uv": [12, 1, 12.97969, 1.97969], "texture": "#0", "cullface": "Know2Good"}
			}
		},
		{
			"name": "Blade top to bottom down",
			"from": [18, 16, 7.75],
			"to": [19, 17, 8.25],
			"faces": {
				"north": {"uv": [12, 1, 12.97969, 1.97969], "texture": "#0", "cullface": "Know2Good"},
				"east": {"uv": [12, 1, 12.97969, 1.97969], "texture": "#0", "cullface": "Know2Good"},
				"south": {"uv": [12, 1, 12.97969, 1.97969], "texture": "#0", "cullface": "Know2Good"},
				"west": {"uv": [12, 1, 12.97969, 1.97969], "texture": "#0", "cullface": "Know2Good"},
				"up": {"uv": [12, 1, 12.97969, 1.97969], "texture": "#0", "cullface": "Know2Good"},
				"down": {"uv": [12, 1, 12.97969, 1.97969], "texture": "#0", "cullface": "Know2Good"}
			}
		},
		{
			"name": "Blade top to bottom middle",
			"from": [16, 16, 7.25],
			"to": [17, 17, 8.75],
			"faces": {
				"north": {"uv": [13, 2, 13.97969, 2.97969], "texture": "#0", "cullface": "Know2Good"},
				"east": {"uv": [13, 2, 13.97969, 2.97969], "texture": "#0", "cullface": "Know2Good"},
				"south": {"uv": [13, 2, 13.97969, 2.97969], "texture": "#0", "cullface": "Know2Good"},
				"west": {"uv": [13, 2, 13.97969, 2.97969], "texture": "#0", "cullface": "Know2Good"},
				"up": {"uv": [13, 2, 13.97969, 2.97969], "texture": "#0", "cullface": "Know2Good"},
				"down": {"uv": [13, 2, 13.97969, 2.97969], "texture": "#0", "cullface": "Know2Good"}
			}
		},
		{
			"name": "Blade top to bottom middle",
			"from": [17, 17, 7.25],
			"to": [18, 18, 8.75],
			"faces": {
				"north": {"uv": [13, 2, 13.97969, 2.97969], "texture": "#0", "cullface": "Know2Good"},
				"east": {"uv": [13, 2, 13.97969, 2.97969], "texture": "#0", "cullface": "Know2Good"},
				"south": {"uv": [13, 2, 13.97969, 2.97969], "texture": "#0", "cullface": "Know2Good"},
				"west": {"uv": [13, 2, 13.97969, 2.97969], "texture": "#0", "cullface": "Know2Good"},
				"up": {"uv": [13, 2, 13.97969, 2.97969], "texture": "#0", "cullface": "Know2Good"},
				"down": {"uv": [13, 2, 13.97969, 2.97969], "texture": "#0", "cullface": "Know2Good"}
			}
		},
		{
			"name": "Blade top to bottom down-middle",
			"from": [16, 15, 7.5],
			"to": [17, 16, 8.5],
			"faces": {
				"north": {"uv": [12, 4, 12.97969, 4.97969], "texture": "#0", "cullface": "Know2Good"},
				"east": {"uv": [12, 4, 12.97969, 4.97969], "texture": "#0", "cullface": "Know2Good"},
				"south": {"uv": [12, 4, 12.97969, 4.97969], "texture": "#0", "cullface": "Know2Good"},
				"west": {"uv": [12, 4, 12.97969, 4.97969], "texture": "#0", "cullface": "Know2Good"},
				"up": {"uv": [12, 4, 12.97969, 4.97969], "texture": "#0", "cullface": "Know2Good"},
				"down": {"uv": [12, 4, 12.97969, 4.97969], "texture": "#0", "cullface": "Know2Good"}
			}
		},
		{
			"name": "Blade top to bottom down-middle",
			"from": [16, 17, 7.5],
			"to": [17, 18, 8.5],
			"faces": {
				"north": {"uv": [12, 2, 12.97969, 2.97969], "texture": "#0", "cullface": "Know2Good"},
				"east": {"uv": [12, 2, 12.97969, 2.97969], "texture": "#0", "cullface": "Know2Good"},
				"south": {"uv": [12, 2, 12.97969, 2.97969], "texture": "#0", "cullface": "Know2Good"},
				"west": {"uv": [12, 2, 12.97969, 2.97969], "texture": "#0", "cullface": "Know2Good"},
				"up": {"uv": [12, 2, 12.97969, 2.97969], "texture": "#0", "cullface": "Know2Good"},
				"down": {"uv": [12, 2, 12.97969, 2.97969], "texture": "#0", "cullface": "Know2Good"}
			}
		},
		{
			"name": "Blade top to bottom down-middle",
			"from": [17, 16, 7.5],
			"to": [18, 17, 8.5],
			"faces": {
				"north": {"uv": [13, 3, 13.97969, 3.97969], "texture": "#0", "cullface": "Know2Good"},
				"east": {"uv": [13, 3, 13.97969, 3.97969], "texture": "#0", "cullface": "Know2Good"},
				"south": {"uv": [13, 3, 13.97969, 3.97969], "texture": "#0", "cullface": "Know2Good"},
				"west": {"uv": [13, 3, 13.97969, 3.97969], "texture": "#0", "cullface": "Know2Good"},
				"up": {"uv": [13, 3, 13.97969, 3.97969], "texture": "#0", "cullface": "Know2Good"},
				"down": {"uv": [13, 3, 13.97969, 3.97969], "texture": "#0", "cullface": "Know2Good"}
			}
		},
		{
			"name": "Blade top to bottom down-middle",
			"from": [15, 16, 7.5],
			"to": [16, 17, 8.5],
			"faces": {
				"north": {"uv": [13, 3, 13.97969, 3.97969], "texture": "#0", "cullface": "Know2Good"},
				"east": {"uv": [13, 3, 13.97969, 3.97969], "texture": "#0", "cullface": "Know2Good"},
				"south": {"uv": [13, 3, 13.97969, 3.97969], "texture": "#0", "cullface": "Know2Good"},
				"west": {"uv": [13, 3, 13.97969, 3.97969], "texture": "#0", "cullface": "Know2Good"},
				"up": {"uv": [13, 3, 13.97969, 3.97969], "texture": "#0", "cullface": "Know2Good"},
				"down": {"uv": [13, 3, 13.97969, 3.97969], "texture": "#0", "cullface": "Know2Good"}
			}
		},
		{
			"name": "Pommel handle center up to down",
			"from": [0, 2, 7.25],
			"to": [1, 3, 8.75],
			"faces": {
				"north": {"uv": [4, 7, 4.97969, 7.97969], "texture": "#0", "cullface": "Know2Good"},
				"east": {"uv": [4, 7, 4.97969, 7.97969], "texture": "#0", "cullface": "Know2Good"},
				"south": {"uv": [4, 7, 4.97969, 7.97969], "texture": "#0", "cullface": "Know2Good"},
				"west": {"uv": [4, 7, 4.97969, 7.97969], "texture": "#0", "cullface": "Know2Good"},
				"up": {"uv": [4, 7, 4.97969, 7.97969], "texture": "#0", "cullface": "Know2Good"},
				"down": {"uv": [4, 7, 4.97969, 7.97969], "texture": "#0", "cullface": "Know2Good"}
			}
		},
		{
			"name": "Pommel handle center up to down",
			"from": [2, 0, 7.25],
			"to": [3, 1, 8.75],
			"faces": {
				"north": {"uv": [4, 7, 4.97969, 7.97969], "texture": "#0", "cullface": "Know2Good"},
				"east": {"uv": [4, 7, 4.97969, 7.97969], "texture": "#0", "cullface": "Know2Good"},
				"south": {"uv": [4, 7, 4.97969, 7.97969], "texture": "#0", "cullface": "Know2Good"},
				"west": {"uv": [4, 7, 4.97969, 7.97969], "texture": "#0", "cullface": "Know2Good"},
				"up": {"uv": [4, 7, 4.97969, 7.97969], "texture": "#0", "cullface": "Know2Good"},
				"down": {"uv": [4, 7, 4.97969, 7.97969], "texture": "#0", "cullface": "Know2Good"}
			}
		}
	]
}