{
	"credit": "Made with Blockbench",
	"textures": {
		"0": "entity/trident",
		"particle": "entity/trident"
	},
	"elements": [
		{
			"from": [7.5, -16, 7.5],
			"to": [8.5, 6.6667, 8.5],
			"faces": {
				"north": {"uv": [0, 3.5, 0.5, 16], "texture": "#0"},
				"east": {"uv": [0, 3.5, 0.5, 16], "texture": "#0"},
				"south": {"uv": [0, 3.5, 0.5, 16], "texture": "#0"},
				"west": {"uv": [0, 3.5, 0.5, 16], "texture": "#0"},
				"up": {"uv": [0, 3.5, 0.5, 16], "texture": "#0"},
				"down": {"uv": [0, 14, 0.5, 14.5], "texture": "#0"}
			}
		},
		{
			"from": [5.5, 7.66667, 7.4],
			"to": [10.5, 8.66667, 8.6],
			"faces": {
				"north": {"uv": [0, 4, 0.5, 4.5], "texture": "#0"},
				"east": {"uv": [0, 4, 0.5, 4.5], "texture": "#0"},
				"south": {"uv": [0, 4, 0.5, 4.5], "texture": "#0"},
				"west": {"uv": [0, 4, 0.5, 4.5], "texture": "#0"},
				"up": {"uv": [0, 4, 0.5, 4.5], "texture": "#0"},
				"down": {"uv": [0, 4, 0.5, 4.5], "texture": "#0"}
			}
		},
		{
			"from": [5.5, 9.66667, 7.5],
			"to": [6.5, 13.66667, 8.5],
			"faces": {
				"north": {"uv": [9.5, 1, 10, 2.5], "texture": "#0"},
				"east": {"uv": [9.5, 1, 10, 2.5], "texture": "#0"},
				"south": {"uv": [9.5, 1, 10, 2.5], "texture": "#0"},
				"west": {"uv": [9.5, 1, 10, 2.5], "texture": "#0"},
				"up": {"uv": [9.5, 1, 10, 1.5], "texture": "#0"},
				"down": {"uv": [9.5, 1, 10, 2.5], "texture": "#0"}
			}
		},
		{
			"from": [9.5, 9.66667, 7.5],
			"to": [10.5, 13.66667, 8.5],
			"faces": {
				"north": {"uv": [9.5, 1, 10, 2.5], "texture": "#0"},
				"east": {"uv": [9.5, 1, 10, 2.5], "texture": "#0"},
				"south": {"uv": [9.5, 1, 10, 2.5], "texture": "#0"},
				"west": {"uv": [9.5, 1, 10, 2.5], "texture": "#0"},
				"up": {"uv": [9.5, 1, 10, 1.5], "texture": "#0"},
				"down": {"uv": [9.5, 1, 10, 2.5], "texture": "#0"}
			}
		},
		{
			"from": [5, 8.66667, 7.5],
			"to": [11, 9.66667, 8.5],
			"faces": {
				"north": {"uv": [0, 5, 2, 5.5], "texture": "#0"},
				"east": {"uv": [0, 5, 2, 5.5], "texture": "#0"},
				"south": {"uv": [0, 5, 2, 5.5], "texture": "#0"},
				"west": {"uv": [0, 5, 2, 5.5], "texture": "#0"},
				"up": {"uv": [0, 5, 2, 5.5], "texture": "#0"},
				"down": {"uv": [0, 5, 2, 5.5], "texture": "#0"}
			}
		},
		{
			"from": [5.4, 8.66667, 7],
			"to": [10.6, 9.66667, 9],
			"faces": {
				"north": {"uv": [0, 5, 2, 5.5], "texture": "#0"},
				"east": {"uv": [0, 5, 2, 5.5], "texture": "#0"},
				"south": {"uv": [0, 5, 2, 5.5], "texture": "#0"},
				"west": {"uv": [0, 5, 2, 5.5], "texture": "#0"},
				"up": {"uv": [0, 5, 2, 5.5], "texture": "#0"},
				"down": {"uv": [0, 5, 2, 5.5], "texture": "#0"}
			}
		},
		{
			"from": [7, 6.66667, 7.5],
			"to": [9, 7.66667, 8.5],
			"faces": {
				"north": {"uv": [0, 4, 2, 4.5], "texture": "#0"},
				"east": {"uv": [0, 4, 2, 4.5], "texture": "#0"},
				"south": {"uv": [0, 4, 2, 4.5], "texture": "#0"},
				"west": {"uv": [0, 4, 2, 4.5], "texture": "#0"},
				"up": {"uv": [0, 4, 2, 4.5], "texture": "#0"},
				"down": {"uv": [0, 4, 2, 4.5], "texture": "#0"}
			}
		},
		{
			"from": [7, 7.66667, 7],
			"to": [9, 8.66667, 9],
			"faces": {
				"north": {"uv": [0.5, 8, 1.5, 8.5], "texture": "#0"},
				"east": {"uv": [0.5, 8, 1.5, 8.5], "texture": "#0"},
				"south": {"uv": [0.5, 8, 1.5, 8.5], "texture": "#0"},
				"west": {"uv": [0.5, 8, 1.5, 8.5], "texture": "#0"},
				"up": {"uv": [0.5, 8, 1.5, 8.5], "texture": "#0"},
				"down": {"uv": [0.5, 8, 1.5, 8.5], "texture": "#0"}
			}
		},
		{
			"from": [7.5, 8.16667, 6.75],
			"to": [8.5, 9.16667, 9.25],
			"rotation": {"angle": 45, "axis": "z", "origin": [8, 8.66667, 8]},
			"faces": {
				"north": {"uv": [2.5, 2.5, 3.5, 3.5], "texture": "#0"},
				"east": {"uv": [2.5, 2.5, 3.5, 3.5], "texture": "#0"},
				"south": {"uv": [2.5, 2.5, 3.5, 3.5], "texture": "#0"},
				"west": {"uv": [2.5, 2.5, 3.5, 3.5], "texture": "#0"},
				"up": {"uv": [2.5, 2.5, 3.5, 3.5], "texture": "#0"},
				"down": {"uv": [2.5, 2.5, 3.5, 3.5], "texture": "#0"}
			}
		},
		{
			"from": [8, 6.66667, 7.5],
			"to": [9, 7.66667, 8.5],
			"rotation": {"angle": 45, "axis": "z", "origin": [8, 7.66667, 8]},
			"faces": {
				"north": {"uv": [0, 4, 1, 4.5], "texture": "#0"},
				"east": {"uv": [0, 4, 1, 4.5], "texture": "#0"},
				"south": {"uv": [0, 4, 1, 4.5], "texture": "#0"},
				"west": {"uv": [0, 4, 1, 4.5], "texture": "#0"},
				"up": {"uv": [0, 4, 1, 4.5], "texture": "#0"},
				"down": {"uv": [0, 4, 1, 4.5], "texture": "#0"}
			}
		},
		{
			"from": [7, 7.66667, 7.5],
			"to": [8, 8.66667, 8.5],
			"rotation": {"angle": 45, "axis": "z", "origin": [8, 7.66667, 8]},
			"faces": {
				"north": {"uv": [0, 4, 2, 4.5], "texture": "#0"},
				"east": {"uv": [0, 4, 2, 4.5], "texture": "#0"},
				"south": {"uv": [0, 4, 2, 4.5], "texture": "#0"},
				"west": {"uv": [0, 4, 2, 4.5], "texture": "#0"},
				"up": {"uv": [0, 4, 2, 4.5], "texture": "#0"},
				"down": {"uv": [0, 4, 2, 4.5], "texture": "#0"}
			}
		},
		{
			"from": [7.3, 9.66667, 7.3],
			"to": [8.7, 10.66667, 8.7],
			"faces": {
				"north": {"uv": [0.5, 3, 1, 3.5], "texture": "#0"},
				"east": {"uv": [0.5, 3, 1, 3.5], "texture": "#0"},
				"south": {"uv": [0.5, 3, 1, 3.5], "texture": "#0"},
				"west": {"uv": [0.5, 3, 1, 3.5], "texture": "#0"},
				"up": {"uv": [0.5, 3, 1, 3.5], "texture": "#0"},
				"down": {"uv": [0.5, 3, 1, 3.5], "texture": "#0"}
			}
		},
		{
			"from": [7.5, 9.66667, 7.5],
			"to": [8.5, 15.66667, 8.5],
			"faces": {
				"north": {"uv": [10.5, 0.5, 11, 2.5], "texture": "#0"},
				"east": {"uv": [10.5, 0.5, 11, 2.5], "texture": "#0"},
				"south": {"uv": [10.5, 0.5, 11, 2.5], "texture": "#0"},
				"west": {"uv": [10.5, 0.5, 11, 2.5], "texture": "#0"},
				"up": {"uv": [10.5, 0.5, 11, 1], "texture": "#0"},
				"down": {"uv": [10.5, 0.5, 11, 1], "texture": "#0"}
			}
		},
		{
			"from": [6.8, 9.66667, 7.3],
			"to": [9.2, 10.16667, 8.7],
			"faces": {
				"north": {"uv": [0.5, 3, 1, 3.5], "texture": "#0"},
				"east": {"uv": [0.5, 3, 1, 3.5], "texture": "#0"},
				"south": {"uv": [0.5, 3, 1, 3.5], "texture": "#0"},
				"west": {"uv": [0.5, 3, 1, 3.5], "texture": "#0"},
				"up": {"uv": [0.5, 3, 1, 3.5], "texture": "#0"},
				"down": {"uv": [0.5, 3, 1, 3.5], "texture": "#0"}
			}
		}
	],
	"display": {
		"thirdperson_righthand": {
			"rotation": [180, 90, 0],
			"translation": [-0.5, -7.5, 1.5]
		},
		"thirdperson_lefthand": {
			"rotation": [0, 90, 0],
			"translation": [-0.5, 8, 1.5]
		},
		"firstperson_righthand": {
			"rotation": [0, -90, 25],
			"translation": [1.5, 5, 1],
			"scale": [0.9, 0.9, 0.9]
		},
		"firstperson_lefthand": {
			"rotation": [0, 90, -25],
			"translation": [1.5, 5, 1],
			"scale": [0.9, 0.9, 0.9]
		},
		"gui": {
			"rotation": [0, 0, -45],
			"translation": [4, 4, 0],
			"scale": [0.7, 0.7, 0.7]
		},
		"fixed": {
			"rotation": [0, 0, 0],
			"translation": [0, 11.5, -0.5],
			"scale": [1.2, 1.2, 1.2]
		},
		"ground": {
			"rotation": [0, 0, 0],
			"translation": [4, 4, 2],
			"scale": [0.25, 0.25, 0.25]
		}
	}
}