{
    "parent": "block/cube",
    "textures": {
        "particle": "block/blue_tiles",
        "down": "block/blue_tiles1",
        "up": "block/blue_tiles1",
        "north": "block/blue_tiles",
        "east": "block/blue_tiles1",
        "south": "block/blue_tiles",
        "west": "block/blue_tiles1"
    }
}
