{
	"credit": "Made with Blockbench",
	"textures": {
		"0": "block/oak_door_top",
		"particle": "block/oak_door_top"
	},
	"elements": [
		{
			"from": [0, 0, 0],
			"to": [3, 16, 6],
			"faces": {
				"north": {"uv": [0, 0, 3, 16], "texture": "#0"},
				"east": {"uv": [6, 0, 0, 16], "texture": "#0"},
				"south": {"uv": [5, 0, 6, 16], "texture": "#0"},
				"west": {"uv": [0, 0, 6, 16], "texture": "#0"},
				"up": {"uv": [0, 8, 3, 14], "texture": "#0"},
				"down": {"uv": [13, 5, 16, 11], "texture": "#0"}
			}
		},
		{
			"from": [0, 0, 10],
			"to": [3, 16, 16],
			"faces": {
				"north": {"uv": [5, 0, 6, 16], "texture": "#0"},
				"east": {"uv": [16, 0, 10, 16], "texture": "#0"},
				"south": {"uv": [0, 0, 3, 16], "texture": "#0"},
				"west": {"uv": [10, 0, 16, 16], "texture": "#0"},
				"up": {"uv": [0, 3, 3, 9], "texture": "#0"},
				"down": {"uv": [0, 5, 3, 13], "texture": "#0"}
			}
		},
		{
			"from": [0, 0, 6],
			"to": [3, 4, 10],
			"faces": {
				"north": {"uv": [0, 0, 3, 1], "texture": "#missing"},
				"east": {"uv": [6, 12, 10, 16], "texture": "#0"},
				"south": {"uv": [0, 0, 3, 1], "texture": "#missing"},
				"west": {"uv": [6, 12, 10, 16], "texture": "#0"},
				"up": {"uv": [6, 12, 9, 13], "texture": "#0"},
				"down": {"uv": [0, 6, 3, 10], "texture": "#0"}
			}
		},
		{
			"from": [0, 11, 6],
			"to": [3, 16, 10],
			"faces": {
				"north": {"uv": [0, 0, 3, 1], "texture": "#missing"},
				"east": {"uv": [6, 0, 10, 5], "texture": "#0"},
				"south": {"uv": [0, 0, 3, 1], "texture": "#missing"},
				"west": {"uv": [6, 0, 10, 5], "texture": "#0"},
				"up": {"uv": [0, 8, 3, 12], "texture": "#0"},
				"down": {"uv": [7, 4, 9, 5], "rotation": 90, "texture": "#0"}
			}
		},
		{
			"from": [0, 10, 6],
			"to": [3, 11, 7],
			"faces": {
				"north": {"uv": [0, 0, 3, 1], "texture": "#missing"},
				"east": {"uv": [9, 5, 10, 6], "texture": "#0"},
				"south": {"uv": [6, 5, 7, 6], "texture": "#0"},
				"west": {"uv": [6, 5, 7, 6], "texture": "#0"},
				"up": {"uv": [0, 0, 3, 1], "texture": "#missing"},
				"down": {"uv": [9, 5, 10, 6], "texture": "#0"}
			}
		},
		{
			"from": [0, 10, 9],
			"to": [3, 11, 10],
			"faces": {
				"north": {"uv": [9, 5, 10, 6], "texture": "#0"},
				"east": {"uv": [6, 5, 7, 6], "texture": "#0"},
				"south": {"uv": [7, 4, 10, 5], "texture": "#0"},
				"west": {"uv": [9, 5, 10, 6], "texture": "#0"},
				"up": {"uv": [0, 0, 3, 1], "texture": "#missing"},
				"down": {"uv": [6, 5, 7, 6], "texture": "#0"}
			}
		}
	]
}