{
	"credit": "Made with Blockbench",
	"textures": {
		"1": "block/torch1",
        "particle": "block/spruce_planks"
	},
	"elements": [
		{
			"name": "cube",
			"from": [3.25, 4, 7.25],
			"to": [4.75, 10, 8.75],
			"shade": false,
			"faces": {
				"north": {"uv": [0, 0, 2, 7], "texture": "#1"},
				"east": {"uv": [2, 0, 4, 7], "texture": "#1"},
				"south": {"uv": [0, 0, 2, 7], "texture": "#1"},
				"west": {"uv": [2, 0, 4, 7], "texture": "#1"},
				"up": {"uv": [4, 0, 6, 2], "texture": "#1"},
				"down": {"uv": [4, 0, 6, 2], "texture": "#1"}
			}
		},
		{
			"name": "cube",
			"from": [3.25, 10.5, 7.25],
			"to": [4.75, 12, 8.75],
			"faces": {
				"north": {"uv": [4, 3, 7, 6], "texture": "#1"},
				"east": {"uv": [13, 3, 16, 6], "texture": "#1"},
				"south": {"uv": [10, 3, 13, 6], "texture": "#1"},
				"west": {"uv": [7, 3, 10, 6], "texture": "#1"},
				"up": {"uv": [7, 0, 10, 3], "texture": "#1"},
				"down": {"uv": [7, 6, 10, 9], "texture": "#1"}
			}
		},
		{
			"name": "cube",
			"from": [2.5, 3, 6.5],
			"to": [5.5, 4, 9.5],
			"faces": {
				"north": {"uv": [12, 8, 16, 9], "texture": "#1"},
				"east": {"uv": [11, 11, 15, 12], "texture": "#1"},
				"south": {"uv": [10, 9, 14, 10], "texture": "#1"},
				"west": {"uv": [11, 10, 15, 11], "texture": "#1"},
				"up": {"uv": [11, 9, 14, 12], "texture": "#1"},
				"down": {"uv": [12, 8, 15, 11], "texture": "#1"}
			}
		},
		{
			"name": "cube",
			"from": [2.5, 9.5, 6.5],
			"to": [5.5, 10.5, 9.5],
			"faces": {
				"north": {"uv": [11, 10, 15, 11], "texture": "#1"},
				"east": {"uv": [11, 13, 15, 14], "texture": "#1"},
				"south": {"uv": [11, 11, 15, 12], "texture": "#1"},
				"west": {"uv": [11, 12, 15, 13], "texture": "#1"},
				"up": {"uv": [11, 8, 15, 12], "texture": "#1"},
				"down": {"uv": [10, 6, 14, 10], "texture": "#1"}
			}
		},
		{
			"name": "cube",
			"from": [2, 10, 7.5],
			"to": [3, 12.5, 8.5],
			"faces": {
				"north": {"uv": [11, 12, 12, 14], "texture": "#1"},
				"east": {"uv": [11, 9, 12, 11], "texture": "#1"},
				"south": {"uv": [11, 9, 12, 11], "texture": "#1"},
				"west": {"uv": [11, 9, 12, 11], "texture": "#1"},
				"up": {"uv": [11, 9, 12, 11], "texture": "#1"},
				"down": {"uv": [11, 9, 12, 11], "texture": "#1"}
			}
		},
		{
			"name": "cube",
			"from": [5, 10, 7.5],
			"to": [6, 12.5, 8.5],
			"faces": {
				"north": {"uv": [11, 12, 12, 14], "texture": "#1"},
				"east": {"uv": [11, 9, 12, 11], "texture": "#1"},
				"south": {"uv": [11, 9, 12, 11], "texture": "#1"},
				"west": {"uv": [11, 9, 12, 11], "texture": "#1"},
				"up": {"uv": [11, 9, 12, 11], "texture": "#1"},
				"down": {"uv": [11, 9, 12, 11], "texture": "#1"}
			}
		},
		{
			"name": "cube",
			"from": [3.5, 10, 9],
			"to": [4.5, 12.5, 10],
			"faces": {
				"north": {"uv": [11, 12, 12, 14], "texture": "#1"},
				"east": {"uv": [11, 9, 12, 11], "texture": "#1"},
				"south": {"uv": [11, 9, 12, 11], "texture": "#1"},
				"west": {"uv": [11, 9, 12, 11], "texture": "#1"},
				"up": {"uv": [11, 9, 12, 11], "texture": "#1"},
				"down": {"uv": [11, 9, 12, 11], "texture": "#1"}
			}
		},
		{
			"name": "cube",
			"from": [3.5, 10, 6],
			"to": [4.5, 12.5, 7],
			"faces": {
				"north": {"uv": [11, 12, 12, 14], "texture": "#1"},
				"east": {"uv": [11, 9, 12, 11], "texture": "#1"},
				"south": {"uv": [11, 9, 12, 11], "texture": "#1"},
				"west": {"uv": [11, 9, 12, 11], "texture": "#1"},
				"up": {"uv": [11, 9, 12, 11], "texture": "#1"},
				"down": {"uv": [11, 9, 12, 11], "texture": "#1"}
			}
		},
		{
			"name": "cube",
			"from": [3, 9, 7],
			"to": [5, 10, 9],
			"faces": {
				"north": {"uv": [0, 4, 4, 5], "texture": "#1"},
				"east": {"uv": [0, 6, 4, 7], "texture": "#1"},
				"south": {"uv": [0, 5, 4, 6], "texture": "#1"},
				"west": {"uv": [0, 6, 4, 7], "texture": "#1"},
				"up": {"uv": [0, 4, 4, 8], "texture": "#1"},
				"down": {"uv": [0, 4, 4, 8], "texture": "#1"}
			}
		},
		{
			"name": "cube",
			"from": [3, 4, 7],
			"to": [5, 5, 9],
			"faces": {
				"north": {"uv": [0, 2, 2, 3], "texture": "#1"},
				"east": {"uv": [0, 4, 2, 5], "texture": "#1"},
				"south": {"uv": [0, 3, 2, 4], "texture": "#1"},
				"west": {"uv": [0, 5, 2, 6], "texture": "#1"},
				"up": {"uv": [0, 3, 2, 5], "texture": "#1"},
				"down": {"uv": [0, 6, 2, 8], "texture": "#1"}
			}
		},
		{
			"name": "cube",
			"from": [3.5, 12, 7.5],
			"to": [4.5, 13, 8.5],
			"faces": {
				"north": {"uv": [5, 9, 6, 10], "texture": "#1"},
				"east": {"uv": [4, 7, 5, 8], "texture": "#1"},
				"south": {"uv": [5, 8, 6, 9], "texture": "#1"},
				"west": {"uv": [6, 8, 7, 9], "texture": "#1"},
				"up": {"uv": [6, 7, 7, 8], "texture": "#1"},
				"down": {"uv": [5, 7, 6, 8], "texture": "#1"}
			}
		},
		{
			"name": "cube",
			"from": [0, 1.5, 6],
			"to": [1, 7.5, 10],
			"faces": {
				"north": {"uv": [0, 10, 1, 16], "texture": "#1"},
				"east": {"uv": [4, 10, 8, 16], "texture": "#1"},
				"south": {"uv": [4, 10, 5, 16], "texture": "#1"},
				"west": {"uv": [0, 10, 4, 16], "texture": "#1"},
				"up": {"uv": [6, 12, 7, 16], "texture": "#1"},
				"down": {"uv": [7, 12, 8, 16], "texture": "#1"}
			}
		},
		{
			"name": "cube",
			"from": [1, 2, 7],
			"to": [2, 5, 9],
			"faces": {
				"north": {"uv": [12, 9, 13, 11], "texture": "#1"},
				"east": {"uv": [12, 9, 14, 11], "texture": "#1"},
				"south": {"uv": [11, 7, 12, 9], "texture": "#1"},
				"west": {"uv": [14, 11, 16, 13], "texture": "#1"},
				"up": {"uv": [14, 8, 15, 10], "texture": "#1"},
				"down": {"uv": [13, 7, 14, 9], "texture": "#1"}
			}
		},
		{
			"name": "cube",
			"from": [2, 2.5, 7],
			"to": [5, 3.5, 9],
			"faces": {
				"north": {"uv": [10, 12, 12, 13], "texture": "#1"},
				"east": {"uv": [10, 12, 12, 13], "texture": "#1"},
				"south": {"uv": [10, 12, 12, 13], "texture": "#1"},
				"west": {"uv": [10, 12, 12, 13], "texture": "#1"},
				"up": {"uv": [10, 12, 11, 13], "texture": "#1"},
				"down": {"uv": [10, 12, 11, 13], "texture": "#1"}
			}
		}
	]
}