{
	"credit": "Made with Blockbench",
	"textures": {
		"0": "item/black_banner",
		"particle": "item/black_banner"
	},
	"elements": [
		{
			"from": [0, 21, 15],
			"to": [16, 22, 17],
			"faces": {
				"north": {"uv": [4, 3.5, 8, 3.75], "texture": "#0"},
				"east": {"uv": [4, 3.75, 4.25, 9.75], "texture": "#0"},
				"south": {"uv": [4, 3.5, 8, 3.75], "texture": "#0"},
				"west": {"uv": [4, 3.75, 4.25, 9.75], "texture": "#0"},
				"up": {"uv": [4, 3.5, 8, 3.75], "texture": "#0"},
				"down": {"uv": [0, 0, 16, 1], "texture": "#missing"}
			}
		},
		{
			"from": [0, 15, 14],
			"to": [16, 21, 15],
			"faces": {
				"north": {"uv": [4, 3.75, 8, 5.25], "texture": "#0"},
				"east": {"uv": [4, 3.75, 4.25, 9.75], "texture": "#0"},
				"south": {"uv": [4, 3.75, 8, 4.5], "texture": "#0"},
				"west": {"uv": [4, 3.75, 4.25, 9.75], "texture": "#0"},
				"up": {"uv": [4, 3.75, 8, 4.25], "texture": "#0"},
				"down": {"uv": [4, 5, 8, 5.25], "texture": "#0"}
			}
		},
		{
			"from": [0, 14, 14],
			"to": [10, 15, 15],
			"faces": {
				"north": {"uv": [5.5, 5.25, 8, 5.5], "texture": "#0"},
				"east": {"uv": [4.5, 3.75, 5, 4.25], "texture": "#0"},
				"south": {"uv": [4, 3.75, 6.5, 4.25], "texture": "#0"},
				"west": {"uv": [4, 3.75, 4.25, 9.75], "texture": "#0"},
				"up": {"uv": [0, 0, 10, 1], "texture": "#missing"},
				"down": {"uv": [4, 5.25, 6.5, 5.5], "texture": "#0"}
			}
		},
		{
			"from": [0, 13, 14],
			"to": [4, 14, 15],
			"faces": {
				"north": {"uv": [7, 5.5, 8, 5.75], "texture": "#0"},
				"east": {"uv": [6.75, 7, 7.25, 7.5], "texture": "#0"},
				"south": {"uv": [4, 4, 5, 4.5], "texture": "#0"},
				"west": {"uv": [4, 3.75, 4.25, 9.75], "texture": "#0"},
				"up": {"uv": [0, 0, 4, 1], "texture": "#missing"},
				"down": {"uv": [4, 6, 5, 6.25], "texture": "#0"}
			}
		},
		{
			"from": [13, 14, 14],
			"to": [16, 15, 15],
			"faces": {
				"north": {"uv": [4, 5, 4.75, 5.25], "texture": "#0"},
				"east": {"uv": [4, 3.75, 4.25, 4.25], "texture": "#0"},
				"south": {"uv": [7.25, 4, 8, 4.5], "texture": "#0"},
				"west": {"uv": [4.5, 3.75, 5, 4.25], "texture": "#0"},
				"up": {"uv": [0, 0, 3, 1], "texture": "#missing"},
				"down": {"uv": [7.25, 6.75, 8, 7.25], "texture": "#0"}
			}
		},
		{
			"from": [10, 14, 15],
			"to": [13, 15, 16],
			"faces": {
				"north": {"uv": [4.75, 5.25, 5.5, 5.5], "texture": "#0"},
				"east": {"uv": [4.25, 8.5, 5.5, 9.5], "texture": "#0"},
				"south": {"uv": [4.5, 4, 7.5, 4.5], "texture": "#0"},
				"west": {"uv": [4.25, 8.5, 5.5, 9.5], "texture": "#0"},
				"up": {"uv": [4.25, 8.5, 5.5, 9.5], "texture": "#0"},
				"down": {"uv": [4.25, 8.5, 5.5, 9.5], "texture": "#0"}
			}
		},
		{
			"from": [0, 6, 15],
			"to": [16, 13, 16],
			"faces": {
				"north": {"uv": [4, 5.75, 8, 7.5], "texture": "#0"},
				"east": {"uv": [4, 3.75, 4.25, 9.75], "texture": "#0"},
				"south": {"uv": [4, 3.75, 8, 4.5], "texture": "#0"},
				"west": {"uv": [4, 3.75, 4.25, 9.75], "texture": "#0"},
				"up": {"uv": [4, 3.75, 8, 4.25], "texture": "#0"},
				"down": {"uv": [4.75, 3.75, 6.75, 4.5], "texture": "#0"}
			}
		},
		{
			"from": [4, 13, 15],
			"to": [16, 14, 16],
			"faces": {
				"north": {"uv": [4, 5.5, 7, 5.75], "texture": "#0"},
				"east": {"uv": [4.25, 8.5, 5.5, 9.5], "texture": "#0"},
				"south": {"uv": [5, 3.75, 8, 4.25], "texture": "#0"},
				"west": {"uv": [4.25, 8.5, 5.5, 9.5], "texture": "#0"},
				"up": {"uv": [5, 8.5, 8, 9], "texture": "#0"},
				"down": {"uv": [4.25, 8.5, 5.5, 9.5], "texture": "#0"}
			}
		},
		{
			"from": [13, 5, 15],
			"to": [16, 6, 16],
			"faces": {
				"north": {"uv": [4, 7.5, 4.75, 7.75], "texture": "#0"},
				"east": {"uv": [4, 3.75, 4.25, 9.75], "texture": "#0"},
				"south": {"uv": [7.25, 7, 8, 7.5], "texture": "#0"},
				"west": {"uv": [4.25, 8.5, 5.5, 9.5], "texture": "#0"},
				"up": {"uv": [0, 0, 3, 1], "texture": "#missing"},
				"down": {"uv": [7.25, 4, 8, 4.5], "texture": "#0"}
			}
		},
		{
			"from": [0, 5, 15],
			"to": [6, 6, 16],
			"faces": {
				"north": {"uv": [6.5, 7.5, 8, 7.75], "texture": "#0"},
				"east": {"uv": [4.5, 3.75, 5.5, 4.75], "texture": "#0"},
				"south": {"uv": [4, 7, 5.5, 7.5], "texture": "#0"},
				"west": {"uv": [4, 3.75, 4.25, 9.75], "texture": "#0"},
				"up": {"uv": [0, 0, 6, 1], "texture": "#missing"},
				"down": {"uv": [4, 3.75, 5.5, 4.5], "texture": "#0"}
			}
		},
		{
			"from": [6, 5, 14],
			"to": [13, 6, 15],
			"faces": {
				"north": {"uv": [4.75, 7.25, 6.5, 7.5], "texture": "#0"},
				"east": {"uv": [7, 7.25, 7.5, 8], "texture": "#0"},
				"south": {"uv": [6.25, 7.25, 7.75, 7.75], "texture": "#0"},
				"west": {"uv": [6.5, 7, 7, 7.5], "texture": "#0"},
				"up": {"uv": [4.75, 7.25, 6.5, 7.5], "rotation": 180, "texture": "#0"},
				"down": {"uv": [0, 0, 7, 1], "texture": "#missing"}
			}
		},
		{
			"from": [0, -1, 14],
			"to": [16, 5, 15],
			"faces": {
				"north": {"uv": [4, 7.75, 8, 9.25], "texture": "#0"},
				"east": {"uv": [4, 3.75, 4.25, 9.75], "texture": "#0"},
				"south": {"uv": [4, 8.5, 8, 9.25], "texture": "#0"},
				"west": {"uv": [4, 3.75, 4.25, 9.75], "texture": "#0"},
				"up": {"uv": [4, 7.25, 8, 7.5], "texture": "#0"},
				"down": {"uv": [5.5, 3.5, 7.5, 3.75], "texture": "#0"}
			}
		},
		{
			"from": [0, -2, 14],
			"to": [7, -1, 15],
			"faces": {
				"north": {"uv": [6.25, 9.25, 8, 9.5], "texture": "#0"},
				"east": {"uv": [4, 3.75, 4.25, 9.75], "texture": "#0"},
				"south": {"uv": [6.25, 9.25, 8, 9.5], "texture": "#0"},
				"west": {"uv": [4, 3.75, 4.25, 9.75], "texture": "#0"},
				"up": {"uv": [0, 0, 7, 1], "texture": "#missing"},
				"down": {"uv": [5.5, 3.5, 7.5, 3.75], "texture": "#0"}
			}
		},
		{
			"from": [0, -4, 14],
			"to": [6, -2, 15],
			"faces": {
				"north": {"uv": [6.5, 9.5, 8, 10], "texture": "#0"},
				"east": {"uv": [4, 3.75, 4.25, 9.75], "texture": "#0"},
				"south": {"uv": [6.5, 9.5, 8, 10], "texture": "#0"},
				"west": {"uv": [4, 3.75, 4.25, 9.75], "texture": "#0"},
				"up": {"uv": [0, 0, 6, 1], "texture": "#missing"},
				"down": {"uv": [5.5, 3.5, 7.5, 3.75], "texture": "#0"}
			}
		},
		{
			"from": [0, -8, 14],
			"to": [4, -6, 15],
			"faces": {
				"north": {"uv": [4, 10.5, 5, 11], "texture": "#0"},
				"east": {"uv": [4, 3.75, 4.25, 9.75], "texture": "#0"},
				"south": {"uv": [4, 10.5, 5, 11], "texture": "#0"},
				"west": {"uv": [4, 3.75, 4.25, 9.75], "texture": "#0"},
				"up": {"uv": [0, 0, 4, 1], "texture": "#missing"},
				"down": {"uv": [5.5, 3.5, 7.5, 3.75], "texture": "#0"}
			}
		},
		{
			"from": [0, -6, 14],
			"to": [5, -4, 15],
			"faces": {
				"north": {"uv": [4, 10, 5.25, 10.5], "texture": "#0"},
				"east": {"uv": [4, 3.75, 4.25, 9.75], "texture": "#0"},
				"south": {"uv": [4, 10, 5.25, 10.5], "texture": "#0"},
				"west": {"uv": [4, 3.75, 4.25, 9.75], "texture": "#0"},
				"up": {"uv": [0, 0, 5, 1], "texture": "#missing"},
				"down": {"uv": [5.5, 3.5, 7.5, 3.75], "texture": "#0"}
			}
		},
		{
			"from": [0, -11, 14],
			"to": [3, -8, 15],
			"faces": {
				"north": {"uv": [4, 11, 4.75, 11.75], "texture": "#0"},
				"east": {"uv": [4, 3.75, 4.25, 9.75], "texture": "#0"},
				"south": {"uv": [4, 11, 4.75, 11.75], "texture": "#0"},
				"west": {"uv": [4, 3.75, 4.25, 9.75], "texture": "#0"},
				"up": {"uv": [0, 0, 3, 1], "texture": "#missing"},
				"down": {"uv": [5.5, 3.5, 7.5, 3.75], "texture": "#0"}
			}
		},
		{
			"from": [0, -14, 14],
			"to": [2, -11, 15],
			"faces": {
				"north": {"uv": [4, 11.75, 4.5, 12.5], "texture": "#0"},
				"east": {"uv": [4, 3.75, 4.25, 9.75], "texture": "#0"},
				"south": {"uv": [4, 11.75, 4.5, 12.5], "texture": "#0"},
				"west": {"uv": [4, 3.75, 4.25, 9.75], "texture": "#0"},
				"up": {"uv": [0, 0, 2, 1], "texture": "#missing"},
				"down": {"uv": [5.5, 3.5, 7.5, 3.75], "texture": "#0"}
			}
		},
		{
			"from": [9, -2, 14],
			"to": [16, -1, 15],
			"faces": {
				"north": {"uv": [6.25, 9.25, 8, 9.5], "texture": "#0"},
				"east": {"uv": [4, 3.75, 4.25, 9.75], "texture": "#0"},
				"south": {"uv": [6.25, 9.25, 8, 9.5], "texture": "#0"},
				"west": {"uv": [4, 3.75, 4.25, 9.75], "texture": "#0"},
				"up": {"uv": [0, 0, 7, 1], "texture": "#missing"},
				"down": {"uv": [5.5, 3.5, 7.5, 3.75], "texture": "#0"}
			}
		},
		{
			"from": [10, -4, 14],
			"to": [16, -2, 15],
			"faces": {
				"north": {"uv": [6.5, 9.5, 8, 10], "texture": "#0"},
				"east": {"uv": [4, 3.75, 4.25, 9.75], "texture": "#0"},
				"south": {"uv": [6.5, 9.5, 8, 10], "texture": "#0"},
				"west": {"uv": [4, 3.75, 4.25, 9.75], "texture": "#0"},
				"up": {"uv": [0, 0, 6, 1], "texture": "#missing"},
				"down": {"uv": [5.5, 3.5, 7.5, 3.75], "texture": "#0"}
			}
		},
		{
			"from": [11, -6, 14],
			"to": [16, -4, 15],
			"faces": {
				"north": {"uv": [4, 10, 5.25, 10.5], "texture": "#0"},
				"east": {"uv": [4, 3.75, 4.25, 9.75], "texture": "#0"},
				"south": {"uv": [4, 10, 5.25, 10.5], "texture": "#0"},
				"west": {"uv": [4, 3.75, 4.25, 9.75], "texture": "#0"},
				"up": {"uv": [0, 0, 5, 1], "texture": "#missing"},
				"down": {"uv": [5.5, 3.5, 7.5, 3.75], "texture": "#0"}
			}
		},
		{
			"from": [12, -8, 14],
			"to": [16, -6, 15],
			"faces": {
				"north": {"uv": [4, 10.5, 5, 11], "texture": "#0"},
				"east": {"uv": [4, 3.75, 4.25, 9.75], "texture": "#0"},
				"south": {"uv": [4, 10.5, 5, 11], "texture": "#0"},
				"west": {"uv": [4, 3.75, 4.25, 9.75], "texture": "#0"},
				"up": {"uv": [0, 0, 4, 1], "texture": "#missing"},
				"down": {"uv": [5.5, 3.5, 7.5, 3.75], "texture": "#0"}
			}
		},
		{
			"from": [13, -11, 14],
			"to": [16, -8, 15],
			"faces": {
				"north": {"uv": [4, 11, 4.75, 11.75], "texture": "#0"},
				"east": {"uv": [4, 3.75, 4.25, 9.75], "texture": "#0"},
				"south": {"uv": [4, 11, 4.75, 11.75], "texture": "#0"},
				"west": {"uv": [4, 3.75, 4.25, 9.75], "texture": "#0"},
				"up": {"uv": [0, 0, 3, 1], "texture": "#missing"},
				"down": {"uv": [5.5, 3.5, 7.5, 3.75], "texture": "#0"}
			}
		},
		{
			"from": [14, -14, 14],
			"to": [16, -11, 15],
			"faces": {
				"north": {"uv": [4, 11.75, 4.5, 12.5], "texture": "#0"},
				"east": {"uv": [4, 3.75, 4.25, 9.75], "texture": "#0"},
				"south": {"uv": [4, 11.75, 4.5, 12.5], "texture": "#0"},
				"west": {"uv": [4, 3.75, 4.25, 9.75], "texture": "#0"},
				"up": {"uv": [0, 0, 2, 1], "texture": "#missing"},
				"down": {"uv": [5.5, 3.5, 7.5, 3.75], "texture": "#0"}
			}
		},
		{
			"from": [-2, 19, 15],
			"to": [18, 21, 17],
			"faces": {
				"north": {"uv": [8, 5, 12, 5.5], "texture": "#0"},
				"east": {"uv": [11.5, 5, 12, 5.5], "texture": "#0"},
				"south": {"uv": [8, 5, 12, 5.5], "texture": "#0"},
				"west": {"uv": [11.5, 5, 12, 5.5], "texture": "#0"},
				"up": {"uv": [8, 5, 12, 5.5], "texture": "#0"},
				"down": {"uv": [8, 5, 12, 5.5], "texture": "#0"}
			}
		}
	],
	"display": {
		"thirdperson_righthand": {
			"scale": [0.2, 0.2, 0.2],
			"rotation": [0, -90, 0],
			"translation": [2, 1, 0]
		},
		"thirdperson_lefthand": {
			"scale": [0.2, 0.2, 0.2],
			"rotation": [0, 90, 0],
			"translation": [-0.5, 0, 0]
		},
		"firstperson_righthand": {
			"scale": [0.275, 0.275, 0.225],
			"translation": [0.5, 4.5, 0]
		},
		"firstperson_lefthand": {
			"scale": [0.275, 0.275, 0.275],
			"translation": [0.5, 4.5, 0]
		},
		"fixed": {
			"scale": [1.7, 1.7, 1.7],
			"translation": [0, -9.5, -14]
		},
		"gui": {
			"scale": [0.4, 0.4, 0.4],
			"rotation": [0, 180, 0],
			"translation": [0, 2, 0]
		},
		"ground": {
			"scale": [0.5, 0.5, 0.5],
			"rotation": [90, 0, 0]
		}
	}
}