{
	"credit": "Made with Blockbench",
	"textures": {
		"0": "./blue_viking_shield",
		"particle": "./blue_viking_shield"
	},
	"elements": [
		{
			"from": [4, 1, 7],
			"to": [6, 15, 8],
			"faces": {
				"north": {"uv": [5, 0.5, 6, 7.5], "texture": "#0"},
				"east": {"uv": [0, 0, 1, 14], "texture": "#missing"},
				"south": {"uv": [2, 8.5, 3, 15.5], "texture": "#0"},
				"west": {"uv": [0, 0, 1, 14], "texture": "#missing"},
				"up": {"uv": [0, 0, 2, 1], "texture": "#missing"},
				"down": {"uv": [0, 0, 2, 1], "texture": "#missing"}
			}
		},
		{
			"from": [6, 0, 7],
			"to": [10, 16, 8],
			"faces": {
				"north": {"uv": [3, 0, 5, 8], "texture": "#0"},
				"east": {"uv": [0, 0, 1, 16], "texture": "#missing"},
				"south": {"uv": [3, 8, 5, 16], "texture": "#0"},
				"west": {"uv": [0, 0, 1, 16], "texture": "#missing"},
				"up": {"uv": [0, 0, 4, 1], "texture": "#missing"},
				"down": {"uv": [0, 0, 4, 1], "texture": "#missing"}
			}
		},
		{
			"from": [0, 6, 7],
			"to": [1, 10, 8],
			"faces": {
				"north": {"uv": [7.5, 3, 8, 5], "texture": "#0"},
				"east": {"uv": [0, 0, 1, 4], "texture": "#missing"},
				"south": {"uv": [0, 11, 0.5, 13], "texture": "#0"},
				"west": {"uv": [0, 0, 1, 4], "texture": "#missing"},
				"up": {"uv": [0, 0, 1, 1], "texture": "#missing"},
				"down": {"uv": [0, 0, 1, 1], "texture": "#missing"}
			}
		},
		{
			"from": [1, 4, 7],
			"to": [2, 12, 8],
			"faces": {
				"north": {"uv": [7, 2, 7.5, 6], "texture": "#0"},
				"east": {"uv": [0, 0, 1, 8], "texture": "#missing"},
				"south": {"uv": [0.5, 10, 1, 14], "texture": "#0"},
				"west": {"uv": [0, 0, 1, 8], "texture": "#missing"},
				"up": {"uv": [0, 0, 1, 1], "texture": "#missing"},
				"down": {"uv": [0, 0, 1, 1], "texture": "#missing"}
			}
		},
		{
			"from": [2, 2, 7],
			"to": [4, 14, 8],
			"faces": {
				"north": {"uv": [6, 1, 7, 7], "texture": "#0"},
				"east": {"uv": [0, 0, 1, 12], "texture": "#missing"},
				"south": {"uv": [1, 9, 2, 15], "texture": "#0"},
				"west": {"uv": [0, 0, 1, 12], "texture": "#missing"},
				"up": {"uv": [0, 0, 2, 1], "texture": "#missing"},
				"down": {"uv": [0, 0, 2, 1], "texture": "#missing"}
			}
		},
		{
			"from": [10, 1, 7],
			"to": [12, 15, 8],
			"faces": {
				"north": {"uv": [2, 0.5, 3, 7.5], "texture": "#0"},
				"east": {"uv": [0, 0, 1, 14], "texture": "#missing"},
				"south": {"uv": [5, 8.5, 6, 15.5], "texture": "#0"},
				"west": {"uv": [0, 0, 1, 14], "texture": "#missing"},
				"up": {"uv": [0, 0, 2, 1], "texture": "#missing"},
				"down": {"uv": [0, 0, 2, 1], "texture": "#missing"}
			}
		},
		{
			"from": [12, 2, 7],
			"to": [14, 14, 8],
			"faces": {
				"north": {"uv": [1, 1, 2, 7], "texture": "#0"},
				"east": {"uv": [0, 0, 1, 12], "texture": "#missing"},
				"south": {"uv": [6, 9.5, 7, 14.5], "texture": "#0"},
				"west": {"uv": [0, 0, 1, 12], "texture": "#missing"},
				"up": {"uv": [0, 0, 2, 1], "texture": "#missing"},
				"down": {"uv": [0, 0, 2, 1], "texture": "#missing"}
			}
		},
		{
			"from": [14, 4, 7],
			"to": [15, 12, 8],
			"faces": {
				"north": {"uv": [0.5, 2, 1, 6], "texture": "#0"},
				"east": {"uv": [0, 0, 1, 8], "texture": "#missing"},
				"south": {"uv": [7, 10, 7.5, 14], "texture": "#0"},
				"west": {"uv": [0, 0, 1, 8], "texture": "#missing"},
				"up": {"uv": [0, 0, 1, 1], "texture": "#missing"},
				"down": {"uv": [0, 0, 1, 1], "texture": "#missing"}
			}
		},
		{
			"from": [15, 6, 7],
			"to": [16, 10, 8],
			"faces": {
				"north": {"uv": [0, 3, 0.5, 5], "texture": "#0"},
				"east": {"uv": [0, 0, 1, 4], "texture": "#missing"},
				"south": {"uv": [7.5, 11, 8, 13], "texture": "#0"},
				"west": {"uv": [0, 0, 1, 4], "texture": "#missing"},
				"up": {"uv": [0, 0, 1, 1], "texture": "#missing"},
				"down": {"uv": [0, 0, 1, 1], "texture": "#missing"}
			}
		},
		{
			"from": [6, 16, 6.9],
			"to": [10, 17.2, 8.1],
			"faces": {
				"north": {"uv": [10.5, 1, 14.5, 2], "texture": "#0"},
				"east": {"uv": [10.5, 1, 14.5, 2], "texture": "#0"},
				"south": {"uv": [10.5, 1, 14.5, 2], "texture": "#0"},
				"west": {"uv": [10.5, 1, 14.5, 2], "texture": "#0"},
				"up": {"uv": [10.5, 1, 14.5, 2], "texture": "#0"},
				"down": {"uv": [10.5, 1, 14.5, 2], "texture": "#0"}
			}
		},
		{
			"from": [4, 15, 6.9],
			"to": [6, 16.2, 8.1],
			"faces": {
				"north": {"uv": [11, 1.5, 13, 2.5], "texture": "#0"},
				"east": {"uv": [11, 1.5, 13, 2.5], "texture": "#0"},
				"south": {"uv": [11, 1.5, 13, 2.5], "texture": "#0"},
				"west": {"uv": [11, 1.5, 13, 2.5], "texture": "#0"},
				"up": {"uv": [11, 1.5, 13, 2.5], "texture": "#0"},
				"down": {"uv": [11, 1.5, 13, 2.5], "texture": "#0"}
			}
		},
		{
			"from": [2, 14, 6.9],
			"to": [4, 15.2, 8.1],
			"faces": {
				"north": {"uv": [11, 0.5, 13, 1.5], "texture": "#0"},
				"east": {"uv": [11, 0.5, 13, 1.5], "texture": "#0"},
				"south": {"uv": [11, 0.5, 13, 1.5], "texture": "#0"},
				"west": {"uv": [11, 0.5, 13, 1.5], "texture": "#0"},
				"up": {"uv": [11, 0.5, 13, 1.5], "texture": "#0"},
				"down": {"uv": [12.5, 1.5, 14.5, 2.5], "texture": "#0"}
			}
		},
		{
			"from": [0.8, 12, 6.9],
			"to": [2, 14, 8.1],
			"faces": {
				"north": {"uv": [12, 2.5, 13, 4.5], "texture": "#0"},
				"east": {"uv": [12, 2.5, 13, 4.5], "texture": "#0"},
				"south": {"uv": [12, 2.5, 13, 4.5], "texture": "#0"},
				"west": {"uv": [12, 2.5, 13, 4.5], "texture": "#0"},
				"up": {"uv": [12, 2.5, 13, 4.5], "texture": "#0"},
				"down": {"uv": [12, 2.5, 13, 4.5], "texture": "#0"}
			}
		},
		{
			"from": [-0.2, 10, 6.9],
			"to": [1, 12, 8.1],
			"faces": {
				"north": {"uv": [12, 2.5, 13, 4.5], "texture": "#0"},
				"east": {"uv": [12, 2.5, 13, 4.5], "texture": "#0"},
				"south": {"uv": [12, 2.5, 13, 4.5], "texture": "#0"},
				"west": {"uv": [12, 2.5, 13, 4.5], "texture": "#0"},
				"up": {"uv": [12, 2.5, 13, 4.5], "texture": "#0"},
				"down": {"uv": [12, 2.5, 13, 4.5], "texture": "#0"}
			}
		},
		{
			"from": [-1.2, 6, 6.9],
			"to": [0, 10, 8.1],
			"faces": {
				"north": {"uv": [14.5, 1, 15.5, 5], "texture": "#0"},
				"east": {"uv": [14.5, 1, 15.5, 5], "texture": "#0"},
				"south": {"uv": [14.5, 1, 15.5, 5], "texture": "#0"},
				"west": {"uv": [14.5, 1, 15.5, 5], "texture": "#0"},
				"up": {"uv": [14.5, 1, 15.5, 5], "texture": "#0"},
				"down": {"uv": [14.5, 1, 15.5, 5], "texture": "#0"}
			}
		},
		{
			"from": [7, 6, 6],
			"to": [9, 10, 7],
			"faces": {
				"north": {"uv": [11, 11.5, 12, 12.5], "texture": "#0"},
				"east": {"uv": [11, 11.5, 12, 12.5], "texture": "#0"},
				"south": {"uv": [11, 11.5, 12, 12.5], "texture": "#0"},
				"west": {"uv": [11, 11.5, 12, 12.5], "texture": "#0"},
				"up": {"uv": [11, 11.5, 12, 12.5], "texture": "#0"},
				"down": {"uv": [11, 11.5, 12, 12.5], "texture": "#0"}
			}
		},
		{
			"from": [6, 7, 6],
			"to": [7, 9, 7],
			"faces": {
				"north": {"uv": [11, 11.5, 12, 12.5], "texture": "#0"},
				"east": {"uv": [11, 11.5, 12, 12.5], "texture": "#0"},
				"south": {"uv": [11, 11.5, 12, 12.5], "texture": "#0"},
				"west": {"uv": [11, 11.5, 12, 12.5], "texture": "#0"},
				"up": {"uv": [11, 11.5, 12, 12.5], "texture": "#0"},
				"down": {"uv": [11, 11.5, 12, 12.5], "texture": "#0"}
			}
		},
		{
			"from": [9, 7, 6],
			"to": [10, 9, 7],
			"faces": {
				"north": {"uv": [11, 11.5, 12, 12.5], "texture": "#0"},
				"east": {"uv": [11, 11.5, 12, 12.5], "texture": "#0"},
				"south": {"uv": [11, 11.5, 12, 12.5], "texture": "#0"},
				"west": {"uv": [11, 11.5, 12, 12.5], "texture": "#0"},
				"up": {"uv": [11, 11.5, 12, 12.5], "texture": "#0"},
				"down": {"uv": [11, 11.5, 12, 12.5], "texture": "#0"}
			}
		},
		{
			"from": [7, 7, 5.5],
			"to": [9, 9, 6.5],
			"faces": {
				"north": {"uv": [11, 11.5, 12, 12.5], "texture": "#0"},
				"east": {"uv": [11, 11.5, 12, 12.5], "texture": "#0"},
				"south": {"uv": [11, 11.5, 12, 12.5], "texture": "#0"},
				"west": {"uv": [11, 11.5, 12, 12.5], "texture": "#0"},
				"up": {"uv": [11, 11.5, 12, 12.5], "texture": "#0"},
				"down": {"uv": [11, 11.5, 12, 12.5], "texture": "#0"}
			}
		},
		{
			"from": [4, 5, 8],
			"to": [5, 6, 13],
			"faces": {
				"north": {"uv": [12, 10.5, 14.5, 11], "texture": "#0"},
				"east": {"uv": [12, 10.5, 14.5, 11], "texture": "#0"},
				"south": {"uv": [12, 10.5, 14.5, 11], "texture": "#0"},
				"west": {"uv": [12, 10.5, 14.5, 11], "texture": "#0"},
				"up": {"uv": [12, 10.5, 14.5, 11], "texture": "#0"},
				"down": {"uv": [12, 10.5, 14.5, 11], "texture": "#0"}
			}
		},
		{
			"from": [4, 10, 8],
			"to": [5, 11, 13],
			"faces": {
				"north": {"uv": [12, 10.5, 14.5, 11], "texture": "#0"},
				"east": {"uv": [12, 10.5, 14.5, 11], "texture": "#0"},
				"south": {"uv": [12, 10.5, 14.5, 11], "texture": "#0"},
				"west": {"uv": [12, 10.5, 14.5, 11], "texture": "#0"},
				"up": {"uv": [12, 10.5, 14.5, 11], "texture": "#0"},
				"down": {"uv": [12, 10.5, 14.5, 11], "texture": "#0"}
			}
		},
		{
			"from": [4, 6, 12],
			"to": [5, 10, 13],
			"faces": {
				"north": {"uv": [12, 10.5, 14.5, 11], "texture": "#0"},
				"east": {"uv": [12, 10.5, 14.5, 11], "texture": "#0"},
				"south": {"uv": [12, 10.5, 14.5, 11], "texture": "#0"},
				"west": {"uv": [12, 10.5, 14.5, 11], "texture": "#0"},
				"up": {"uv": [12, 10.5, 14.5, 11], "texture": "#0"},
				"down": {"uv": [12, 10.5, 14.5, 11], "texture": "#0"}
			}
		},
		{
			"from": [11, 10, 8],
			"to": [12, 11, 13],
			"faces": {
				"north": {"uv": [12, 10.5, 14.5, 11], "texture": "#0"},
				"east": {"uv": [12, 10.5, 14.5, 11], "texture": "#0"},
				"south": {"uv": [12, 10.5, 14.5, 11], "texture": "#0"},
				"west": {"uv": [12, 10.5, 14.5, 11], "texture": "#0"},
				"up": {"uv": [12, 10.5, 14.5, 11], "texture": "#0"},
				"down": {"uv": [12, 10.5, 14.5, 11], "texture": "#0"}
			}
		},
		{
			"from": [11, 5, 8],
			"to": [12, 6, 13],
			"faces": {
				"north": {"uv": [12, 10.5, 14.5, 11], "texture": "#0"},
				"east": {"uv": [12, 10.5, 14.5, 11], "texture": "#0"},
				"south": {"uv": [12, 10.5, 14.5, 11], "texture": "#0"},
				"west": {"uv": [12, 10.5, 14.5, 11], "texture": "#0"},
				"up": {"uv": [12, 10.5, 14.5, 11], "texture": "#0"},
				"down": {"uv": [12, 10.5, 14.5, 11], "texture": "#0"}
			}
		},
		{
			"from": [11, 6, 12],
			"to": [12, 10, 13],
			"faces": {
				"north": {"uv": [12, 10.5, 14.5, 11], "texture": "#0"},
				"east": {"uv": [12, 10.5, 14.5, 11], "texture": "#0"},
				"south": {"uv": [12, 10.5, 14.5, 11], "texture": "#0"},
				"west": {"uv": [12, 10.5, 14.5, 11], "texture": "#0"},
				"up": {"uv": [12, 10.5, 14.5, 11], "texture": "#0"},
				"down": {"uv": [12, 10.5, 14.5, 11], "texture": "#0"}
			}
		},
		{
			"from": [16, 6, 6.9],
			"to": [17.2, 10, 8.1],
			"faces": {
				"north": {"uv": [15.5, 1, 14.5, 5], "texture": "#0"},
				"east": {"uv": [15.5, 1, 14.5, 5], "texture": "#0"},
				"south": {"uv": [15.5, 1, 14.5, 5], "texture": "#0"},
				"west": {"uv": [15.5, 1, 14.5, 5], "texture": "#0"},
				"up": {"uv": [15.5, 1, 14.5, 5], "texture": "#0"},
				"down": {"uv": [15.5, 1, 14.5, 5], "texture": "#0"}
			}
		},
		{
			"from": [6, -1.2, 6.9],
			"to": [10, 0, 8.1],
			"faces": {
				"north": {"uv": [10.5, 2, 14.5, 1], "texture": "#0"},
				"east": {"uv": [10.5, 2, 14.5, 1], "texture": "#0"},
				"south": {"uv": [10.5, 2, 14.5, 1], "texture": "#0"},
				"west": {"uv": [10.5, 2, 14.5, 1], "texture": "#0"},
				"up": {"uv": [10.5, 2, 14.5, 1], "texture": "#0"},
				"down": {"uv": [10.5, 2, 14.5, 1], "texture": "#0"}
			}
		},
		{
			"from": [10, 15, 6.9],
			"to": [12, 16.2, 8.1],
			"faces": {
				"north": {"uv": [13, 1.5, 11, 2.5], "texture": "#0"},
				"east": {"uv": [13, 1.5, 11, 2.5], "texture": "#0"},
				"south": {"uv": [13, 1.5, 11, 2.5], "texture": "#0"},
				"west": {"uv": [13, 1.5, 11, 2.5], "texture": "#0"},
				"up": {"uv": [13, 1.5, 11, 2.5], "texture": "#0"},
				"down": {"uv": [13, 1.5, 11, 2.5], "texture": "#0"}
			}
		},
		{
			"from": [12, 14, 6.9],
			"to": [14, 15.2, 8.1],
			"faces": {
				"north": {"uv": [13, 0.5, 11, 1.5], "texture": "#0"},
				"east": {"uv": [13, 0.5, 11, 1.5], "texture": "#0"},
				"south": {"uv": [13, 0.5, 11, 1.5], "texture": "#0"},
				"west": {"uv": [13, 0.5, 11, 1.5], "texture": "#0"},
				"up": {"uv": [13, 0.5, 11, 1.5], "texture": "#0"},
				"down": {"uv": [13, 2, 11, 3], "texture": "#0"}
			}
		},
		{
			"from": [14, 12, 6.9],
			"to": [15.2, 14, 8.1],
			"faces": {
				"north": {"uv": [13, 2.5, 12, 4.5], "texture": "#0"},
				"east": {"uv": [13, 2.5, 12, 4.5], "texture": "#0"},
				"south": {"uv": [13, 2.5, 12, 4.5], "texture": "#0"},
				"west": {"uv": [13, 2.5, 12, 4.5], "texture": "#0"},
				"up": {"uv": [13, 2.5, 12, 4.5], "texture": "#0"},
				"down": {"uv": [13, 2.5, 12, 4.5], "texture": "#0"}
			}
		},
		{
			"from": [15, 10, 6.9],
			"to": [16.2, 12, 8.1],
			"faces": {
				"north": {"uv": [13, 2.5, 12, 4.5], "texture": "#0"},
				"east": {"uv": [13, 2.5, 12, 4.5], "texture": "#0"},
				"south": {"uv": [13, 2.5, 12, 4.5], "texture": "#0"},
				"west": {"uv": [13, 2.5, 12, 4.5], "texture": "#0"},
				"up": {"uv": [13, 2.5, 12, 4.5], "texture": "#0"},
				"down": {"uv": [13, 2.5, 12, 4.5], "texture": "#0"}
			}
		},
		{
			"from": [-0.2, 4, 6.9],
			"to": [1, 6, 8.1],
			"faces": {
				"north": {"uv": [12, 4.5, 13, 2.5], "texture": "#0"},
				"east": {"uv": [12, 4.5, 13, 2.5], "texture": "#0"},
				"south": {"uv": [12, 4.5, 13, 2.5], "texture": "#0"},
				"west": {"uv": [12, 4.5, 13, 2.5], "texture": "#0"},
				"up": {"uv": [12, 4.5, 13, 2.5], "texture": "#0"},
				"down": {"uv": [12, 4.5, 13, 2.5], "texture": "#0"}
			}
		},
		{
			"from": [0.8, 2, 6.9],
			"to": [2, 4, 8.1],
			"faces": {
				"north": {"uv": [12, 4.5, 13, 2.5], "texture": "#0"},
				"east": {"uv": [12, 4.5, 13, 2.5], "texture": "#0"},
				"south": {"uv": [12, 4.5, 13, 2.5], "texture": "#0"},
				"west": {"uv": [12, 4.5, 13, 2.5], "texture": "#0"},
				"up": {"uv": [12, 4.5, 13, 2.5], "texture": "#0"},
				"down": {"uv": [12, 4.5, 13, 2.5], "texture": "#0"}
			}
		},
		{
			"from": [2, 0.8, 6.9],
			"to": [4, 2, 8.1],
			"faces": {
				"north": {"uv": [11, 1.5, 13, 0.5], "texture": "#0"},
				"east": {"uv": [11, 1.5, 13, 0.5], "texture": "#0"},
				"south": {"uv": [11, 1.5, 13, 0.5], "texture": "#0"},
				"west": {"uv": [11, 1.5, 13, 0.5], "texture": "#0"},
				"up": {"uv": [13, 3, 15, 2], "texture": "#0"},
				"down": {"uv": [11, 1.5, 13, 0.5], "texture": "#0"}
			}
		},
		{
			"from": [4, -0.2, 6.9],
			"to": [6, 1, 8.1],
			"faces": {
				"north": {"uv": [11, 2.5, 13, 1.5], "texture": "#0"},
				"east": {"uv": [11, 2.5, 13, 1.5], "texture": "#0"},
				"south": {"uv": [11, 2.5, 13, 1.5], "texture": "#0"},
				"west": {"uv": [11, 2.5, 13, 1.5], "texture": "#0"},
				"up": {"uv": [11, 2.5, 13, 1.5], "texture": "#0"},
				"down": {"uv": [11, 2.5, 13, 1.5], "texture": "#0"}
			}
		},
		{
			"from": [10, -0.2, 6.9],
			"to": [12, 1, 8.1],
			"faces": {
				"north": {"uv": [13, 2.5, 11, 1.5], "texture": "#0"},
				"east": {"uv": [13, 2.5, 11, 1.5], "texture": "#0"},
				"south": {"uv": [13, 2.5, 11, 1.5], "texture": "#0"},
				"west": {"uv": [13, 2.5, 11, 1.5], "texture": "#0"},
				"up": {"uv": [13, 2.5, 11, 1.5], "texture": "#0"},
				"down": {"uv": [13, 2.5, 11, 1.5], "texture": "#0"}
			}
		},
		{
			"from": [12, 0.8, 6.9],
			"to": [14, 2, 8.1],
			"faces": {
				"north": {"uv": [13, 1.5, 11, 0.5], "texture": "#0"},
				"east": {"uv": [13, 1.5, 11, 0.5], "texture": "#0"},
				"south": {"uv": [13, 1.5, 11, 0.5], "texture": "#0"},
				"west": {"uv": [13, 1.5, 11, 0.5], "texture": "#0"},
				"up": {"uv": [14.5, 4, 12.5, 3], "texture": "#0"},
				"down": {"uv": [13, 1.5, 11, 0.5], "texture": "#0"}
			}
		},
		{
			"from": [14, 2, 6.9],
			"to": [15.2, 4, 8.1],
			"faces": {
				"north": {"uv": [13, 4.5, 12, 2.5], "texture": "#0"},
				"east": {"uv": [13, 4.5, 12, 2.5], "texture": "#0"},
				"south": {"uv": [13, 4.5, 12, 2.5], "texture": "#0"},
				"west": {"uv": [13, 4.5, 12, 2.5], "texture": "#0"},
				"up": {"uv": [13, 4.5, 12, 2.5], "texture": "#0"},
				"down": {"uv": [13, 4.5, 12, 2.5], "texture": "#0"}
			}
		},
		{
			"from": [15, 4, 6.9],
			"to": [16.2, 6, 8.1],
			"faces": {
				"north": {"uv": [13, 4.5, 12, 2.5], "texture": "#0"},
				"east": {"uv": [13, 4.5, 12, 2.5], "texture": "#0"},
				"south": {"uv": [13, 4.5, 12, 2.5], "texture": "#0"},
				"west": {"uv": [13, 4.5, 12, 2.5], "texture": "#0"},
				"up": {"uv": [13, 4.5, 12, 2.5], "texture": "#0"},
				"down": {"uv": [13, 4.5, 12, 2.5], "texture": "#0"}
			}
		},
		{
			"from": [7, 16.3, 6.75],
			"to": [7.5, 16.8, 8.25],
			"faces": {
				"north": {"uv": [13.5, 12, 13, 11.5], "texture": "#0"},
				"east": {"uv": [13.5, 12, 13, 11.5], "texture": "#0"},
				"south": {"uv": [13.5, 12, 13, 11.5], "texture": "#0"},
				"west": {"uv": [13.5, 12, 13, 11.5], "texture": "#0"},
				"up": {"uv": [13.5, 12, 13, 11.5], "texture": "#0"},
				"down": {"uv": [13.5, 12, 13, 11.5], "texture": "#0"}
			}
		},
		{
			"from": [4.75, 15.3, 6.75],
			"to": [5.25, 15.8, 8.25],
			"faces": {
				"north": {"uv": [13.5, 12, 13, 11.5], "texture": "#0"},
				"east": {"uv": [13.5, 12, 13, 11.5], "texture": "#0"},
				"south": {"uv": [13.5, 12, 13, 11.5], "texture": "#0"},
				"west": {"uv": [13.5, 12, 13, 11.5], "texture": "#0"},
				"up": {"uv": [13.5, 12, 13, 11.5], "texture": "#0"},
				"down": {"uv": [13.5, 12, 13, 11.5], "texture": "#0"}
			}
		},
		{
			"from": [2.75, 14.3, 6.75],
			"to": [3.25, 14.8, 8.25],
			"faces": {
				"north": {"uv": [13.5, 12, 13, 11.5], "texture": "#0"},
				"east": {"uv": [13.5, 12, 13, 11.5], "texture": "#0"},
				"south": {"uv": [13.5, 12, 13, 11.5], "texture": "#0"},
				"west": {"uv": [13.5, 12, 13, 11.5], "texture": "#0"},
				"up": {"uv": [13.5, 12, 13, 11.5], "texture": "#0"},
				"down": {"uv": [13.5, 12, 13, 11.5], "texture": "#0"}
			}
		},
		{
			"from": [1.15, 12.75, 6.75],
			"to": [1.65, 13.25, 8.25],
			"faces": {
				"north": {"uv": [13.5, 12, 13, 11.5], "texture": "#0"},
				"east": {"uv": [13.5, 12, 13, 11.5], "texture": "#0"},
				"south": {"uv": [13.5, 12, 13, 11.5], "texture": "#0"},
				"west": {"uv": [13.5, 12, 13, 11.5], "texture": "#0"},
				"up": {"uv": [13.5, 12, 13, 11.5], "texture": "#0"},
				"down": {"uv": [13.5, 12, 13, 11.5], "texture": "#0"}
			}
		},
		{
			"from": [0.15, 10.75, 6.75],
			"to": [0.65, 11.25, 8.25],
			"faces": {
				"north": {"uv": [13.5, 12, 13, 11.5], "texture": "#0"},
				"east": {"uv": [13.5, 12, 13, 11.5], "texture": "#0"},
				"south": {"uv": [13.5, 12, 13, 11.5], "texture": "#0"},
				"west": {"uv": [13.5, 12, 13, 11.5], "texture": "#0"},
				"up": {"uv": [13.5, 12, 13, 11.5], "texture": "#0"},
				"down": {"uv": [13.5, 12, 13, 11.5], "texture": "#0"}
			}
		},
		{
			"from": [-0.85, 8.75, 6.75],
			"to": [-0.35, 9.25, 8.25],
			"faces": {
				"north": {"uv": [13.5, 12, 13, 11.5], "texture": "#0"},
				"east": {"uv": [13.5, 12, 13, 11.5], "texture": "#0"},
				"south": {"uv": [13.5, 12, 13, 11.5], "texture": "#0"},
				"west": {"uv": [13.5, 12, 13, 11.5], "texture": "#0"},
				"up": {"uv": [13.5, 12, 13, 11.5], "texture": "#0"},
				"down": {"uv": [13.5, 12, 13, 11.5], "texture": "#0"}
			}
		},
		{
			"from": [16.35, 8.75, 6.75],
			"to": [16.85, 9.25, 8.25],
			"faces": {
				"north": {"uv": [13.5, 12, 13, 11.5], "texture": "#0"},
				"east": {"uv": [13.5, 12, 13, 11.5], "texture": "#0"},
				"south": {"uv": [13.5, 12, 13, 11.5], "texture": "#0"},
				"west": {"uv": [13.5, 12, 13, 11.5], "texture": "#0"},
				"up": {"uv": [13.5, 12, 13, 11.5], "texture": "#0"},
				"down": {"uv": [13.5, 12, 13, 11.5], "texture": "#0"}
			}
		},
		{
			"from": [15.35, 10.75, 6.75],
			"to": [15.85, 11.25, 8.25],
			"faces": {
				"north": {"uv": [13.5, 12, 13, 11.5], "texture": "#0"},
				"east": {"uv": [13.5, 12, 13, 11.5], "texture": "#0"},
				"south": {"uv": [13.5, 12, 13, 11.5], "texture": "#0"},
				"west": {"uv": [13.5, 12, 13, 11.5], "texture": "#0"},
				"up": {"uv": [13.5, 12, 13, 11.5], "texture": "#0"},
				"down": {"uv": [13.5, 12, 13, 11.5], "texture": "#0"}
			}
		},
		{
			"from": [14.35, 12.75, 6.75],
			"to": [14.85, 13.25, 8.25],
			"faces": {
				"north": {"uv": [13.5, 12, 13, 11.5], "texture": "#0"},
				"east": {"uv": [13.5, 12, 13, 11.5], "texture": "#0"},
				"south": {"uv": [13.5, 12, 13, 11.5], "texture": "#0"},
				"west": {"uv": [13.5, 12, 13, 11.5], "texture": "#0"},
				"up": {"uv": [13.5, 12, 13, 11.5], "texture": "#0"},
				"down": {"uv": [13.5, 12, 13, 11.5], "texture": "#0"}
			}
		},
		{
			"from": [12.75, 14.3, 6.75],
			"to": [13.25, 14.8, 8.25],
			"faces": {
				"north": {"uv": [13.5, 12, 13, 11.5], "texture": "#0"},
				"east": {"uv": [13.5, 12, 13, 11.5], "texture": "#0"},
				"south": {"uv": [13.5, 12, 13, 11.5], "texture": "#0"},
				"west": {"uv": [13.5, 12, 13, 11.5], "texture": "#0"},
				"up": {"uv": [13.5, 12, 13, 11.5], "texture": "#0"},
				"down": {"uv": [13.5, 12, 13, 11.5], "texture": "#0"}
			}
		},
		{
			"from": [10.75, 15.3, 6.75],
			"to": [11.25, 15.8, 8.25],
			"faces": {
				"north": {"uv": [13.5, 12, 13, 11.5], "texture": "#0"},
				"east": {"uv": [13.5, 12, 13, 11.5], "texture": "#0"},
				"south": {"uv": [13.5, 12, 13, 11.5], "texture": "#0"},
				"west": {"uv": [13.5, 12, 13, 11.5], "texture": "#0"},
				"up": {"uv": [13.5, 12, 13, 11.5], "texture": "#0"},
				"down": {"uv": [13.5, 12, 13, 11.5], "texture": "#0"}
			}
		},
		{
			"from": [8.5, 16.3, 6.75],
			"to": [9, 16.8, 8.25],
			"faces": {
				"north": {"uv": [13.5, 12, 13, 11.5], "texture": "#0"},
				"east": {"uv": [13.5, 12, 13, 11.5], "texture": "#0"},
				"south": {"uv": [13.5, 12, 13, 11.5], "texture": "#0"},
				"west": {"uv": [13.5, 12, 13, 11.5], "texture": "#0"},
				"up": {"uv": [13.5, 12, 13, 11.5], "texture": "#0"},
				"down": {"uv": [13.5, 12, 13, 11.5], "texture": "#0"}
			}
		},
		{
			"from": [-0.85, 6.75, 6.75],
			"to": [-0.35, 7.25, 8.25],
			"faces": {
				"north": {"uv": [13.5, 12, 13, 11.5], "texture": "#0"},
				"east": {"uv": [13.5, 12, 13, 11.5], "texture": "#0"},
				"south": {"uv": [13.5, 12, 13, 11.5], "texture": "#0"},
				"west": {"uv": [13.5, 12, 13, 11.5], "texture": "#0"},
				"up": {"uv": [13.5, 12, 13, 11.5], "texture": "#0"},
				"down": {"uv": [13.5, 12, 13, 11.5], "texture": "#0"}
			}
		},
		{
			"from": [0.15, 4.75, 6.75],
			"to": [0.65, 5.25, 8.25],
			"faces": {
				"north": {"uv": [13.5, 12, 13, 11.5], "texture": "#0"},
				"east": {"uv": [13.5, 12, 13, 11.5], "texture": "#0"},
				"south": {"uv": [13.5, 12, 13, 11.5], "texture": "#0"},
				"west": {"uv": [13.5, 12, 13, 11.5], "texture": "#0"},
				"up": {"uv": [13.5, 12, 13, 11.5], "texture": "#0"},
				"down": {"uv": [13.5, 12, 13, 11.5], "texture": "#0"}
			}
		},
		{
			"from": [1.15, 2.75, 6.75],
			"to": [1.65, 3.25, 8.25],
			"faces": {
				"north": {"uv": [13.5, 12, 13, 11.5], "texture": "#0"},
				"east": {"uv": [13.5, 12, 13, 11.5], "texture": "#0"},
				"south": {"uv": [13.5, 12, 13, 11.5], "texture": "#0"},
				"west": {"uv": [13.5, 12, 13, 11.5], "texture": "#0"},
				"up": {"uv": [13.5, 12, 13, 11.5], "texture": "#0"},
				"down": {"uv": [13.5, 12, 13, 11.5], "texture": "#0"}
			}
		},
		{
			"from": [2.75, 1.2, 6.75],
			"to": [3.25, 1.7, 8.25],
			"faces": {
				"north": {"uv": [13.5, 12, 13, 11.5], "texture": "#0"},
				"east": {"uv": [13.5, 12, 13, 11.5], "texture": "#0"},
				"south": {"uv": [13.5, 12, 13, 11.5], "texture": "#0"},
				"west": {"uv": [13.5, 12, 13, 11.5], "texture": "#0"},
				"up": {"uv": [13.5, 12, 13, 11.5], "texture": "#0"},
				"down": {"uv": [13.5, 12, 13, 11.5], "texture": "#0"}
			}
		},
		{
			"from": [4.75, 0.2, 6.75],
			"to": [5.25, 0.7, 8.25],
			"faces": {
				"north": {"uv": [13.5, 12, 13, 11.5], "texture": "#0"},
				"east": {"uv": [13.5, 12, 13, 11.5], "texture": "#0"},
				"south": {"uv": [13.5, 12, 13, 11.5], "texture": "#0"},
				"west": {"uv": [13.5, 12, 13, 11.5], "texture": "#0"},
				"up": {"uv": [13.5, 12, 13, 11.5], "texture": "#0"},
				"down": {"uv": [13.5, 12, 13, 11.5], "texture": "#0"}
			}
		},
		{
			"from": [7, -0.8, 6.75],
			"to": [7.5, -0.3, 8.25],
			"faces": {
				"north": {"uv": [13.5, 12, 13, 11.5], "texture": "#0"},
				"east": {"uv": [13.5, 12, 13, 11.5], "texture": "#0"},
				"south": {"uv": [13.5, 12, 13, 11.5], "texture": "#0"},
				"west": {"uv": [13.5, 12, 13, 11.5], "texture": "#0"},
				"up": {"uv": [13.5, 12, 13, 11.5], "texture": "#0"},
				"down": {"uv": [13.5, 12, 13, 11.5], "texture": "#0"}
			}
		},
		{
			"from": [16.35, 6.75, 6.75],
			"to": [16.85, 7.25, 8.25],
			"faces": {
				"north": {"uv": [13.5, 12, 13, 11.5], "texture": "#0"},
				"east": {"uv": [13.5, 12, 13, 11.5], "texture": "#0"},
				"south": {"uv": [13.5, 12, 13, 11.5], "texture": "#0"},
				"west": {"uv": [13.5, 12, 13, 11.5], "texture": "#0"},
				"up": {"uv": [13.5, 12, 13, 11.5], "texture": "#0"},
				"down": {"uv": [13.5, 12, 13, 11.5], "texture": "#0"}
			}
		},
		{
			"from": [15.35, 4.75, 6.75],
			"to": [15.85, 5.25, 8.25],
			"faces": {
				"north": {"uv": [13.5, 12, 13, 11.5], "texture": "#0"},
				"east": {"uv": [13.5, 12, 13, 11.5], "texture": "#0"},
				"south": {"uv": [13.5, 12, 13, 11.5], "texture": "#0"},
				"west": {"uv": [13.5, 12, 13, 11.5], "texture": "#0"},
				"up": {"uv": [13.5, 12, 13, 11.5], "texture": "#0"},
				"down": {"uv": [13.5, 12, 13, 11.5], "texture": "#0"}
			}
		},
		{
			"from": [14.35, 2.75, 6.75],
			"to": [14.85, 3.25, 8.25],
			"faces": {
				"north": {"uv": [13.5, 12, 13, 11.5], "texture": "#0"},
				"east": {"uv": [13.5, 12, 13, 11.5], "texture": "#0"},
				"south": {"uv": [13.5, 12, 13, 11.5], "texture": "#0"},
				"west": {"uv": [13.5, 12, 13, 11.5], "texture": "#0"},
				"up": {"uv": [13.5, 12, 13, 11.5], "texture": "#0"},
				"down": {"uv": [13.5, 12, 13, 11.5], "texture": "#0"}
			}
		},
		{
			"from": [12.75, 1.2, 6.75],
			"to": [13.25, 1.7, 8.25],
			"faces": {
				"north": {"uv": [13.5, 12, 13, 11.5], "texture": "#0"},
				"east": {"uv": [13.5, 12, 13, 11.5], "texture": "#0"},
				"south": {"uv": [13.5, 12, 13, 11.5], "texture": "#0"},
				"west": {"uv": [13.5, 12, 13, 11.5], "texture": "#0"},
				"up": {"uv": [13.5, 12, 13, 11.5], "texture": "#0"},
				"down": {"uv": [13.5, 12, 13, 11.5], "texture": "#0"}
			}
		},
		{
			"from": [10.75, 0.2, 6.75],
			"to": [11.25, 0.7, 8.25],
			"faces": {
				"north": {"uv": [13.5, 12, 13, 11.5], "texture": "#0"},
				"east": {"uv": [13.5, 12, 13, 11.5], "texture": "#0"},
				"south": {"uv": [13.5, 12, 13, 11.5], "texture": "#0"},
				"west": {"uv": [13.5, 12, 13, 11.5], "texture": "#0"},
				"up": {"uv": [13.5, 12, 13, 11.5], "texture": "#0"},
				"down": {"uv": [13.5, 12, 13, 11.5], "texture": "#0"}
			}
		},
		{
			"from": [8.5, -0.8, 6.75],
			"to": [9, -0.3, 8.25],
			"faces": {
				"north": {"uv": [13.5, 12, 13, 11.5], "texture": "#0"},
				"east": {"uv": [13.5, 12, 13, 11.5], "texture": "#0"},
				"south": {"uv": [13.5, 12, 13, 11.5], "texture": "#0"},
				"west": {"uv": [13.5, 12, 13, 11.5], "texture": "#0"},
				"up": {"uv": [13.5, 12, 13, 11.5], "texture": "#0"},
				"down": {"uv": [13.5, 12, 13, 11.5], "texture": "#0"}
			}
		}
	],
	"display": {
		"thirdperson_righthand": {
			"rotation": [0, -90, 0],
			"translation": [2, -2, 4.5]
		},
		"thirdperson_lefthand": {
			"rotation": [0, -90, 0],
			"translation": [2, -2, 4.5]
		},
		"firstperson_righthand": {
			"rotation": [0, -41.5, 0],
			"translation": [4, -3, 2.5]
		},
		"firstperson_lefthand": {
			"rotation": [0, -41.5, 0],
			"translation": [4, -3, 2.5]
		},
		"fixed": {
			"scale": [2.3, 2.3, 2.3]
		},
		"gui": {
			"rotation": [0, 180, 0]
		}
	}
}