[gd_scene load_steps=4 format=2]

[ext_resource path="res://hud/lifebar_bg.png" type="Texture" id=1]
[ext_resource path="res://hud/lifebar_fill.png" type="Texture" id=2]

[sub_resource type="GDScript" id=1]

script/source = "extends CanvasLayer

func _ready():
	get_node(\"/root/game/player\").connect(\"hp_changed\", self, \"_hp_changed\")
	pass

#func _process(delta):
#	# Called every frame. Delta is time since last frame.
#	# Update game logic here.
#	pass


func _hp_changed(new_value):
	# update text
	$line1/hp_value.text = str(new_value)
	# update progress bar
	$line1/hp_bar.value = new_value"

[node name="hud" type="CanvasLayer" index="0"]

layer = 1
offset = Vector2( 0, 0 )
rotation = 0.0
scale = Vector2( 1, 1 )
transform = Transform2D( 1, 0, 0, 1, 0, 0 )
script = SubResource( 1 )
_sections_unfolded = [ "Margin" ]

[node name="line1" type="Container" parent="." index="0"]

anchor_left = 0.0
anchor_top = 0.0
anchor_right = 1.0
anchor_bottom = 0.0
margin_bottom = 53.0
rect_pivot_offset = Vector2( 0, 0 )
rect_clip_content = false
mouse_filter = 0
mouse_default_cursor_shape = 0
size_flags_horizontal = 1
size_flags_vertical = 1
_sections_unfolded = [ "Rect" ]

[node name="hp_label" type="Label" parent="line1" index="0"]

anchor_left = 0.0
anchor_top = 0.0
anchor_right = 0.0
anchor_bottom = 0.0
margin_left = 33.0
margin_top = 19.0
margin_right = 51.0
margin_bottom = 33.0
rect_pivot_offset = Vector2( 0, 0 )
rect_clip_content = false
mouse_filter = 2
mouse_default_cursor_shape = 0
size_flags_horizontal = 1
size_flags_vertical = 4
text = "HP"
percent_visible = 1.0
lines_skipped = 0
max_lines_visible = -1

[node name="hp_value" type="Label" parent="line1" index="1"]

anchor_left = 0.0
anchor_top = 0.0
anchor_right = 0.0
anchor_bottom = 0.0
margin_left = 55.0
margin_top = 19.0
margin_right = 79.0
margin_bottom = 33.0
rect_pivot_offset = Vector2( 0, 0 )
rect_clip_content = false
mouse_filter = 2
mouse_default_cursor_shape = 0
size_flags_horizontal = 1
size_flags_vertical = 4
text = "100"
percent_visible = -0.2
lines_skipped = 0
max_lines_visible = -1

[node name="hp_bar" type="TextureProgress" parent="line1" index="2"]

anchor_left = 0.0
anchor_top = 0.0
anchor_right = 0.0
anchor_bottom = 0.0
margin_left = 83.0
margin_right = 479.0
margin_bottom = 53.0
rect_pivot_offset = Vector2( 0, 0 )
rect_clip_content = false
mouse_filter = 1
mouse_default_cursor_shape = 0
size_flags_horizontal = 1
size_flags_vertical = 1
min_value = 0.0
max_value = 100.0
step = 1.0
page = 0.0
value = 100.0
exp_edit = false
rounded = false
texture_under = ExtResource( 1 )
texture_over = null
texture_progress = ExtResource( 2 )
radial_fill_degrees = 360.0
radial_center_offset = Vector2( 0, 0 )
nine_patch_stretch = false
_sections_unfolded = [ "Rect", "Textures" ]


