{
	"credit": "Made with Blockbench",
	"textures": {
		"0": "./anakin_lightsaber",
		"particle": "./anakin_lightsaber"
	},
	"elements": [
		{
			"from": [7.625, -2, 7.625],
			"to": [8.375, -1.25, 8.375],
			"faces": {
				"north": {"uv": [1, 5.5, 1.75, 6.25], "texture": "#0"},
				"east": {"uv": [1, 5.5, 1.75, 6.25], "texture": "#0"},
				"south": {"uv": [1, 5.5, 1.75, 6.25], "texture": "#0"},
				"west": {"uv": [1, 5.5, 1.75, 6.25], "texture": "#0"},
				"up": {"uv": [1, 5.5, 1.75, 6.25], "texture": "#0"},
				"down": {"uv": [1, 5.5, 1.75, 6.25], "texture": "#0"}
			}
		},
		{
			"from": [7.75, -2, 7.75],
			"to": [8.25, 26, 8.25],
			"faces": {
				"north": {"uv": [8.5, 11.5, 9, 16], "texture": "#0"},
				"east": {"uv": [8.5, 11.5, 9, 16], "texture": "#0"},
				"south": {"uv": [8.5, 11.5, 9, 16], "texture": "#0"},
				"west": {"uv": [8.5, 11.5, 9, 16], "texture": "#0"},
				"up": {"uv": [8.5, 11.5, 9, 16], "texture": "#0"},
				"down": {"uv": [8.5, 11.5, 9, 16], "texture": "#0"}
			}
		},
		{
			"from": [7.5, -1.25, 7.5],
			"to": [8.5, 26.75, 8.5],
			"faces": {
				"north": {"uv": [14.5, 11, 16, 13.5], "texture": "#0"},
				"east": {"uv": [14.5, 11, 16, 13.5], "texture": "#0"},
				"south": {"uv": [14.5, 11, 16, 13.5], "texture": "#0"},
				"west": {"uv": [14.5, 11, 16, 13.5], "texture": "#0"},
				"up": {"uv": [14.5, 11, 16, 13.5], "texture": "#0"},
				"down": {"uv": [14.5, 11, 16, 13.5], "texture": "#0"}
			}
		},
		{
			"from": [7.25, -11.75, 7.25],
			"to": [8.75, -2.5, 8.75],
			"faces": {
				"north": {"uv": [0, 10.5, 1.75, 13], "texture": "#0"},
				"east": {"uv": [0, 10.5, 1.75, 13], "texture": "#0"},
				"south": {"uv": [0, 10.5, 1.75, 13], "texture": "#0"},
				"west": {"uv": [0, 10.5, 1.75, 13], "texture": "#0"},
				"up": {"uv": [0, 10.5, 1.75, 13], "texture": "#0"},
				"down": {"uv": [0, 10.5, 1.75, 13], "texture": "#0"}
			}
		},
		{
			"from": [7.25, -1.5, 7.25],
			"to": [7.35, -0.5, 8.75],
			"faces": {
				"north": {"uv": [0, 10.5, 1.75, 13], "texture": "#0"},
				"east": {"uv": [0, 10.5, 1.75, 13], "texture": "#0"},
				"south": {"uv": [0, 10.5, 1.75, 13], "texture": "#0"},
				"west": {"uv": [0, 10.5, 1.75, 13], "texture": "#0"},
				"up": {"uv": [0, 10.5, 1.75, 13], "texture": "#0"},
				"down": {"uv": [0, 10.5, 1.75, 13], "texture": "#0"}
			}
		},
		{
			"from": [7.35, -1.5, 7.25],
			"to": [8.1, -1, 7.35],
			"faces": {
				"north": {"uv": [0, 10.5, 1.75, 13], "texture": "#0"},
				"east": {"uv": [0, 10.5, 1.75, 13], "texture": "#0"},
				"south": {"uv": [0, 10.5, 1.75, 13], "texture": "#0"},
				"west": {"uv": [0, 10.5, 1.75, 13], "texture": "#0"},
				"up": {"uv": [0, 10.5, 1.75, 13], "texture": "#0"},
				"down": {"uv": [0, 10.5, 1.75, 13], "texture": "#0"}
			}
		},
		{
			"from": [7.35, -1, 7.25],
			"to": [7.725, -0.5, 7.35],
			"faces": {
				"north": {"uv": [0, 10.5, 1.75, 13], "texture": "#0"},
				"east": {"uv": [0, 10.5, 1.75, 13], "texture": "#0"},
				"south": {"uv": [0, 10.5, 1.75, 13], "texture": "#0"},
				"west": {"uv": [0, 10.5, 1.75, 13], "texture": "#0"},
				"up": {"uv": [0, 10.5, 1.75, 13], "texture": "#0"},
				"down": {"uv": [0, 10.5, 1.75, 13], "texture": "#0"}
			}
		},
		{
			"from": [7.725, -1, 7.25],
			"to": [7.975, -0.75, 7.35],
			"faces": {
				"north": {"uv": [0, 10.5, 1.75, 13], "texture": "#0"},
				"east": {"uv": [0, 10.5, 1.75, 13], "texture": "#0"},
				"south": {"uv": [0, 10.5, 1.75, 13], "texture": "#0"},
				"west": {"uv": [0, 10.5, 1.75, 13], "texture": "#0"},
				"up": {"uv": [0, 10.5, 1.75, 13], "texture": "#0"},
				"down": {"uv": [0, 10.5, 1.75, 13], "texture": "#0"}
			}
		},
		{
			"from": [7.35, -1, 8.65],
			"to": [7.725, -0.5, 8.75],
			"faces": {
				"north": {"uv": [0, 10.5, 1.75, 13], "texture": "#0"},
				"east": {"uv": [0, 10.5, 1.75, 13], "texture": "#0"},
				"south": {"uv": [0, 10.5, 1.75, 13], "texture": "#0"},
				"west": {"uv": [0, 10.5, 1.75, 13], "texture": "#0"},
				"up": {"uv": [0, 10.5, 1.75, 13], "texture": "#0"},
				"down": {"uv": [0, 10.5, 1.75, 13], "texture": "#0"}
			}
		},
		{
			"from": [7.725, -1, 8.65],
			"to": [7.975, -0.75, 8.75],
			"faces": {
				"north": {"uv": [0, 10.5, 1.75, 13], "texture": "#0"},
				"east": {"uv": [0, 10.5, 1.75, 13], "texture": "#0"},
				"south": {"uv": [0, 10.5, 1.75, 13], "texture": "#0"},
				"west": {"uv": [0, 10.5, 1.75, 13], "texture": "#0"},
				"up": {"uv": [0, 10.5, 1.75, 13], "texture": "#0"},
				"down": {"uv": [0, 10.5, 1.75, 13], "texture": "#0"}
			}
		},
		{
			"from": [7.35, -1.5, 8.65],
			"to": [8.1, -1, 8.75],
			"faces": {
				"north": {"uv": [0, 10.5, 1.75, 13], "texture": "#0"},
				"east": {"uv": [0, 10.5, 1.75, 13], "texture": "#0"},
				"south": {"uv": [0, 10.5, 1.75, 13], "texture": "#0"},
				"west": {"uv": [0, 10.5, 1.75, 13], "texture": "#0"},
				"up": {"uv": [0, 10.5, 1.75, 13], "texture": "#0"},
				"down": {"uv": [0, 10.5, 1.75, 13], "texture": "#0"}
			}
		},
		{
			"from": [7, -11.5, 7.625],
			"to": [7.75, -7.5, 8.375],
			"faces": {
				"north": {"uv": [14, 6.5, 14.75, 7.25], "texture": "#0"},
				"east": {"uv": [14, 6.5, 14.75, 7.25], "texture": "#0"},
				"south": {"uv": [14, 6.5, 14.75, 7.25], "texture": "#0"},
				"west": {"uv": [14, 6.5, 14.75, 7.25], "texture": "#0"},
				"up": {"uv": [14, 6.5, 14.75, 7.25], "texture": "#0"},
				"down": {"uv": [14, 6.5, 14.75, 7.25], "texture": "#0"}
			}
		},
		{
			"from": [8.25, -11.5, 7.625],
			"to": [9, -7.5, 8.375],
			"faces": {
				"north": {"uv": [14, 6.5, 14.75, 7.25], "texture": "#0"},
				"east": {"uv": [14, 6.5, 14.75, 7.25], "texture": "#0"},
				"south": {"uv": [14, 6.5, 14.75, 7.25], "texture": "#0"},
				"west": {"uv": [14, 6.5, 14.75, 7.25], "texture": "#0"},
				"up": {"uv": [14, 6.5, 14.75, 7.25], "texture": "#0"},
				"down": {"uv": [14, 6.5, 14.75, 7.25], "texture": "#0"}
			}
		},
		{
			"from": [7.625, -11.5, 7],
			"to": [8.375, -7.5, 7.75],
			"faces": {
				"north": {"uv": [14, 6.5, 14.75, 7.25], "texture": "#0"},
				"east": {"uv": [14, 6.5, 14.75, 7.25], "texture": "#0"},
				"south": {"uv": [14, 6.5, 14.75, 7.25], "texture": "#0"},
				"west": {"uv": [14, 6.5, 14.75, 7.25], "texture": "#0"},
				"up": {"uv": [14, 6.5, 14.75, 7.25], "texture": "#0"},
				"down": {"uv": [14, 6.5, 14.75, 7.25], "texture": "#0"}
			}
		},
		{
			"from": [7.625, -11.5, 8.25],
			"to": [8.375, -7.5, 9],
			"faces": {
				"north": {"uv": [14, 6.5, 14.75, 7.25], "texture": "#0"},
				"east": {"uv": [14, 6.5, 14.75, 7.25], "texture": "#0"},
				"south": {"uv": [14, 6.5, 14.75, 7.25], "texture": "#0"},
				"west": {"uv": [14, 6.5, 14.75, 7.25], "texture": "#0"},
				"up": {"uv": [14, 6.5, 14.75, 7.25], "texture": "#0"},
				"down": {"uv": [14, 6.5, 14.75, 7.25], "texture": "#0"}
			}
		},
		{
			"from": [7.15, -7, 7.15],
			"to": [8.85, -6.5, 8.85],
			"faces": {
				"north": {"uv": [1.75, 5.5, 1, 6.25], "texture": "#0"},
				"east": {"uv": [1.75, 5.5, 1, 6.25], "texture": "#0"},
				"south": {"uv": [1.75, 5.5, 1, 6.25], "texture": "#0"},
				"west": {"uv": [1.75, 5.5, 1, 6.25], "texture": "#0"},
				"up": {"uv": [1.75, 5.5, 1, 6.25], "texture": "#0"},
				"down": {"uv": [1.75, 5.5, 1, 6.25], "texture": "#0"}
			}
		},
		{
			"from": [7.15, -5.5, 7.15],
			"to": [8.85, -5, 8.85],
			"faces": {
				"north": {"uv": [1.75, 5.5, 1, 6.25], "texture": "#0"},
				"east": {"uv": [1.75, 5.5, 1, 6.25], "texture": "#0"},
				"south": {"uv": [1.75, 5.5, 1, 6.25], "texture": "#0"},
				"west": {"uv": [1.75, 5.5, 1, 6.25], "texture": "#0"},
				"up": {"uv": [1.75, 5.5, 1, 6.25], "texture": "#0"},
				"down": {"uv": [1.75, 5.5, 1, 6.25], "texture": "#0"}
			}
		},
		{
			"from": [8.25, -3.5, 7.625],
			"to": [9, -2.75, 8.375],
			"faces": {
				"north": {"uv": [14.5, 14.5, 15.25, 15.25], "texture": "#0"},
				"east": {"uv": [14.5, 14.5, 15.25, 15.25], "texture": "#0"},
				"south": {"uv": [14.5, 14.5, 15.25, 15.25], "texture": "#0"},
				"west": {"uv": [14.5, 14.5, 15.25, 15.25], "texture": "#0"},
				"up": {"uv": [14.5, 14.5, 15.25, 15.25], "texture": "#0"},
				"down": {"uv": [14.5, 14.5, 15.25, 15.25], "texture": "#0"}
			}
		},
		{
			"from": [7.25, -2.2, 7.25],
			"to": [8.75, -1.5, 8.75],
			"faces": {
				"north": {"uv": [0, 10.5, 1.75, 13], "texture": "#0"},
				"east": {"uv": [0, 10.5, 1.75, 13], "texture": "#0"},
				"south": {"uv": [0, 10.5, 1.75, 13], "texture": "#0"},
				"west": {"uv": [0, 10.5, 1.75, 13], "texture": "#0"},
				"up": {"uv": [0, 10.5, 1.75, 13], "texture": "#0"},
				"down": {"uv": [0, 10.5, 1.75, 13], "texture": "#0"}
			}
		},
		{
			"from": [7.25, -2.5, 7.25],
			"to": [7.75, -2.2, 8.75],
			"faces": {
				"north": {"uv": [0, 10.5, 1.75, 13], "texture": "#0"},
				"east": {"uv": [0, 10.5, 1.75, 13], "texture": "#0"},
				"south": {"uv": [0, 10.5, 1.75, 13], "texture": "#0"},
				"west": {"uv": [0, 10.5, 1.75, 13], "texture": "#0"},
				"up": {"uv": [0, 10.5, 1.75, 13], "texture": "#0"},
				"down": {"uv": [0, 10.5, 1.75, 13], "texture": "#0"}
			}
		},
		{
			"from": [7.3, -2.5, 7.3],
			"to": [8.7, -1.75, 8.7],
			"faces": {
				"north": {"uv": [14, 6.5, 14.75, 7.25], "texture": "#0"},
				"east": {"uv": [14, 6.5, 14.75, 7.25], "texture": "#0"},
				"south": {"uv": [14, 6.5, 14.75, 7.25], "texture": "#0"},
				"west": {"uv": [14, 6.5, 14.75, 7.25], "texture": "#0"},
				"up": {"uv": [14, 6.5, 14.75, 7.25], "texture": "#0"},
				"down": {"uv": [14, 6.5, 14.75, 7.25], "texture": "#0"}
			}
		},
		{
			"from": [7, -2, 7.625],
			"to": [7.75, -1.25, 8.375],
			"faces": {
				"north": {"uv": [2.75, 6, 2, 6.75], "texture": "#0"},
				"east": {"uv": [2.75, 6, 2, 6.75], "texture": "#0"},
				"south": {"uv": [2.75, 6, 2, 6.75], "texture": "#0"},
				"west": {"uv": [2.75, 6, 2, 6.75], "texture": "#0"},
				"up": {"uv": [2.75, 6, 2, 6.75], "texture": "#0"},
				"down": {"uv": [2.75, 6, 2, 6.75], "texture": "#0"}
			}
		},
		{
			"from": [6.7, -2.875, 7.75],
			"to": [7.2, -2.375, 8.25],
			"faces": {
				"north": {"uv": [15.25, 5, 14.5, 5.75], "texture": "#0"},
				"east": {"uv": [15.25, 5, 14.5, 5.75], "texture": "#0"},
				"south": {"uv": [15.25, 5, 14.5, 5.75], "texture": "#0"},
				"west": {"uv": [15.25, 5, 14.5, 5.75], "texture": "#0"},
				"up": {"uv": [15.25, 5, 14.5, 5.75], "texture": "#0"},
				"down": {"uv": [15.25, 5, 14.5, 5.75], "texture": "#0"}
			}
		},
		{
			"from": [7, -3, 7.625],
			"to": [7.75, -2.25, 8.375],
			"faces": {
				"north": {"uv": [2.75, 5.5, 2, 6.25], "texture": "#0"},
				"east": {"uv": [2.75, 5.5, 2, 6.25], "texture": "#0"},
				"south": {"uv": [2.75, 5.5, 2, 6.25], "texture": "#0"},
				"west": {"uv": [2.75, 5.5, 2, 6.25], "texture": "#0"},
				"up": {"uv": [2.75, 5.5, 2, 6.25], "texture": "#0"},
				"down": {"uv": [2.75, 5.5, 2, 6.25], "texture": "#0"}
			}
		},
		{
			"from": [7.225, -6.5, 7.225],
			"to": [8.775, -5.5, 8.775],
			"faces": {
				"north": {"uv": [11.5, 0, 16, 4.5], "texture": "#0"},
				"east": {"uv": [11.5, 0, 16, 4.5], "texture": "#0"},
				"south": {"uv": [11.5, 0, 16, 4.5], "texture": "#0"},
				"west": {"uv": [11.5, 0, 16, 4.5], "texture": "#0"},
				"up": {"uv": [1, 1.5, 1.75, 2.25], "texture": "#0"},
				"down": {"uv": [1, 1.5, 1.75, 2.25], "texture": "#0"}
			}
		},
		{
			"from": [7.75, -2, 7.75],
			"to": [8.25, 26, 8.25],
			"color": 0,
			"faces": {
				"north": {"uv": [0, 0, 0.5, 16], "texture": "#missing"},
				"east": {"uv": [0, 0, 0.5, 16], "texture": "#missing"},
				"south": {"uv": [0, 0, 0.5, 16], "texture": "#missing"},
				"west": {"uv": [0, 0, 0.5, 16], "texture": "#missing"},
				"up": {"uv": [0, 0, 0.5, 0.5], "texture": "#missing"},
				"down": {"uv": [0, 0, 0.5, 0.5], "texture": "#missing"}
			}
		},
		{
			"from": [6.6, -1.625, 7.65],
			"to": [7.35, -1.275, 8.35],
			"faces": {
				"north": {"uv": [1.25, 10.5, 0.5, 11.25], "texture": "#0"},
				"east": {"uv": [1.25, 10.5, 0.5, 11.25], "texture": "#0"},
				"south": {"uv": [1.25, 10.5, 0.5, 11.25], "texture": "#0"},
				"west": {"uv": [1.25, 10.5, 0.5, 11.25], "texture": "#0"},
				"up": {"uv": [1.25, 10.5, 0.5, 11.25], "texture": "#0"},
				"down": {"uv": [1.25, 10.5, 0.5, 11.25], "texture": "#0"}
			}
		},
		{
			"from": [7.725, -2.6, 7.25],
			"to": [7.975, -2.35, 7.35],
			"faces": {
				"north": {"uv": [0, 10.5, 1.75, 13], "texture": "#0"},
				"east": {"uv": [0, 10.5, 1.75, 13], "texture": "#0"},
				"south": {"uv": [0, 10.5, 1.75, 13], "texture": "#0"},
				"west": {"uv": [0, 10.5, 1.75, 13], "texture": "#0"},
				"up": {"uv": [0, 10.5, 1.75, 13], "texture": "#0"},
				"down": {"uv": [0, 10.5, 1.75, 13], "texture": "#0"}
			}
		}
	],
	"display": {
		"thirdperson_righthand": {
			"scale": [0.9, 0.9, 0.9],
			"translation": [0, 12, 1.5]
		},
		"thirdperson_lefthand": {
			"scale": [0.9, 0.9, 0.9],
			"translation": [0, 12, 1.5]
		},
		"firstperson_righthand": {
			"translation": [2.5, 15.5, 0],
			"rotation": [0, 180, 0]
		},
		"firstperson_lefthand": {
			"translation": [2.5, 15.5, 0],
			"rotation": [0, 0, 0]
		},
		"fixed": {
			"translation": [0, 12, 0]
		},
		"gui": {
			"scale": [0.5, 0.5, 0.5],
			"rotation": [0, 0, -45]
		},
		"ground": {
			"translation": [0, -2.5, 0],
			"rotation": [90, 0, 0]
		}
	}
}