{
	"parent": "block/block",
	"textures": {
		"0": "block/dark_oak_planks",
		"2": "block/spruce_planks",
		"3": "block/birch_planks",
		"4": "block/jungle_planks",
		"5": "block/black_concrete",
		"6": "block/concrete_white",
		"particle": "block/dark_oak_planks"
	},
	"elements": [
		{
			"from": [2, 0.75, 2],
			"to": [3.5, 1.25, 3.5],
			"faces": {
				"north": {"uv": [0, 1.5, 1.5, 3], "texture": "#0"},
				"east": {"uv": [0, 1.5, 1.5, 3], "texture": "#0"},
				"south": {"uv": [0, 1.5, 1.5, 3], "texture": "#0"},
				"west": {"uv": [0, 1.5, 1.5, 3], "texture": "#0"},
				"up": {"uv": [7, 8, 9, 10], "rotation": 90, "texture": "#0"},
				"down": {"uv": [0, 1.5, 1.5, 3], "rotation": 270, "texture": "#0"}
			}
		},
		{
			"from": [2, 0.75, 5],
			"to": [3.5, 1.25, 6.5],
			"faces": {
				"north": {"uv": [0, 1.5, 1.5, 3], "texture": "#0"},
				"east": {"uv": [0, 1.5, 1.5, 3], "texture": "#0"},
				"south": {"uv": [0, 1.5, 1.5, 3], "texture": "#0"},
				"west": {"uv": [0, 1.5, 1.5, 3], "texture": "#0"},
				"up": {"uv": [7, 8, 9, 10], "rotation": 90, "texture": "#0"},
				"down": {"uv": [0, 1.5, 1.5, 3], "rotation": 270, "texture": "#0"}
			}
		},
		{
			"from": [2, 0.75, 8],
			"to": [3.5, 1.25, 9.5],
			"faces": {
				"north": {"uv": [0, 1.5, 1.5, 3], "texture": "#0"},
				"east": {"uv": [0, 1.5, 1.5, 3], "texture": "#0"},
				"south": {"uv": [0, 1.5, 1.5, 3], "texture": "#0"},
				"west": {"uv": [0, 1.5, 1.5, 3], "texture": "#0"},
				"up": {"uv": [7, 8, 9, 10], "rotation": 90, "texture": "#0"},
				"down": {"uv": [0, 1.5, 1.5, 3], "rotation": 270, "texture": "#0"}
			}
		},
		{
			"from": [2, 0.75, 11],
			"to": [3.5, 1.25, 12.5],
			"faces": {
				"north": {"uv": [0, 1.5, 1.5, 3], "texture": "#0"},
				"east": {"uv": [0, 1.5, 1.5, 3], "texture": "#0"},
				"south": {"uv": [0, 1.5, 1.5, 3], "texture": "#0"},
				"west": {"uv": [0, 1.5, 1.5, 3], "texture": "#0"},
				"up": {"uv": [7, 8, 9, 10], "rotation": 90, "texture": "#0"},
				"down": {"uv": [0, 1.5, 1.5, 3], "rotation": 270, "texture": "#0"}
			}
		},
		{
			"from": [5, 0.75, 2],
			"to": [6.5, 1.25, 3.5],
			"faces": {
				"north": {"uv": [0, 1.5, 1.5, 3], "texture": "#0"},
				"east": {"uv": [0, 1.5, 1.5, 3], "texture": "#0"},
				"south": {"uv": [0, 1.5, 1.5, 3], "texture": "#0"},
				"west": {"uv": [0, 1.5, 1.5, 3], "texture": "#0"},
				"up": {"uv": [7, 8, 9, 10], "rotation": 90, "texture": "#0"},
				"down": {"uv": [0, 1.5, 1.5, 3], "rotation": 270, "texture": "#0"}
			}
		},
		{
			"from": [5, 0.75, 5],
			"to": [6.5, 1.25, 6.5],
			"faces": {
				"north": {"uv": [0, 1.5, 1.5, 3], "texture": "#0"},
				"east": {"uv": [0, 1.5, 1.5, 3], "texture": "#0"},
				"south": {"uv": [0, 1.5, 1.5, 3], "texture": "#0"},
				"west": {"uv": [0, 1.5, 1.5, 3], "texture": "#0"},
				"up": {"uv": [7, 8, 9, 10], "rotation": 90, "texture": "#0"},
				"down": {"uv": [0, 1.5, 1.5, 3], "rotation": 270, "texture": "#0"}
			}
		},
		{
			"from": [5, 0.75, 8],
			"to": [6.5, 1.25, 9.5],
			"faces": {
				"north": {"uv": [0, 1.5, 1.5, 3], "texture": "#0"},
				"east": {"uv": [0, 1.5, 1.5, 3], "texture": "#0"},
				"south": {"uv": [0, 1.5, 1.5, 3], "texture": "#0"},
				"west": {"uv": [0, 1.5, 1.5, 3], "texture": "#0"},
				"up": {"uv": [7, 8, 9, 10], "rotation": 90, "texture": "#0"},
				"down": {"uv": [0, 1.5, 1.5, 3], "rotation": 270, "texture": "#0"}
			}
		},
		{
			"from": [5, 0.75, 11],
			"to": [6.5, 1.25, 12.5],
			"faces": {
				"north": {"uv": [0, 1.5, 1.5, 3], "texture": "#0"},
				"east": {"uv": [0, 1.5, 1.5, 3], "texture": "#0"},
				"south": {"uv": [0, 1.5, 1.5, 3], "texture": "#0"},
				"west": {"uv": [0, 1.5, 1.5, 3], "texture": "#0"},
				"up": {"uv": [7, 8, 9, 10], "rotation": 90, "texture": "#0"},
				"down": {"uv": [0, 1.5, 1.5, 3], "rotation": 270, "texture": "#0"}
			}
		},
		{
			"from": [8, 0.75, 2],
			"to": [9.5, 1.25, 3.5],
			"faces": {
				"north": {"uv": [0, 1.5, 1.5, 3], "texture": "#0"},
				"east": {"uv": [0, 1.5, 1.5, 3], "texture": "#0"},
				"south": {"uv": [0, 1.5, 1.5, 3], "texture": "#0"},
				"west": {"uv": [0, 1.5, 1.5, 3], "texture": "#0"},
				"up": {"uv": [7, 8, 9, 10], "rotation": 90, "texture": "#0"},
				"down": {"uv": [0, 1.5, 1.5, 3], "rotation": 270, "texture": "#0"}
			}
		},
		{
			"from": [8, 0.75, 5],
			"to": [9.5, 1.25, 6.5],
			"faces": {
				"north": {"uv": [0, 1.5, 1.5, 3], "texture": "#0"},
				"east": {"uv": [0, 1.5, 1.5, 3], "texture": "#0"},
				"south": {"uv": [0, 1.5, 1.5, 3], "texture": "#0"},
				"west": {"uv": [0, 1.5, 1.5, 3], "texture": "#0"},
				"up": {"uv": [7, 8, 9, 10], "rotation": 90, "texture": "#0"},
				"down": {"uv": [0, 1.5, 1.5, 3], "rotation": 270, "texture": "#0"}
			}
		},
		{
			"from": [8, 0.75, 8],
			"to": [9.5, 1.25, 9.5],
			"faces": {
				"north": {"uv": [0, 1.5, 1.5, 3], "texture": "#0"},
				"east": {"uv": [0, 1.5, 1.5, 3], "texture": "#0"},
				"south": {"uv": [0, 1.5, 1.5, 3], "texture": "#0"},
				"west": {"uv": [0, 1.5, 1.5, 3], "texture": "#0"},
				"up": {"uv": [7, 8, 9, 10], "rotation": 90, "texture": "#0"},
				"down": {"uv": [0, 1.5, 1.5, 3], "rotation": 270, "texture": "#0"}
			}
		},
		{
			"from": [8, 0.75, 11],
			"to": [9.5, 1.25, 12.5],
			"faces": {
				"north": {"uv": [0, 1.5, 1.5, 3], "texture": "#0"},
				"east": {"uv": [0, 1.5, 1.5, 3], "texture": "#0"},
				"south": {"uv": [0, 1.5, 1.5, 3], "texture": "#0"},
				"west": {"uv": [0, 1.5, 1.5, 3], "texture": "#0"},
				"up": {"uv": [7, 8, 9, 10], "rotation": 90, "texture": "#0"},
				"down": {"uv": [0, 1.5, 1.5, 3], "rotation": 270, "texture": "#0"}
			}
		},
		{
			"from": [11, 0.75, 2],
			"to": [12.5, 1.25, 3.5],
			"faces": {
				"north": {"uv": [0, 1.5, 1.5, 3], "texture": "#0"},
				"east": {"uv": [0, 1.5, 1.5, 3], "texture": "#0"},
				"south": {"uv": [0, 1.5, 1.5, 3], "texture": "#0"},
				"west": {"uv": [0, 1.5, 1.5, 3], "texture": "#0"},
				"up": {"uv": [7, 8, 9, 10], "rotation": 90, "texture": "#0"},
				"down": {"uv": [0, 1.5, 1.5, 3], "rotation": 270, "texture": "#0"}
			}
		},
		{
			"from": [11, 0.75, 5],
			"to": [12.5, 1.25, 6.5],
			"faces": {
				"north": {"uv": [0, 1.5, 1.5, 3], "texture": "#0"},
				"east": {"uv": [0, 1.5, 1.5, 3], "texture": "#0"},
				"south": {"uv": [0, 1.5, 1.5, 3], "texture": "#0"},
				"west": {"uv": [0, 1.5, 1.5, 3], "texture": "#0"},
				"up": {"uv": [7, 8, 9, 10], "rotation": 90, "texture": "#0"},
				"down": {"uv": [0, 1.5, 1.5, 3], "rotation": 270, "texture": "#0"}
			}
		},
		{
			"from": [11, 0.75, 8],
			"to": [12.5, 1.25, 9.5],
			"faces": {
				"north": {"uv": [0, 1.5, 1.5, 3], "texture": "#0"},
				"east": {"uv": [0, 1.5, 1.5, 3], "texture": "#0"},
				"south": {"uv": [0, 1.5, 1.5, 3], "texture": "#0"},
				"west": {"uv": [0, 1.5, 1.5, 3], "texture": "#0"},
				"up": {"uv": [7, 8, 9, 10], "rotation": 90, "texture": "#0"},
				"down": {"uv": [0, 1.5, 1.5, 3], "rotation": 270, "texture": "#0"}
			}
		},
		{
			"from": [11, 0.75, 11],
			"to": [12.5, 1.25, 12.5],
			"faces": {
				"north": {"uv": [0, 1.5, 1.5, 3], "texture": "#0"},
				"east": {"uv": [0, 1.5, 1.5, 3], "texture": "#0"},
				"south": {"uv": [0, 1.5, 1.5, 3], "texture": "#0"},
				"west": {"uv": [0, 1.5, 1.5, 3], "texture": "#0"},
				"up": {"uv": [7, 8, 9, 10], "rotation": 90, "texture": "#0"},
				"down": {"uv": [0, 1.5, 1.5, 3], "rotation": 270, "texture": "#0"}
			}
		},
		{
			"from": [3.5, 0.75, 3.5],
			"to": [5, 1.25, 5],
			"faces": {
				"north": {"uv": [0, 1.5, 1.5, 3], "texture": "#0"},
				"east": {"uv": [0, 1.5, 1.5, 3], "texture": "#0"},
				"south": {"uv": [0, 1.5, 1.5, 3], "texture": "#0"},
				"west": {"uv": [0, 1.5, 1.5, 3], "texture": "#0"},
				"up": {"uv": [7, 8, 9, 10], "rotation": 90, "texture": "#0"},
				"down": {"uv": [0, 1.5, 1.5, 3], "rotation": 270, "texture": "#0"}
			}
		},
		{
			"from": [6.5, 0.75, 3.5],
			"to": [8, 1.25, 5],
			"faces": {
				"north": {"uv": [0, 1.5, 1.5, 3], "texture": "#0"},
				"east": {"uv": [0, 1.5, 1.5, 3], "texture": "#0"},
				"south": {"uv": [0, 1.5, 1.5, 3], "texture": "#0"},
				"west": {"uv": [0, 1.5, 1.5, 3], "texture": "#0"},
				"up": {"uv": [7, 8, 9, 10], "rotation": 90, "texture": "#0"},
				"down": {"uv": [0, 1.5, 1.5, 3], "rotation": 270, "texture": "#0"}
			}
		},
		{
			"from": [9.5, 0.75, 3.5],
			"to": [11, 1.25, 5],
			"faces": {
				"north": {"uv": [0, 1.5, 1.5, 3], "texture": "#0"},
				"east": {"uv": [0, 1.5, 1.5, 3], "texture": "#0"},
				"south": {"uv": [0, 1.5, 1.5, 3], "texture": "#0"},
				"west": {"uv": [0, 1.5, 1.5, 3], "texture": "#0"},
				"up": {"uv": [7, 8, 9, 10], "rotation": 90, "texture": "#0"},
				"down": {"uv": [0, 1.5, 1.5, 3], "rotation": 270, "texture": "#0"}
			}
		},
		{
			"from": [12.5, 0.75, 3.5],
			"to": [14, 1.25, 5],
			"faces": {
				"north": {"uv": [0, 1.5, 1.5, 3], "texture": "#0"},
				"east": {"uv": [0, 1.5, 1.5, 3], "texture": "#0"},
				"south": {"uv": [0, 1.5, 1.5, 3], "texture": "#0"},
				"west": {"uv": [0, 1.5, 1.5, 3], "texture": "#0"},
				"up": {"uv": [7, 8, 9, 10], "rotation": 90, "texture": "#0"},
				"down": {"uv": [0, 1.5, 1.5, 3], "rotation": 270, "texture": "#0"}
			}
		},
		{
			"from": [3.5, 0.75, 6.5],
			"to": [5, 1.25, 8],
			"faces": {
				"north": {"uv": [0, 1.5, 1.5, 3], "texture": "#0"},
				"east": {"uv": [0, 1.5, 1.5, 3], "texture": "#0"},
				"south": {"uv": [0, 1.5, 1.5, 3], "texture": "#0"},
				"west": {"uv": [0, 1.5, 1.5, 3], "texture": "#0"},
				"up": {"uv": [7, 8, 9, 10], "rotation": 90, "texture": "#0"},
				"down": {"uv": [0, 1.5, 1.5, 3], "rotation": 270, "texture": "#0"}
			}
		},
		{
			"from": [6.5, 0.75, 6.5],
			"to": [8, 1.25, 8],
			"faces": {
				"north": {"uv": [0, 1.5, 1.5, 3], "texture": "#0"},
				"east": {"uv": [0, 1.5, 1.5, 3], "texture": "#0"},
				"south": {"uv": [0, 1.5, 1.5, 3], "texture": "#0"},
				"west": {"uv": [0, 1.5, 1.5, 3], "texture": "#0"},
				"up": {"uv": [7, 8, 9, 10], "rotation": 90, "texture": "#0"},
				"down": {"uv": [0, 1.5, 1.5, 3], "rotation": 270, "texture": "#0"}
			}
		},
		{
			"from": [9.5, 0.75, 6.5],
			"to": [11, 1.25, 8],
			"faces": {
				"north": {"uv": [0, 1.5, 1.5, 3], "texture": "#0"},
				"east": {"uv": [0, 1.5, 1.5, 3], "texture": "#0"},
				"south": {"uv": [0, 1.5, 1.5, 3], "texture": "#0"},
				"west": {"uv": [0, 1.5, 1.5, 3], "texture": "#0"},
				"up": {"uv": [7, 8, 9, 10], "rotation": 90, "texture": "#0"},
				"down": {"uv": [0, 1.5, 1.5, 3], "rotation": 270, "texture": "#0"}
			}
		},
		{
			"from": [12.5, 0.75, 6.5],
			"to": [14, 1.25, 8],
			"faces": {
				"north": {"uv": [0, 1.5, 1.5, 3], "texture": "#0"},
				"east": {"uv": [0, 1.5, 1.5, 3], "texture": "#0"},
				"south": {"uv": [0, 1.5, 1.5, 3], "texture": "#0"},
				"west": {"uv": [0, 1.5, 1.5, 3], "texture": "#0"},
				"up": {"uv": [7, 8, 9, 10], "rotation": 90, "texture": "#0"},
				"down": {"uv": [0, 1.5, 1.5, 3], "rotation": 270, "texture": "#0"}
			}
		},
		{
			"from": [3.5, 0.75, 9.5],
			"to": [5, 1.25, 11],
			"faces": {
				"north": {"uv": [0, 1.5, 1.5, 3], "texture": "#0"},
				"east": {"uv": [0, 1.5, 1.5, 3], "texture": "#0"},
				"south": {"uv": [0, 1.5, 1.5, 3], "texture": "#0"},
				"west": {"uv": [0, 1.5, 1.5, 3], "texture": "#0"},
				"up": {"uv": [7, 8, 9, 10], "rotation": 90, "texture": "#0"},
				"down": {"uv": [0, 1.5, 1.5, 3], "rotation": 270, "texture": "#0"}
			}
		},
		{
			"from": [6.5, 0.75, 9.5],
			"to": [8, 1.25, 11],
			"faces": {
				"north": {"uv": [0, 1.5, 1.5, 3], "texture": "#0"},
				"east": {"uv": [0, 1.5, 1.5, 3], "texture": "#0"},
				"south": {"uv": [0, 1.5, 1.5, 3], "texture": "#0"},
				"west": {"uv": [0, 1.5, 1.5, 3], "texture": "#0"},
				"up": {"uv": [7, 8, 9, 10], "rotation": 90, "texture": "#0"},
				"down": {"uv": [0, 1.5, 1.5, 3], "rotation": 270, "texture": "#0"}
			}
		},
		{
			"from": [9.5, 0.75, 9.5],
			"to": [11, 1.25, 11],
			"faces": {
				"north": {"uv": [0, 1.5, 1.5, 3], "texture": "#0"},
				"east": {"uv": [0, 1.5, 1.5, 3], "texture": "#0"},
				"south": {"uv": [0, 1.5, 1.5, 3], "texture": "#0"},
				"west": {"uv": [0, 1.5, 1.5, 3], "texture": "#0"},
				"up": {"uv": [7, 8, 9, 10], "rotation": 90, "texture": "#0"},
				"down": {"uv": [0, 1.5, 1.5, 3], "rotation": 270, "texture": "#0"}
			}
		},
		{
			"from": [12.5, 0.75, 9.5],
			"to": [14, 1.25, 11],
			"faces": {
				"north": {"uv": [0, 1.5, 1.5, 3], "texture": "#0"},
				"east": {"uv": [0, 1.5, 1.5, 3], "texture": "#0"},
				"south": {"uv": [0, 1.5, 1.5, 3], "texture": "#0"},
				"west": {"uv": [0, 1.5, 1.5, 3], "texture": "#0"},
				"up": {"uv": [7, 8, 9, 10], "rotation": 90, "texture": "#0"},
				"down": {"uv": [0, 1.5, 1.5, 3], "rotation": 270, "texture": "#0"}
			}
		},
		{
			"from": [3.5, 0.75, 12.5],
			"to": [5, 1.25, 14],
			"faces": {
				"north": {"uv": [0, 1.5, 1.5, 3], "texture": "#0"},
				"east": {"uv": [0, 1.5, 1.5, 3], "texture": "#0"},
				"south": {"uv": [0, 1.5, 1.5, 3], "texture": "#0"},
				"west": {"uv": [0, 1.5, 1.5, 3], "texture": "#0"},
				"up": {"uv": [7, 8, 9, 10], "rotation": 90, "texture": "#0"},
				"down": {"uv": [0, 1.5, 1.5, 3], "rotation": 270, "texture": "#0"}
			}
		},
		{
			"from": [6.5, 0.75, 12.5],
			"to": [8, 1.25, 14],
			"faces": {
				"north": {"uv": [0, 1.5, 1.5, 3], "texture": "#0"},
				"east": {"uv": [0, 1.5, 1.5, 3], "texture": "#0"},
				"south": {"uv": [0, 1.5, 1.5, 3], "texture": "#0"},
				"west": {"uv": [0, 1.5, 1.5, 3], "texture": "#0"},
				"up": {"uv": [7, 8, 9, 10], "rotation": 90, "texture": "#0"},
				"down": {"uv": [0, 1.5, 1.5, 3], "rotation": 270, "texture": "#0"}
			}
		},
		{
			"from": [9.5, 0.75, 12.5],
			"to": [11, 1.25, 14],
			"faces": {
				"north": {"uv": [0, 1.5, 1.5, 3], "texture": "#0"},
				"east": {"uv": [0, 1.5, 1.5, 3], "texture": "#0"},
				"south": {"uv": [0, 1.5, 1.5, 3], "texture": "#0"},
				"west": {"uv": [0, 1.5, 1.5, 3], "texture": "#0"},
				"up": {"uv": [7, 8, 9, 10], "rotation": 90, "texture": "#0"},
				"down": {"uv": [0, 1.5, 1.5, 3], "rotation": 270, "texture": "#0"}
			}
		},
		{
			"from": [12.5, 0.75, 12.5],
			"to": [14, 1.25, 14],
			"faces": {
				"north": {"uv": [0, 1.5, 1.5, 3], "texture": "#0"},
				"east": {"uv": [0, 1.5, 1.5, 3], "texture": "#0"},
				"south": {"uv": [0, 1.5, 1.5, 3], "texture": "#0"},
				"west": {"uv": [0, 1.5, 1.5, 3], "texture": "#0"},
				"up": {"uv": [7, 8, 9, 10], "rotation": 90, "texture": "#0"},
				"down": {"uv": [0, 1.5, 1.5, 3], "rotation": 270, "texture": "#0"}
			}
		},
		{
			"from": [2, 0.75, 3.5],
			"to": [3.5, 1.25, 5],
			"faces": {
				"north": {"uv": [3, 4, 5, 6], "texture": "#3"},
				"east": {"uv": [3, 4, 5, 6], "texture": "#3"},
				"south": {"uv": [3, 4, 5, 6], "texture": "#3"},
				"west": {"uv": [3, 4, 5, 6], "texture": "#3"},
				"up": {"uv": [3, 4, 5, 6], "rotation": 90, "texture": "#3"},
				"down": {"uv": [0, 1.5, 1.5, 3], "rotation": 270, "texture": "#missing"}
			}
		},
		{
			"from": [5, 0.75, 3.5],
			"to": [6.5, 1.25, 5],
			"faces": {
				"north": {"uv": [3, 4, 5, 6], "texture": "#3"},
				"east": {"uv": [3, 4, 5, 6], "texture": "#3"},
				"south": {"uv": [3, 4, 5, 6], "texture": "#3"},
				"west": {"uv": [3, 4, 5, 6], "texture": "#3"},
				"up": {"uv": [3, 4, 5, 6], "rotation": 90, "texture": "#3"},
				"down": {"uv": [0, 1.5, 1.5, 3], "rotation": 270, "texture": "#missing"}
			}
		},
		{
			"from": [8, 0.75, 3.5],
			"to": [9.5, 1.25, 5],
			"faces": {
				"north": {"uv": [3, 4, 5, 6], "texture": "#3"},
				"east": {"uv": [3, 4, 5, 6], "texture": "#3"},
				"south": {"uv": [3, 4, 5, 6], "texture": "#3"},
				"west": {"uv": [3, 4, 5, 6], "texture": "#3"},
				"up": {"uv": [3, 4, 5, 6], "rotation": 90, "texture": "#3"},
				"down": {"uv": [0, 1.5, 1.5, 3], "rotation": 270, "texture": "#missing"}
			}
		},
		{
			"from": [11, 0.75, 3.5],
			"to": [12.5, 1.25, 5],
			"faces": {
				"north": {"uv": [3, 4, 5, 6], "texture": "#3"},
				"east": {"uv": [3, 4, 5, 6], "texture": "#3"},
				"south": {"uv": [3, 4, 5, 6], "texture": "#3"},
				"west": {"uv": [3, 4, 5, 6], "texture": "#3"},
				"up": {"uv": [3, 4, 5, 6], "rotation": 90, "texture": "#3"},
				"down": {"uv": [0, 1.5, 1.5, 3], "rotation": 270, "texture": "#missing"}
			}
		},
		{
			"from": [3.5, 0.75, 2],
			"to": [5, 1.25, 3.5],
			"faces": {
				"north": {"uv": [3, 4, 5, 6], "texture": "#3"},
				"east": {"uv": [3, 4, 5, 6], "texture": "#3"},
				"south": {"uv": [3, 4, 5, 6], "texture": "#3"},
				"west": {"uv": [3, 4, 5, 6], "texture": "#3"},
				"up": {"uv": [3, 4, 5, 6], "rotation": 90, "texture": "#3"},
				"down": {"uv": [0, 1.5, 1.5, 3], "rotation": 270, "texture": "#missing"}
			}
		},
		{
			"from": [6.5, 0.75, 2],
			"to": [8, 1.25, 3.5],
			"faces": {
				"north": {"uv": [3, 4, 5, 6], "texture": "#3"},
				"east": {"uv": [3, 4, 5, 6], "texture": "#3"},
				"south": {"uv": [3, 4, 5, 6], "texture": "#3"},
				"west": {"uv": [3, 4, 5, 6], "texture": "#3"},
				"up": {"uv": [3, 4, 5, 6], "rotation": 90, "texture": "#3"},
				"down": {"uv": [0, 1.5, 1.5, 3], "rotation": 270, "texture": "#missing"}
			}
		},
		{
			"from": [9.5, 0.75, 2],
			"to": [11, 1.25, 3.5],
			"faces": {
				"north": {"uv": [3, 4, 5, 6], "texture": "#3"},
				"east": {"uv": [3, 4, 5, 6], "texture": "#3"},
				"south": {"uv": [3, 4, 5, 6], "texture": "#3"},
				"west": {"uv": [3, 4, 5, 6], "texture": "#3"},
				"up": {"uv": [3, 4, 5, 6], "rotation": 90, "texture": "#3"},
				"down": {"uv": [0, 1.5, 1.5, 3], "rotation": 270, "texture": "#missing"}
			}
		},
		{
			"from": [12.5, 0.75, 2],
			"to": [14, 1.25, 3.5],
			"faces": {
				"north": {"uv": [3, 4, 5, 6], "texture": "#3"},
				"east": {"uv": [3, 4, 5, 6], "texture": "#3"},
				"south": {"uv": [3, 4, 5, 6], "texture": "#3"},
				"west": {"uv": [3, 4, 5, 6], "texture": "#3"},
				"up": {"uv": [3, 4, 5, 6], "rotation": 90, "texture": "#3"},
				"down": {"uv": [0, 1.5, 1.5, 3], "rotation": 270, "texture": "#missing"}
			}
		},
		{
			"from": [11, 0.75, 6.5],
			"to": [12.5, 1.25, 8],
			"faces": {
				"north": {"uv": [3, 4, 5, 6], "texture": "#3"},
				"east": {"uv": [3, 4, 5, 6], "texture": "#3"},
				"south": {"uv": [3, 4, 5, 6], "texture": "#3"},
				"west": {"uv": [3, 4, 5, 6], "texture": "#3"},
				"up": {"uv": [3, 4, 5, 6], "rotation": 90, "texture": "#3"},
				"down": {"uv": [0, 1.5, 1.5, 3], "rotation": 270, "texture": "#missing"}
			}
		},
		{
			"from": [8, 0.75, 6.5],
			"to": [9.5, 1.25, 8],
			"faces": {
				"north": {"uv": [3, 4, 5, 6], "texture": "#3"},
				"east": {"uv": [3, 4, 5, 6], "texture": "#3"},
				"south": {"uv": [3, 4, 5, 6], "texture": "#3"},
				"west": {"uv": [3, 4, 5, 6], "texture": "#3"},
				"up": {"uv": [3, 4, 5, 6], "rotation": 90, "texture": "#3"},
				"down": {"uv": [0, 1.5, 1.5, 3], "rotation": 270, "texture": "#missing"}
			}
		},
		{
			"from": [5, 0.75, 6.5],
			"to": [6.5, 1.25, 8],
			"faces": {
				"north": {"uv": [3, 4, 5, 6], "texture": "#3"},
				"east": {"uv": [3, 4, 5, 6], "texture": "#3"},
				"south": {"uv": [3, 4, 5, 6], "texture": "#3"},
				"west": {"uv": [3, 4, 5, 6], "texture": "#3"},
				"up": {"uv": [3, 4, 5, 6], "rotation": 90, "texture": "#3"},
				"down": {"uv": [0, 1.5, 1.5, 3], "rotation": 270, "texture": "#missing"}
			}
		},
		{
			"from": [2, 0.75, 6.5],
			"to": [3.5, 1.25, 8],
			"faces": {
				"north": {"uv": [3, 4, 5, 6], "texture": "#3"},
				"east": {"uv": [3, 4, 5, 6], "texture": "#3"},
				"south": {"uv": [3, 4, 5, 6], "texture": "#3"},
				"west": {"uv": [3, 4, 5, 6], "texture": "#3"},
				"up": {"uv": [3, 4, 5, 6], "rotation": 90, "texture": "#3"},
				"down": {"uv": [0, 1.5, 1.5, 3], "rotation": 270, "texture": "#missing"}
			}
		},
		{
			"from": [3.5, 0.75, 5],
			"to": [5, 1.25, 6.5],
			"faces": {
				"north": {"uv": [3, 4, 5, 6], "texture": "#3"},
				"east": {"uv": [3, 4, 5, 6], "texture": "#3"},
				"south": {"uv": [3, 4, 5, 6], "texture": "#3"},
				"west": {"uv": [3, 4, 5, 6], "texture": "#3"},
				"up": {"uv": [3, 4, 5, 6], "rotation": 90, "texture": "#3"},
				"down": {"uv": [0, 1.5, 1.5, 3], "rotation": 270, "texture": "#missing"}
			}
		},
		{
			"from": [6.5, 0.75, 5],
			"to": [8, 1.25, 6.5],
			"faces": {
				"north": {"uv": [3, 4, 5, 6], "texture": "#3"},
				"east": {"uv": [3, 4, 5, 6], "texture": "#3"},
				"south": {"uv": [3, 4, 5, 6], "texture": "#3"},
				"west": {"uv": [3, 4, 5, 6], "texture": "#3"},
				"up": {"uv": [3, 4, 5, 6], "rotation": 90, "texture": "#3"},
				"down": {"uv": [0, 1.5, 1.5, 3], "rotation": 270, "texture": "#missing"}
			}
		},
		{
			"from": [9.5, 0.75, 5],
			"to": [11, 1.25, 6.5],
			"faces": {
				"north": {"uv": [3, 4, 5, 6], "texture": "#3"},
				"east": {"uv": [3, 4, 5, 6], "texture": "#3"},
				"south": {"uv": [3, 4, 5, 6], "texture": "#3"},
				"west": {"uv": [3, 4, 5, 6], "texture": "#3"},
				"up": {"uv": [3, 4, 5, 6], "rotation": 90, "texture": "#3"},
				"down": {"uv": [0, 1.5, 1.5, 3], "rotation": 270, "texture": "#missing"}
			}
		},
		{
			"from": [12.5, 0.75, 5],
			"to": [14, 1.25, 6.5],
			"faces": {
				"north": {"uv": [3, 4, 5, 6], "texture": "#3"},
				"east": {"uv": [3, 4, 5, 6], "texture": "#3"},
				"south": {"uv": [3, 4, 5, 6], "texture": "#3"},
				"west": {"uv": [3, 4, 5, 6], "texture": "#3"},
				"up": {"uv": [3, 4, 5, 6], "rotation": 90, "texture": "#3"},
				"down": {"uv": [0, 1.5, 1.5, 3], "rotation": 270, "texture": "#missing"}
			}
		},
		{
			"from": [11, 0.75, 9.5],
			"to": [12.5, 1.25, 11],
			"faces": {
				"north": {"uv": [3, 4, 5, 6], "texture": "#3"},
				"east": {"uv": [3, 4, 5, 6], "texture": "#3"},
				"south": {"uv": [3, 4, 5, 6], "texture": "#3"},
				"west": {"uv": [3, 4, 5, 6], "texture": "#3"},
				"up": {"uv": [3, 4, 5, 6], "rotation": 90, "texture": "#3"},
				"down": {"uv": [0, 1.5, 1.5, 3], "rotation": 270, "texture": "#missing"}
			}
		},
		{
			"from": [8, 0.75, 9.5],
			"to": [9.5, 1.25, 11],
			"faces": {
				"north": {"uv": [3, 4, 5, 6], "texture": "#3"},
				"east": {"uv": [3, 4, 5, 6], "texture": "#3"},
				"south": {"uv": [3, 4, 5, 6], "texture": "#3"},
				"west": {"uv": [3, 4, 5, 6], "texture": "#3"},
				"up": {"uv": [3, 4, 5, 6], "rotation": 90, "texture": "#3"},
				"down": {"uv": [0, 1.5, 1.5, 3], "rotation": 270, "texture": "#missing"}
			}
		},
		{
			"from": [5, 0.75, 9.5],
			"to": [6.5, 1.25, 11],
			"faces": {
				"north": {"uv": [3, 4, 5, 6], "texture": "#3"},
				"east": {"uv": [3, 4, 5, 6], "texture": "#3"},
				"south": {"uv": [3, 4, 5, 6], "texture": "#3"},
				"west": {"uv": [3, 4, 5, 6], "texture": "#3"},
				"up": {"uv": [3, 4, 5, 6], "rotation": 90, "texture": "#3"},
				"down": {"uv": [0, 1.5, 1.5, 3], "rotation": 270, "texture": "#missing"}
			}
		},
		{
			"from": [2, 0.75, 9.5],
			"to": [3.5, 1.25, 11],
			"faces": {
				"north": {"uv": [3, 4, 5, 6], "texture": "#3"},
				"east": {"uv": [3, 4, 5, 6], "texture": "#3"},
				"south": {"uv": [3, 4, 5, 6], "texture": "#3"},
				"west": {"uv": [3, 4, 5, 6], "texture": "#3"},
				"up": {"uv": [3, 4, 5, 6], "rotation": 90, "texture": "#3"},
				"down": {"uv": [0, 1.5, 1.5, 3], "rotation": 270, "texture": "#missing"}
			}
		},
		{
			"from": [3.5, 0.75, 8],
			"to": [5, 1.25, 9.5],
			"faces": {
				"north": {"uv": [3, 4, 5, 6], "texture": "#3"},
				"east": {"uv": [3, 4, 5, 6], "texture": "#3"},
				"south": {"uv": [3, 4, 5, 6], "texture": "#3"},
				"west": {"uv": [3, 4, 5, 6], "texture": "#3"},
				"up": {"uv": [3, 4, 5, 6], "rotation": 90, "texture": "#3"},
				"down": {"uv": [0, 1.5, 1.5, 3], "rotation": 270, "texture": "#missing"}
			}
		},
		{
			"from": [6.5, 0.75, 8],
			"to": [8, 1.25, 9.5],
			"faces": {
				"north": {"uv": [3, 4, 5, 6], "texture": "#3"},
				"east": {"uv": [3, 4, 5, 6], "texture": "#3"},
				"south": {"uv": [3, 4, 5, 6], "texture": "#3"},
				"west": {"uv": [3, 4, 5, 6], "texture": "#3"},
				"up": {"uv": [3, 4, 5, 6], "rotation": 90, "texture": "#3"},
				"down": {"uv": [0, 1.5, 1.5, 3], "rotation": 270, "texture": "#missing"}
			}
		},
		{
			"from": [9.5, 0.75, 8],
			"to": [11, 1.25, 9.5],
			"faces": {
				"north": {"uv": [3, 4, 5, 6], "texture": "#3"},
				"east": {"uv": [3, 4, 5, 6], "texture": "#3"},
				"south": {"uv": [3, 4, 5, 6], "texture": "#3"},
				"west": {"uv": [3, 4, 5, 6], "texture": "#3"},
				"up": {"uv": [3, 4, 5, 6], "rotation": 90, "texture": "#3"},
				"down": {"uv": [0, 1.5, 1.5, 3], "rotation": 270, "texture": "#missing"}
			}
		},
		{
			"from": [12.5, 0.75, 8],
			"to": [14, 1.25, 9.5],
			"faces": {
				"north": {"uv": [3, 4, 5, 6], "texture": "#3"},
				"east": {"uv": [3, 4, 5, 6], "texture": "#3"},
				"south": {"uv": [3, 4, 5, 6], "texture": "#3"},
				"west": {"uv": [3, 4, 5, 6], "texture": "#3"},
				"up": {"uv": [3, 4, 5, 6], "rotation": 90, "texture": "#3"},
				"down": {"uv": [0, 1.5, 1.5, 3], "rotation": 270, "texture": "#missing"}
			}
		},
		{
			"from": [11, 0.75, 12.5],
			"to": [12.5, 1.25, 14],
			"faces": {
				"north": {"uv": [3, 4, 5, 6], "texture": "#3"},
				"east": {"uv": [3, 4, 5, 6], "texture": "#3"},
				"south": {"uv": [3, 4, 5, 6], "texture": "#3"},
				"west": {"uv": [3, 4, 5, 6], "texture": "#3"},
				"up": {"uv": [3, 4, 5, 6], "rotation": 90, "texture": "#3"},
				"down": {"uv": [0, 1.5, 1.5, 3], "rotation": 270, "texture": "#missing"}
			}
		},
		{
			"from": [8, 0.75, 12.5],
			"to": [9.5, 1.25, 14],
			"faces": {
				"north": {"uv": [3, 4, 5, 6], "texture": "#3"},
				"east": {"uv": [3, 4, 5, 6], "texture": "#3"},
				"south": {"uv": [3, 4, 5, 6], "texture": "#3"},
				"west": {"uv": [3, 4, 5, 6], "texture": "#3"},
				"up": {"uv": [3, 4, 5, 6], "rotation": 90, "texture": "#3"},
				"down": {"uv": [0, 1.5, 1.5, 3], "rotation": 270, "texture": "#missing"}
			}
		},
		{
			"from": [5, 0.75, 12.5],
			"to": [6.5, 1.25, 14],
			"faces": {
				"north": {"uv": [3, 4, 5, 6], "texture": "#3"},
				"east": {"uv": [3, 4, 5, 6], "texture": "#3"},
				"south": {"uv": [3, 4, 5, 6], "texture": "#3"},
				"west": {"uv": [3, 4, 5, 6], "texture": "#3"},
				"up": {"uv": [3, 4, 5, 6], "rotation": 90, "texture": "#3"},
				"down": {"uv": [0, 1.5, 1.5, 3], "rotation": 270, "texture": "#missing"}
			}
		},
		{
			"from": [2, 0.75, 12.5],
			"to": [3.5, 1.25, 14],
			"faces": {
				"north": {"uv": [3, 4, 5, 6], "texture": "#3"},
				"east": {"uv": [3, 4, 5, 6], "texture": "#3"},
				"south": {"uv": [3, 4, 5, 6], "texture": "#3"},
				"west": {"uv": [3, 4, 5, 6], "texture": "#3"},
				"up": {"uv": [3, 4, 5, 6], "rotation": 90, "texture": "#3"},
				"down": {"uv": [0, 1.5, 1.5, 3], "rotation": 270, "texture": "#missing"}
			}
		},
		{
			"from": [3.5, 0.75, 11],
			"to": [5, 1.25, 12.5],
			"faces": {
				"north": {"uv": [3, 4, 5, 6], "texture": "#3"},
				"east": {"uv": [3, 4, 5, 6], "texture": "#3"},
				"south": {"uv": [3, 4, 5, 6], "texture": "#3"},
				"west": {"uv": [3, 4, 5, 6], "texture": "#3"},
				"up": {"uv": [3, 4, 5, 6], "rotation": 90, "texture": "#3"},
				"down": {"uv": [0, 1.5, 1.5, 3], "rotation": 270, "texture": "#missing"}
			}
		},
		{
			"from": [6.5, 0.75, 11],
			"to": [8, 1.25, 12.5],
			"faces": {
				"north": {"uv": [3, 4, 5, 6], "texture": "#3"},
				"east": {"uv": [3, 4, 5, 6], "texture": "#3"},
				"south": {"uv": [3, 4, 5, 6], "texture": "#3"},
				"west": {"uv": [3, 4, 5, 6], "texture": "#3"},
				"up": {"uv": [3, 4, 5, 6], "rotation": 90, "texture": "#3"},
				"down": {"uv": [0, 1.5, 1.5, 3], "rotation": 270, "texture": "#missing"}
			}
		},
		{
			"from": [9.5, 0.75, 11],
			"to": [11, 1.25, 12.5],
			"faces": {
				"north": {"uv": [3, 4, 5, 6], "texture": "#3"},
				"east": {"uv": [3, 4, 5, 6], "texture": "#3"},
				"south": {"uv": [3, 4, 5, 6], "texture": "#3"},
				"west": {"uv": [3, 4, 5, 6], "texture": "#3"},
				"up": {"uv": [3, 4, 5, 6], "rotation": 90, "texture": "#3"},
				"down": {"uv": [0, 1.5, 1.5, 3], "rotation": 270, "texture": "#missing"}
			}
		},
		{
			"from": [12.5, 0.75, 11],
			"to": [14, 1.25, 12.5],
			"faces": {
				"north": {"uv": [3, 4, 5, 6], "texture": "#3"},
				"east": {"uv": [3, 4, 5, 6], "texture": "#3"},
				"south": {"uv": [3, 4, 5, 6], "texture": "#3"},
				"west": {"uv": [3, 4, 5, 6], "texture": "#3"},
				"up": {"uv": [3, 4, 5, 6], "rotation": 90, "texture": "#3"},
				"down": {"uv": [0, 1.5, 1.5, 3], "rotation": 270, "texture": "#missing"}
			}
		},
		{
			"from": [1.25, 0.8, 1.25],
			"to": [14.75, 1.1, 14.75],
			"faces": {
				"north": {"uv": [1, 6, 15, 6.3], "texture": "#4"},
				"east": {"uv": [1, 6, 15, 6.3], "texture": "#4"},
				"south": {"uv": [1, 6, 15, 6.3], "texture": "#4"},
				"west": {"uv": [1, 6, 15, 6.3], "texture": "#4"},
				"up": {"uv": [1, 1, 15, 15], "rotation": 90, "texture": "#4"},
				"down": {"uv": [1, 1, 15, 15], "rotation": 270, "texture": "#4"}
			}
		},
		{
			"from": [1.125, 0, 1.125],
			"to": [14.875, 0.4, 14.875],
			"faces": {
				"north": {"uv": [1, 2, 15, 2.4], "texture": "#2"},
				"east": {"uv": [1, 2, 15, 2.4], "texture": "#2"},
				"south": {"uv": [1, 2, 15, 2.4], "texture": "#2"},
				"west": {"uv": [1, 2, 15, 2.4], "texture": "#2"},
				"up": {"uv": [1, 1, 15, 15], "rotation": 90, "texture": "#2"},
				"down": {"uv": [1, 1, 15, 15], "rotation": 270, "texture": "#2"}
			}
		},
		{
			"from": [1.375, 0.4, 1.375],
			"to": [14.625, 0.8, 14.625],
			"faces": {
				"north": {"uv": [0, 1, 14, 1.4], "texture": "#4"},
				"east": {"uv": [0, 1, 14, 1.4], "texture": "#4"},
				"south": {"uv": [0, 1, 14, 1.4], "texture": "#4"},
				"west": {"uv": [0, 1, 14, 1.4], "texture": "#4"},
				"up": {"uv": [0, 0, 13.25, 13.25], "rotation": 90, "texture": "#missing"},
				"down": {"uv": [0, 0, 13.25, 13.25], "rotation": 270, "texture": "#missing"}
			}
		},
		{
			"from": [6.875, 1.25, 11.375],
			"to": [7.625, 2.25, 12.125],
			"faces": {
				"north": {"uv": [0, 0, 0.75, 1], "texture": "#6"},
				"east": {"uv": [0, 0, 0.75, 1], "texture": "#6"},
				"south": {"uv": [0, 0, 0.75, 1], "texture": "#6"},
				"west": {"uv": [0, 0, 0.75, 1], "texture": "#6"},
				"up": {"uv": [0, 0, 0.75, 0.75], "rotation": 90, "texture": "#6"},
				"down": {"uv": [0, 0, 0.75, 0.75], "rotation": 270, "texture": "#6"}
			}
		},
		{
			"from": [12.875, 1.25, 11.375],
			"to": [13.625, 2.25, 12.125],
			"faces": {
				"north": {"uv": [0, 0, 0.75, 1], "texture": "#6"},
				"east": {"uv": [0, 0, 0.75, 1], "texture": "#6"},
				"south": {"uv": [0, 0, 0.75, 1], "texture": "#6"},
				"west": {"uv": [0, 0, 0.75, 1], "texture": "#6"},
				"up": {"uv": [0, 0, 0.75, 0.75], "rotation": 90, "texture": "#6"},
				"down": {"uv": [0, 0, 0.75, 0.75], "rotation": 270, "texture": "#6"}
			}
		},
		{
			"from": [8.375, 1.25, 11.375],
			"to": [9.125, 2.25, 12.125],
			"faces": {
				"north": {"uv": [0, 0, 0.75, 1], "texture": "#6"},
				"east": {"uv": [0, 0, 0.75, 1], "texture": "#6"},
				"south": {"uv": [0, 0, 0.75, 1], "texture": "#6"},
				"west": {"uv": [0, 0, 0.75, 1], "texture": "#6"},
				"up": {"uv": [0, 0, 0.75, 0.75], "rotation": 90, "texture": "#6"},
				"down": {"uv": [0, 0, 0.75, 0.75], "rotation": 270, "texture": "#6"}
			}
		},
		{
			"from": [11.375, 1.25, 11.375],
			"to": [12.125, 2.25, 12.125],
			"faces": {
				"north": {"uv": [0, 0, 0.75, 1], "texture": "#6"},
				"east": {"uv": [0, 0, 0.75, 1], "texture": "#6"},
				"south": {"uv": [0, 0, 0.75, 1], "texture": "#6"},
				"west": {"uv": [0, 0, 0.75, 1], "texture": "#6"},
				"up": {"uv": [0, 0, 0.75, 0.75], "rotation": 90, "texture": "#6"},
				"down": {"uv": [0, 0, 0.75, 0.75], "rotation": 270, "texture": "#6"}
			}
		},
		{
			"from": [9.875, 1.25, 11.375],
			"to": [10.625, 2.25, 12.125],
			"faces": {
				"north": {"uv": [0, 0, 0.75, 1], "texture": "#6"},
				"east": {"uv": [0, 0, 0.75, 1], "texture": "#6"},
				"south": {"uv": [0, 0, 0.75, 1], "texture": "#6"},
				"west": {"uv": [0, 0, 0.75, 1], "texture": "#6"},
				"up": {"uv": [0, 0, 0.75, 0.75], "rotation": 90, "texture": "#6"},
				"down": {"uv": [0, 0, 0.75, 0.75], "rotation": 270, "texture": "#6"}
			}
		},
		{
			"from": [3.875, 1.25, 11.375],
			"to": [4.625, 2.25, 12.125],
			"faces": {
				"north": {"uv": [0, 0, 0.75, 1], "texture": "#6"},
				"east": {"uv": [0, 0, 0.75, 1], "texture": "#6"},
				"south": {"uv": [0, 0, 0.75, 1], "texture": "#6"},
				"west": {"uv": [0, 0, 0.75, 1], "texture": "#6"},
				"up": {"uv": [0, 0, 0.75, 0.75], "rotation": 90, "texture": "#6"},
				"down": {"uv": [0, 0, 0.75, 0.75], "rotation": 270, "texture": "#6"}
			}
		},
		{
			"from": [5.375, 1.25, 11.375],
			"to": [6.125, 2.25, 12.125],
			"faces": {
				"north": {"uv": [0, 0, 0.75, 1], "texture": "#6"},
				"east": {"uv": [0, 0, 0.75, 1], "texture": "#6"},
				"south": {"uv": [0, 0, 0.75, 1], "texture": "#6"},
				"west": {"uv": [0, 0, 0.75, 1], "texture": "#6"},
				"up": {"uv": [0, 0, 0.75, 0.75], "rotation": 90, "texture": "#6"},
				"down": {"uv": [0, 0, 0.75, 0.75], "rotation": 270, "texture": "#6"}
			}
		},
		{
			"from": [2.375, 1.25, 11.375],
			"to": [3.125, 2.25, 12.125],
			"faces": {
				"north": {"uv": [0, 0, 0.75, 1], "texture": "#6"},
				"east": {"uv": [0, 0, 0.75, 1], "texture": "#6"},
				"south": {"uv": [0, 0, 0.75, 1], "texture": "#6"},
				"west": {"uv": [0, 0, 0.75, 1], "texture": "#6"},
				"up": {"uv": [0, 0, 0.75, 0.75], "rotation": 90, "texture": "#6"},
				"down": {"uv": [0, 0, 0.75, 0.75], "rotation": 270, "texture": "#6"}
			}
		},
		{
			"from": [12.875, 1.25, 12.875],
			"to": [13.625, 2.35, 13.625],
			"faces": {
				"north": {"uv": [0, 0, 0.75, 1.1], "texture": "#6"},
				"east": {"uv": [0, 0, 0.75, 1.1], "texture": "#6"},
				"south": {"uv": [0, 0, 0.75, 1.1], "texture": "#6"},
				"west": {"uv": [0, 0, 0.75, 1.1], "texture": "#6"},
				"up": {"uv": [0, 0, 0.75, 0.75], "rotation": 90, "texture": "#6"},
				"down": {"uv": [0, 0, 0.75, 0.75], "rotation": 270, "texture": "#6"}
			}
		},
		{
			"from": [6.875, 1.25, 12.875],
			"to": [7.625, 2.75, 13.625],
			"faces": {
				"north": {"uv": [0, 0, 0.75, 1.5], "texture": "#6"},
				"east": {"uv": [0, 0, 0.75, 1.5], "texture": "#6"},
				"south": {"uv": [0, 0, 0.75, 1.5], "texture": "#6"},
				"west": {"uv": [0, 0, 0.75, 1.5], "texture": "#6"},
				"up": {"uv": [0, 0, 0.75, 0.75], "rotation": 90, "texture": "#6"},
				"down": {"uv": [0, 0, 0.75, 0.75], "rotation": 270, "texture": "#6"}
			}
		},
		{
			"from": [2.375, 1.25, 12.875],
			"to": [3.125, 2.35, 13.625],
			"faces": {
				"north": {"uv": [0, 0, 0.75, 1.1], "texture": "#6"},
				"east": {"uv": [0, 0, 0.75, 1.1], "texture": "#6"},
				"south": {"uv": [0, 0, 0.75, 1.1], "texture": "#6"},
				"west": {"uv": [0, 0, 0.75, 1.1], "texture": "#6"},
				"up": {"uv": [0, 0, 0.75, 0.75], "rotation": 90, "texture": "#6"},
				"down": {"uv": [0, 0, 0.75, 0.75], "rotation": 270, "texture": "#6"}
			}
		},
		{
			"from": [3.875, 1.25, 12.875],
			"to": [4.625, 2.45, 13.625],
			"faces": {
				"north": {"uv": [0, 0, 0.75, 1.2], "texture": "#6"},
				"east": {"uv": [0, 0, 0.75, 1.2], "texture": "#6"},
				"south": {"uv": [0, 0, 0.75, 1.2], "texture": "#6"},
				"west": {"uv": [0, 0, 0.75, 1.2], "texture": "#6"},
				"up": {"uv": [0, 0, 0.75, 0.75], "rotation": 90, "texture": "#6"},
				"down": {"uv": [0, 0, 0.75, 0.75], "rotation": 270, "texture": "#6"}
			}
		},
		{
			"from": [5.375, 1.25, 12.875],
			"to": [6.125, 2.55, 13.625],
			"faces": {
				"north": {"uv": [0, 0, 0.75, 1.3], "texture": "#6"},
				"east": {"uv": [0, 0, 0.75, 1.3], "texture": "#6"},
				"south": {"uv": [0, 0, 0.75, 1.3], "texture": "#6"},
				"west": {"uv": [0, 0, 0.75, 1.3], "texture": "#6"},
				"up": {"uv": [0, 0, 0.75, 0.75], "rotation": 90, "texture": "#6"},
				"down": {"uv": [0, 0, 0.75, 0.75], "rotation": 270, "texture": "#6"}
			}
		},
		{
			"from": [8.375, 1.25, 12.875],
			"to": [9.125, 2.75, 13.625],
			"faces": {
				"north": {"uv": [0, 0, 0.75, 1.5], "texture": "#6"},
				"east": {"uv": [0, 0, 0.75, 1.5], "texture": "#6"},
				"south": {"uv": [0, 0, 0.75, 1.5], "texture": "#6"},
				"west": {"uv": [0, 0, 0.75, 1.5], "texture": "#6"},
				"up": {"uv": [0, 0, 0.75, 0.75], "rotation": 90, "texture": "#6"},
				"down": {"uv": [0, 0, 0.75, 0.75], "rotation": 270, "texture": "#6"}
			}
		},
		{
			"from": [9.875, 1.25, 12.875],
			"to": [10.625, 2.55, 13.625],
			"faces": {
				"north": {"uv": [0, 0, 0.75, 1.3], "texture": "#6"},
				"east": {"uv": [0, 0, 0.75, 1.3], "texture": "#6"},
				"south": {"uv": [0, 0, 0.75, 1.3], "texture": "#6"},
				"west": {"uv": [0, 0, 0.75, 1.3], "texture": "#6"},
				"up": {"uv": [0, 0, 0.75, 0.75], "rotation": 90, "texture": "#6"},
				"down": {"uv": [0, 0, 0.75, 0.75], "rotation": 270, "texture": "#6"}
			}
		},
		{
			"from": [11.375, 1.25, 12.875],
			"to": [12.125, 2.45, 13.625],
			"faces": {
				"north": {"uv": [0, 0, 0.75, 1.2], "texture": "#6"},
				"east": {"uv": [0, 0, 0.75, 1.2], "texture": "#6"},
				"south": {"uv": [0, 0, 0.75, 1.2], "texture": "#6"},
				"west": {"uv": [0, 0, 0.75, 1.2], "texture": "#6"},
				"up": {"uv": [0, 0, 0.75, 0.75], "rotation": 90, "texture": "#6"},
				"down": {"uv": [0, 0, 0.75, 0.75], "rotation": 270, "texture": "#6"}
			}
		},
		{
			"from": [11.375, 1.25, 2.375],
			"to": [12.125, 2.45, 3.125],
			"faces": {
				"north": {"uv": [0.75, 0, 0, 1.2], "texture": "#5"},
				"east": {"uv": [0.75, 0, 0, 1], "texture": "#5"},
				"south": {"uv": [0.75, 0, 0, 1], "texture": "#5"},
				"west": {"uv": [0.75, 0, 0, 1], "texture": "#5"},
				"up": {"uv": [0.75, 0, 0, 1], "rotation": 90, "texture": "#5"},
				"down": {"uv": [0.75, 0, 0, 1], "rotation": 270, "texture": "#5"}
			}
		},
		{
			"from": [9.875, 1.25, 2.375],
			"to": [10.625, 2.55, 3.125],
			"faces": {
				"north": {"uv": [0.75, 0, 0, 1.3], "texture": "#5"},
				"east": {"uv": [0.75, 0, 0, 1], "texture": "#5"},
				"south": {"uv": [0.75, 0, 0, 1], "texture": "#5"},
				"west": {"uv": [0.75, 0, 0, 1], "texture": "#5"},
				"up": {"uv": [0.75, 0, 0, 1], "rotation": 90, "texture": "#5"},
				"down": {"uv": [0.75, 0, 0, 1], "rotation": 270, "texture": "#5"}
			}
		},
		{
			"from": [8.375, 1.25, 2.375],
			"to": [9.125, 2.75, 3.125],
			"faces": {
				"north": {"uv": [0.75, 0, 0, 1.5], "texture": "#5"},
				"east": {"uv": [0.75, 0, 0, 1], "texture": "#5"},
				"south": {"uv": [0.75, 0, 0, 1], "texture": "#5"},
				"west": {"uv": [0.75, 0, 0, 1], "texture": "#5"},
				"up": {"uv": [0.75, 0, 0, 1], "rotation": 90, "texture": "#5"},
				"down": {"uv": [0.75, 0, 0, 1], "rotation": 270, "texture": "#5"}
			}
		},
		{
			"from": [5.375, 1.25, 2.375],
			"to": [6.125, 2.55, 3.125],
			"faces": {
				"north": {"uv": [0.75, 0, 0, 1.3], "texture": "#5"},
				"east": {"uv": [0.75, 0, 0, 1], "texture": "#5"},
				"south": {"uv": [0.75, 0, 0, 1], "texture": "#5"},
				"west": {"uv": [0.75, 0, 0, 1], "texture": "#5"},
				"up": {"uv": [0.75, 0, 0, 1], "rotation": 90, "texture": "#5"},
				"down": {"uv": [0.75, 0, 0, 1], "rotation": 270, "texture": "#5"}
			}
		},
		{
			"from": [3.875, 1.25, 2.375],
			"to": [4.625, 2.45, 3.125],
			"faces": {
				"north": {"uv": [0.75, 0, 0, 1.2], "texture": "#5"},
				"east": {"uv": [0.75, 0, 0, 1], "texture": "#5"},
				"south": {"uv": [0.75, 0, 0, 1], "texture": "#5"},
				"west": {"uv": [0.75, 0, 0, 1], "texture": "#5"},
				"up": {"uv": [0.75, 0, 0, 1], "rotation": 90, "texture": "#5"},
				"down": {"uv": [0.75, 0, 0, 1], "rotation": 270, "texture": "#5"}
			}
		},
		{
			"from": [2.375, 1.25, 2.375],
			"to": [3.125, 2.35, 3.125],
			"faces": {
				"north": {"uv": [0.75, 0, 0, 1.1], "texture": "#5"},
				"east": {"uv": [0.75, 0, 0, 1], "texture": "#5"},
				"south": {"uv": [0.75, 0, 0, 1], "texture": "#5"},
				"west": {"uv": [0.75, 0, 0, 1], "texture": "#5"},
				"up": {"uv": [0.75, 0, 0, 1], "rotation": 90, "texture": "#5"},
				"down": {"uv": [0.75, 0, 0, 1], "rotation": 270, "texture": "#5"}
			}
		},
		{
			"from": [6.875, 1.25, 2.375],
			"to": [7.625, 2.75, 3.125],
			"faces": {
				"north": {"uv": [0.75, 0, 0, 1.5], "texture": "#5"},
				"east": {"uv": [0.75, 0, 0, 1], "texture": "#5"},
				"south": {"uv": [0.75, 0, 0, 1], "texture": "#5"},
				"west": {"uv": [0.75, 0, 0, 1], "texture": "#5"},
				"up": {"uv": [0.75, 0, 0, 1], "rotation": 90, "texture": "#5"},
				"down": {"uv": [0.75, 0, 0, 1], "rotation": 270, "texture": "#5"}
			}
		},
		{
			"from": [12.875, 1.25, 2.375],
			"to": [13.625, 2.35, 3.125],
			"faces": {
				"north": {"uv": [0.75, 0, 0, 1.1], "texture": "#5"},
				"east": {"uv": [0.75, 0, 0, 1], "texture": "#5"},
				"south": {"uv": [0.75, 0, 0, 1], "texture": "#5"},
				"west": {"uv": [0.75, 0, 0, 1], "texture": "#5"},
				"up": {"uv": [0.75, 0, 0, 1], "rotation": 90, "texture": "#5"},
				"down": {"uv": [0.75, 0, 0, 1], "rotation": 270, "texture": "#5"}
			}
		},
		{
			"from": [2.375, 1.25, 3.875],
			"to": [3.125, 2.25, 4.625],
			"faces": {
				"north": {"uv": [0.75, 0, 0, 1], "texture": "#5"},
				"east": {"uv": [0.75, 0, 0, 1], "texture": "#5"},
				"south": {"uv": [0.75, 0, 0, 1], "texture": "#5"},
				"west": {"uv": [0.75, 0, 0, 1], "texture": "#5"},
				"up": {"uv": [0.75, 0, 0, 1], "rotation": 90, "texture": "#5"},
				"down": {"uv": [0.75, 0, 0, 1], "rotation": 270, "texture": "#5"}
			}
		},
		{
			"from": [5.375, 1.25, 3.875],
			"to": [6.125, 2.25, 4.625],
			"faces": {
				"north": {"uv": [0.75, 0, 0, 1], "texture": "#5"},
				"east": {"uv": [0.75, 0, 0, 1], "texture": "#5"},
				"south": {"uv": [0.75, 0, 0, 1], "texture": "#5"},
				"west": {"uv": [0.75, 0, 0, 1], "texture": "#5"},
				"up": {"uv": [0.75, 0, 0, 1], "rotation": 90, "texture": "#5"},
				"down": {"uv": [0.75, 0, 0, 1], "rotation": 270, "texture": "#5"}
			}
		},
		{
			"from": [3.875, 1.25, 3.875],
			"to": [4.625, 2.25, 4.625],
			"faces": {
				"north": {"uv": [0.75, 0, 0, 1], "texture": "#5"},
				"east": {"uv": [0.75, 0, 0, 1], "texture": "#5"},
				"south": {"uv": [0.75, 0, 0, 1], "texture": "#5"},
				"west": {"uv": [0.75, 0, 0, 1], "texture": "#5"},
				"up": {"uv": [0.75, 0, 0, 1], "rotation": 90, "texture": "#5"},
				"down": {"uv": [0.75, 0, 0, 1], "rotation": 270, "texture": "#5"}
			}
		},
		{
			"from": [9.875, 1.25, 3.875],
			"to": [10.625, 2.25, 4.625],
			"faces": {
				"north": {"uv": [0.75, 0, 0, 1], "texture": "#5"},
				"east": {"uv": [0.75, 0, 0, 1], "texture": "#5"},
				"south": {"uv": [0.75, 0, 0, 1], "texture": "#5"},
				"west": {"uv": [0.75, 0, 0, 1], "texture": "#5"},
				"up": {"uv": [0.75, 0, 0, 1], "rotation": 90, "texture": "#5"},
				"down": {"uv": [0.75, 0, 0, 1], "rotation": 270, "texture": "#5"}
			}
		},
		{
			"from": [11.375, 1.25, 3.875],
			"to": [12.125, 2.25, 4.625],
			"faces": {
				"north": {"uv": [0.75, 0, 0, 1], "texture": "#5"},
				"east": {"uv": [0.75, 0, 0, 1], "texture": "#5"},
				"south": {"uv": [0.75, 0, 0, 1], "texture": "#5"},
				"west": {"uv": [0.75, 0, 0, 1], "texture": "#5"},
				"up": {"uv": [0.75, 0, 0, 1], "rotation": 90, "texture": "#5"},
				"down": {"uv": [0.75, 0, 0, 1], "rotation": 270, "texture": "#5"}
			}
		},
		{
			"from": [8.375, 1.25, 3.875],
			"to": [9.125, 2.25, 4.625],
			"faces": {
				"north": {"uv": [0.75, 0, 0, 1], "texture": "#5"},
				"east": {"uv": [0.75, 0, 0, 1], "texture": "#5"},
				"south": {"uv": [0.75, 0, 0, 1], "texture": "#5"},
				"west": {"uv": [0.75, 0, 0, 1], "texture": "#5"},
				"up": {"uv": [0.75, 0, 0, 1], "rotation": 90, "texture": "#5"},
				"down": {"uv": [0.75, 0, 0, 1], "rotation": 270, "texture": "#5"}
			}
		},
		{
			"from": [12.875, 1.25, 3.875],
			"to": [13.625, 2.25, 4.625],
			"faces": {
				"north": {"uv": [0.75, 0, 0, 1], "texture": "#5"},
				"east": {"uv": [0.75, 0, 0, 1], "texture": "#5"},
				"south": {"uv": [0.75, 0, 0, 1], "texture": "#5"},
				"west": {"uv": [0.75, 0, 0, 1], "texture": "#5"},
				"up": {"uv": [0.75, 0, 0, 1], "rotation": 90, "texture": "#5"},
				"down": {"uv": [0.75, 0, 0, 1], "rotation": 270, "texture": "#5"}
			}
		},
		{
			"from": [6.875, 1.25, 3.875],
			"to": [7.625, 2.25, 4.625],
			"faces": {
				"north": {"uv": [0.75, 0, 0, 1], "texture": "#5"},
				"east": {"uv": [0.75, 0, 0, 1], "texture": "#5"},
				"south": {"uv": [0.75, 0, 0, 1], "texture": "#5"},
				"west": {"uv": [0.75, 0, 0, 1], "texture": "#5"},
				"up": {"uv": [0.75, 0, 0, 1], "rotation": 90, "texture": "#5"},
				"down": {"uv": [0.75, 0, 0, 1], "rotation": 270, "texture": "#5"}
			}
		}
	],
	"display": {
		"fixed": {
			"scale": [2, 2.2, 2],
			"translation": [0, 0, -16.5],
			"rotation": [-90, 0, 0]
		}
	}
}