{
	"__comment": "Designed by CreatorLabs with Cubik Studio - https://cubik.studio - Download 3D CreatorCraft at https://www.planetminecraft.com/texture_pack/3d-creatorcraft/",
	"parent": "item/parents/crossbows",
	"elements": [ 	 
		{
			"__comment": "wood",
			"from": [ 0, 7.5, 7.5 ],
			"to": [ 14, 8, 8.5 ],
			"faces": {
				"down": { "uv": [ 0, 7.5, 14, 8.5 ], "texture": "#wood" },
				"up": { "uv": [ 0, 7.5, 14, 8.5 ], "texture": "#wood" },
				"north": { "uv": [ 2, 8, 16, 8.5 ], "texture": "#wood" },
				"south": { "uv": [ 0, 8, 14, 8.5 ], "texture": "#wood" },
				"west": { "uv": [ 7.5, 8, 8.5, 8.5 ], "texture": "#wood" },
				"east": { "uv": [ 7.5, 8, 8.5, 8.5 ], "texture": "#wood" }
			}
		},
		{
			"__comment": "wood1",
			"from": [ 0, 8.5, 7.5 ],
			"to": [ 2.5, 9, 8.5 ],
			"faces": {
				"down": { "uv": [ 0, 7.5, 2.5, 8.5 ], "texture": "#wood" },
				"up": { "uv": [ 0, 7.5, 2.5, 8.5 ], "texture": "#wood" },
				"north": { "uv": [ 13.5, 7, 16, 7.5 ], "texture": "#wood" },
				"south": { "uv": [ 0, 7, 2.5, 7.5 ], "texture": "#wood" },
				"west": { "uv": [ 7.5, 7, 8.5, 7.5 ], "texture": "#wood" },
				"east": { "uv": [ 7.5, 7, 8.5, 7.5 ], "texture": "#wood" }
			}
		},
		{
			"__comment": "back",
			"from": [ 0.5, 6.5, 7.5 ],
			"to": [ 1, 7.5, 8.5 ],
			"faces": {
				"down": { "uv": [ 0.5, 7.5, 1, 8.5 ], "texture": "#iron" },
				"north": { "uv": [ 15, 8.5, 15.5, 9.5 ], "texture": "#iron" },
				"south": { "uv": [ 0.5, 8.5, 1, 9.5 ], "texture": "#iron" },
				"west": { "uv": [ 7.5, 8.5, 8.5, 9.5 ], "texture": "#iron" },
				"east": { "uv": [ 7.5, 8.5, 8.5, 9.5 ], "texture": "#iron" }
			}
		},
		{
			"__comment": "wood2",
			"from": [ 0.5, 7.5, 7 ],
			"to": [ 14, 8, 7.5 ],
			"faces": {
				"down": { "uv": [ 0.5, 8.5, 14, 9 ], "texture": "#wood" },
				"up": { "uv": [ 0.5, 7, 14, 7.5 ], "texture": "#wood" },
				"north": { "uv": [ 2, 8, 15.5, 8.5 ], "texture": "#wood" },
				"west": { "uv": [ 7, 8, 7.5, 8.5 ], "texture": "#wood" },
				"east": { "uv": [ 8.5, 8, 9, 8.5 ], "texture": "#wood" }
			}
		},
		{
			"__comment": "wood3",
			"from": [ 0.5, 7.5, 8.5 ],
			"to": [ 14, 8, 9 ],
			"faces": {
				"down": { "uv": [ 0.5, 7, 14, 7.5 ], "texture": "#wood" },
				"up": { "uv": [ 0.5, 8.5, 14, 9 ], "texture": "#wood" },
				"south": { "uv": [ 0.5, 8, 14, 8.5 ], "texture": "#wood" },
				"west": { "uv": [ 8.5, 8, 9, 8.5 ], "texture": "#wood" },
				"east": { "uv": [ 7, 8, 7.5, 8.5 ], "texture": "#wood" }
			}
		},
		{
			"__comment": "wood4",
			"from": [ 0.5, 8, 7.5 ],
			"to": [ 14, 8.5, 8.5 ],
			"faces": {
				"up": { "uv": [ 0.5, 7.5, 14, 8.5 ], "texture": "#wood" },
				"north": { "uv": [ 2, 7.5, 15.5, 8 ], "texture": "#wood" },
				"south": { "uv": [ 0.5, 7.5, 14, 8 ], "texture": "#wood" },
				"west": { "uv": [ 7.5, 7.5, 8.5, 8 ], "texture": "#wood" },
				"east": { "uv": [ 7.5, 7.5, 8.5, 8 ], "texture": "#wood" }
			}
		},
		{
			"__comment": "wood5",
			"from": [ 0.5, 8.5, 7 ],
			"to": [ 13.5, 9, 7.5 ],
			"faces": {
				"down": { "uv": [ 0.5, 8.5, 13.5, 9 ], "texture": "#wood" },
				"up": { "uv": [ 0.5, 7, 13.5, 7.5 ], "texture": "#wood" },
				"north": { "uv": [ 2.5, 7, 15.5, 7.5 ], "texture": "#wood" },
				"south": { "uv": [ 0.5, 7, 13.5, 7.5 ], "texture": "#wood" },
				"west": { "uv": [ 7, 7, 7.5, 7.5 ], "texture": "#wood" },
				"east": { "uv": [ 8.5, 7, 9, 7.5 ], "texture": "#wood" }
			}
		},
		{
			"__comment": "wood6",
			"from": [ 0.5, 8.5, 8.5 ],
			"to": [ 13.5, 9, 9 ],
			"faces": {
				"down": { "uv": [ 0.5, 7, 13.5, 7.5 ], "texture": "#wood" },
				"up": { "uv": [ 0.5, 8.5, 13.5, 9 ], "texture": "#wood" },
				"north": { "uv": [ 2.5, 7, 15.5, 7.5 ], "texture": "#wood" },
				"south": { "uv": [ 0.5, 7, 13.5, 7.5 ], "texture": "#wood" },
				"west": { "uv": [ 8.5, 7, 9, 7.5 ], "texture": "#wood" },
				"east": { "uv": [ 7, 7, 7.5, 7.5 ], "texture": "#wood" }
			}
		},
		{
			"__comment": "back1",
			"from": [ 1, 6, 7.5 ],
			"to": [ 2, 6.5, 8.5 ],
			"faces": {
				"down": { "uv": [ 1, 7.5, 2, 8.5 ], "texture": "#iron" },
				"up": { "uv": [ 1, 7.5, 2, 8.5 ], "texture": "#iron" },
				"north": { "uv": [ 14, 9.5, 15, 10 ], "texture": "#iron" },
				"south": { "uv": [ 1, 9.5, 2, 10 ], "texture": "#iron" },
				"west": { "uv": [ 7.5, 9.5, 8.5, 10 ], "texture": "#iron" },
				"east": { "uv": [ 7.5, 9.5, 8.5, 10 ], "texture": "#iron" }
			}
		},
		{
			"__comment": "back2",
			"from": [ 2, 5.5, 7.5 ],
			"to": [ 3.5, 6, 8.5 ],
			"faces": {
				"down": { "uv": [ 2, 7.5, 3.5, 8.5 ], "texture": "#iron" },
				"up": { "uv": [ 2, 7.5, 3.5, 8.5 ], "texture": "#iron" },
				"north": { "uv": [ 12.5, 10, 14, 10.5 ], "texture": "#iron" },
				"south": { "uv": [ 2, 10, 3.5, 10.5 ], "texture": "#iron" },
				"west": { "uv": [ 7.5, 10, 8.5, 10.5 ], "texture": "#iron" },
				"east": { "uv": [ 7.5, 10, 8.5, 10.5 ], "texture": "#iron" }
			}
		},
		{
			"__comment": "trigger",
			"from": [ 3, 7, 7.5 ],
			"to": [ 3.5, 7.5, 8.5 ],
			"faces": {
				"down": { "uv": [ 3, 7.5, 3.5, 8.5 ], "texture": "#iron" },
				"north": { "uv": [ 12.5, 8.5, 13, 9 ], "texture": "#iron" },
				"south": { "uv": [ 3, 8.5, 3.5, 9 ], "texture": "#iron" },
				"west": { "uv": [ 7.5, 8.5, 8.5, 9 ], "texture": "#iron" },
				"east": { "uv": [ 7.5, 8.5, 8.5, 9 ], "texture": "#iron" }
			}
		},
		{
			"__comment": "back3",
			"from": [ 3.5, 6, 7.5 ],
			"to": [ 4, 7, 8.5 ],
			"faces": {
				"down": { "uv": [ 3.5, 7.5, 4, 8.5 ], "texture": "#iron" },
				"up": { "uv": [ 3.5, 7.5, 4, 8.5 ], "texture": "#iron" },
				"north": { "uv": [ 12, 9, 12.5, 10 ], "texture": "#iron" },
				"south": { "uv": [ 3.5, 9, 4, 10 ], "texture": "#iron" },
				"west": { "uv": [ 7.5, 9, 8.5, 10 ], "texture": "#iron" },
				"east": { "uv": [ 7.5, 9, 8.5, 10 ], "texture": "#iron" }
			}
		},
		{
			"__comment": "trigger1",
			"from": [ 3.5, 8.5, 7.5 ],
			"to": [ 4, 9, 8.5 ],
			"faces": {
				"up": { "uv": [ 3.5, 7.5, 4, 8.5 ], "texture": "#iron" },
				"west": { "uv": [ 7.5, 7, 8.5, 7.5 ], "texture": "#iron" },
				"east": { "uv": [ 7.5, 7, 8.5, 7.5 ], "texture": "#iron" }
			}
		},
		{
			"__comment": "back4",
			"from": [ 4, 7, 7.5 ],
			"to": [ 4.5, 7.5, 8.5 ],
			"faces": {
				"down": { "uv": [ 4, 7.5, 4.5, 8.5 ], "texture": "#iron" },
				"north": { "uv": [ 11.5, 8.5, 12, 9 ], "texture": "#iron" },
				"south": { "uv": [ 4, 8.5, 4.5, 9 ], "texture": "#iron" },
				"west": { "uv": [ 7.5, 8.5, 8.5, 9 ], "texture": "#iron" }
			}
		},
		{
			"__comment": "wood7",
			"from": [ 4, 7.5, 6.5 ],
			"to": [ 14, 8, 7 ],
			"faces": {
				"down": { "uv": [ 4, 9, 14, 9.5 ], "texture": "#wood" },
				"up": { "uv": [ 4, 6.5, 14, 7 ], "texture": "#wood" },
				"north": { "uv": [ 2, 8, 12, 8.5 ], "texture": "#wood" },
				"west": { "uv": [ 6.5, 8, 7, 8.5 ], "texture": "#wood" },
				"east": { "uv": [ 9, 8, 9.5, 8.5 ], "texture": "#wood" }
			}
		},
		{
			"__comment": "wood8",
			"from": [ 4, 7.5, 9 ],
			"to": [ 14, 8, 9.5 ],
			"faces": {
				"down": { "uv": [ 4, 6.5, 14, 7 ], "texture": "#wood" },
				"up": { "uv": [ 4, 9, 14, 9.5 ], "texture": "#wood" },
				"south": { "uv": [ 4, 8, 14, 8.5 ], "texture": "#wood" },
				"west": { "uv": [ 9, 8, 9.5, 8.5 ], "texture": "#wood" },
				"east": { "uv": [ 6.5, 8, 7, 8.5 ], "texture": "#wood" }
			}
		},
		{
			"__comment": "wood9",
			"from": [ 4, 8, 7 ],
			"to": [ 14, 8.5, 7.5 ],
			"faces": {
				"up": { "uv": [ 4, 7, 14, 7.5 ], "texture": "#wood" },
				"north": { "uv": [ 2, 7.5, 12, 8 ], "texture": "#wood" },
				"west": { "uv": [ 7, 7.5, 7.5, 8 ], "texture": "#wood" },
				"east": { "uv": [ 8.5, 7.5, 9, 8 ], "texture": "#wood" }
			}
		},
		{
			"__comment": "wood10",
			"from": [ 4, 8, 8.5 ],
			"to": [ 14, 8.5, 9 ],
			"faces": {
				"up": { "uv": [ 4, 8.5, 14, 9 ], "texture": "#wood" },
				"south": { "uv": [ 4, 7.5, 14, 8 ], "texture": "#wood" },
				"west": { "uv": [ 8.5, 7.5, 9, 8 ], "texture": "#wood" },
				"east": { "uv": [ 7, 7.5, 7.5, 8 ], "texture": "#wood" }
			}
		},
		{
			"__comment": "wood11",
			"from": [ 4, 8.5, 6.5 ],
			"to": [ 14, 9, 7 ],
			"faces": {
				"down": { "uv": [ 4, 9, 14, 9.5 ], "texture": "#wood" },
				"up": { "uv": [ 4, 6.5, 14, 7 ], "texture": "#wood" },
				"north": { "uv": [ 2, 7, 12, 7.5 ], "texture": "#wood" },
				"south": { "uv": [ 4, 7, 14, 7.5 ], "texture": "#wood" },
				"west": { "uv": [ 6.5, 7, 7, 7.5 ], "texture": "#wood" },
				"east": { "uv": [ 9, 7, 9.5, 7.5 ], "texture": "#wood" }
			}
		},
		{
			"__comment": "wood12",
			"from": [ 4, 8.5, 9 ],
			"to": [ 14, 9, 9.5 ],
			"faces": {
				"down": { "uv": [ 4, 6.5, 14, 7 ], "texture": "#wood" },
				"up": { "uv": [ 4, 9, 14, 9.5 ], "texture": "#wood" },
				"north": { "uv": [ 2, 7, 12, 7.5 ], "texture": "#wood" },
				"south": { "uv": [ 4, 7, 14, 7.5 ], "texture": "#wood" },
				"west": { "uv": [ 9, 7, 9.5, 7.5 ], "texture": "#wood" },
				"east": { "uv": [ 6.5, 7, 7, 7.5 ], "texture": "#wood" }
			}
		},
		{
			"__comment": "handle",
			"from": [ 4.5, 7, 7 ],
			"to": [ 5.5, 7.5, 9 ],
			"faces": {
				"down": { "uv": [ 4.5, 7, 5.5, 9 ], "texture": "#iron" },
				"up": { "uv": [ 4.5, 7, 5.5, 9 ], "texture": "#iron" },
				"north": { "uv": [ 10.5, 8.5, 11.5, 9 ], "texture": "#iron" },
				"south": { "uv": [ 4.5, 8.5, 5.5, 9 ], "texture": "#iron" },
				"west": { "uv": [ 7, 8.5, 9, 9 ], "texture": "#iron" },
				"east": { "uv": [ 7, 8.5, 9, 9 ], "texture": "#iron" }
			}
		},
		{
			"__comment": "handle1",
			"from": [ 5.5, 6.5, 7 ],
			"to": [ 8, 7, 9 ],
			"faces": {
				"down": { "uv": [ 5.5, 7, 8, 9 ], "texture": "#iron" },
				"up": { "uv": [ 5.5, 7, 8, 9 ], "texture": "#iron" },
				"north": { "uv": [ 8, 9, 10.5, 9.5 ], "texture": "#iron" },
				"south": { "uv": [ 5.5, 9, 8, 9.5 ], "texture": "#iron" },
				"west": { "uv": [ 7, 9, 9, 9.5 ], "texture": "#iron" },
				"east": { "uv": [ 7, 9, 9, 9.5 ], "texture": "#iron" }
			}
		},
		{
			"__comment": "handle2",
			"from": [ 5.5, 7, 7.5 ],
			"to": [ 12, 7.5, 8.5 ],
			"faces": {
				"down": { "uv": [ 5.5, 7.5, 12, 8.5 ], "texture": "#iron" },
				"north": { "uv": [ 4, 8.5, 10.5, 9 ], "texture": "#iron" },
				"south": { "uv": [ 5.5, 8.5, 12, 9 ], "texture": "#iron" }
			}
		},
		{
			"__comment": "mover",
			"from": [ 7, 8.5, 7.5 ],
			"to": [ 8, 9, 8.5 ],
			"faces": {
				"up": { "uv": [ 7, 7.5, 8, 8.5 ], "texture": "#iron" },
				"west": { "uv": [ 7.5, 7, 8.5, 7.5 ], "texture": "#iron" },
				"east": { "uv": [ 7.5, 7, 8.5, 7.5 ], "texture": "#iron" }
			}
		},
		{
			"__comment": "string",
			"from": [ 7.5, 9, 6.5 ],
			"to": [ 8, 9.5, 9.5 ],
			"faces": {
				"down": { "uv": [ 7.5, 6.5, 8, 9.5 ], "texture": "#string" },
				"up": { "uv": [ 7.5, 6.5, 8, 9.5 ], "texture": "#string" },
				"north": { "uv": [ 8, 6.5, 8.5, 7 ], "texture": "#string" },
				"south": { "uv": [ 7.5, 6.5, 8, 7 ], "texture": "#string" },
				"west": { "uv": [ 6.5, 6.5, 9.5, 7 ], "texture": "#string" },
				"east": { "uv": [ 6.5, 6.5, 9.5, 7 ], "texture": "#string" }
			}
		},
		{
			"__comment": "handle3",
			"from": [ 8, 6, 7 ],
			"to": [ 10.5, 6.5, 9 ],
			"faces": {
				"down": { "uv": [ 8, 7, 10.5, 9 ], "texture": "#iron" },
				"up": { "uv": [ 8, 7, 10.5, 9 ], "texture": "#iron" },
				"north": { "uv": [ 5.5, 9.5, 8, 10 ], "texture": "#iron" },
				"south": { "uv": [ 8, 9.5, 10.5, 10 ], "texture": "#iron" },
				"west": { "uv": [ 7, 9.5, 9, 10 ], "texture": "#iron" },
				"east": { "uv": [ 7, 9.5, 9, 10 ], "texture": "#iron" }
			}
		},
		{
			"__comment": "handle4",
			"from": [ 8, 6.5, 7.5 ],
			"to": [ 11.5, 7, 8.5 ],
			"faces": {
				"down": { "uv": [ 8, 7.5, 11.5, 8.5 ], "texture": "#iron" },
				"north": { "uv": [ 4.5, 9, 8, 9.5 ], "texture": "#iron" },
				"south": { "uv": [ 8, 9, 11.5, 9.5 ], "texture": "#iron" },
				"east": { "uv": [ 7.5, 9, 8.5, 9.5 ], "texture": "#iron" }
			}
		},
		{
			"__comment": "string1",
			"from": [ 8, 9, 5 ],
			"to": [ 8.5, 9.5, 6.5 ],
			"faces": {
				"down": { "uv": [ 8, 9.5, 8.5, 11 ], "texture": "#string" },
				"up": { "uv": [ 8, 5, 8.5, 6.5 ], "texture": "#string" },
				"north": { "uv": [ 7.5, 6.5, 8, 7 ], "texture": "#string" },
				"south": { "uv": [ 8, 6.5, 8.5, 7 ], "texture": "#string" },
				"west": { "uv": [ 5, 6.5, 6.5, 7 ], "texture": "#string" },
				"east": { "uv": [ 9.5, 6.5, 11, 7 ], "texture": "#string" }
			}
		},
		{
			"__comment": "string2",
			"from": [ 8, 9, 9.5 ],
			"to": [ 8.5, 9.5, 11 ],
			"faces": {
				"down": { "uv": [ 8, 5, 8.5, 6.5 ], "texture": "#string" },
				"up": { "uv": [ 8, 9.5, 8.5, 11 ], "texture": "#string" },
				"north": { "uv": [ 7.5, 6.5, 8, 7 ], "texture": "#string" },
				"south": { "uv": [ 8, 6.5, 8.5, 7 ], "texture": "#string" },
				"west": { "uv": [ 9.5, 6.5, 11, 7 ], "texture": "#string" },
				"east": { "uv": [ 5, 6.5, 6.5, 7 ], "texture": "#string" }
			}
		},
		{
			"__comment": "string3",
			"from": [ 8.5, 8.5, 3.5 ],
			"to": [ 9, 9, 5 ],
			"faces": {
				"down": { "uv": [ 8.5, 11, 9, 12.5 ], "texture": "#string" },
				"up": { "uv": [ 8.5, 3.5, 9, 5 ], "texture": "#string" },
				"north": { "uv": [ 7, 7, 7.5, 7.5 ], "texture": "#string" },
				"south": { "uv": [ 8.5, 7, 9, 7.5 ], "texture": "#string" },
				"west": { "uv": [ 3.5, 7, 5, 7.5 ], "texture": "#string" },
				"east": { "uv": [ 11, 7, 12.5, 7.5 ], "texture": "#string" }
			}
		},
		{
			"__comment": "string4",
			"from": [ 8.5, 8.5, 11 ],
			"to": [ 9, 9, 12.5 ],
			"faces": {
				"down": { "uv": [ 8.5, 3.5, 9, 5 ], "texture": "#string" },
				"up": { "uv": [ 8.5, 11, 9, 12.5 ], "texture": "#string" },
				"north": { "uv": [ 7, 7, 7.5, 7.5 ], "texture": "#string" },
				"south": { "uv": [ 8.5, 7, 9, 7.5 ], "texture": "#string" },
				"west": { "uv": [ 11, 7, 12.5, 7.5 ], "texture": "#string" },
				"east": { "uv": [ 3.5, 7, 5, 7.5 ], "texture": "#string" }
			}
		},
		{
			"__comment": "wood13",
			"from": [ 9, 7.5, 2 ],
			"to": [ 11, 8, 2.5 ],
			"faces": {
				"down": { "uv": [ 9, 13.5, 11, 14 ], "texture": "#wood" },
				"up": { "uv": [ 9, 2, 11, 2.5 ], "texture": "#wood" },
				"north": { "uv": [ 5, 8, 7, 8.5 ], "texture": "#wood" },
				"south": { "uv": [ 9, 8, 11, 8.5 ], "texture": "#wood" },
				"west": { "uv": [ 2, 8, 2.5, 8.5 ], "texture": "#wood" },
				"east": { "uv": [ 13.5, 8, 14, 8.5 ], "texture": "#wood" }
			}
		},
		{
			"__comment": "wood14",
			"from": [ 9, 7.5, 13.5 ],
			"to": [ 11, 8, 14 ],
			"faces": {
				"down": { "uv": [ 9, 2, 11, 2.5 ], "texture": "#wood" },
				"up": { "uv": [ 9, 13.5, 11, 14 ], "texture": "#wood" },
				"north": { "uv": [ 5, 8, 7, 8.5 ], "texture": "#wood" },
				"south": { "uv": [ 9, 8, 11, 8.5 ], "texture": "#wood" },
				"west": { "uv": [ 13.5, 8, 14, 8.5 ], "texture": "#wood" },
				"east": { "uv": [ 2, 8, 2.5, 8.5 ], "texture": "#wood" }
			}
		},
		{
			"__comment": "string5",
			"from": [ 9, 8, 2.5 ],
			"to": [ 9.5, 8.5, 3.5 ],
			"faces": {
				"down": { "uv": [ 9, 12.5, 9.5, 13.5 ], "texture": "#string" },
				"up": { "uv": [ 9, 2.5, 9.5, 3.5 ], "texture": "#string" },
				"north": { "uv": [ 6.5, 7.5, 7, 8 ], "texture": "#string" },
				"south": { "uv": [ 9, 7.5, 9.5, 8 ], "texture": "#string" },
				"west": { "uv": [ 2.5, 7.5, 3.5, 8 ], "texture": "#string" },
				"east": { "uv": [ 12.5, 7.5, 13.5, 8 ], "texture": "#string" }
			}
		},
		{
			"__comment": "string6",
			"from": [ 9, 8, 12.5 ],
			"to": [ 9.5, 8.5, 13.5 ],
			"faces": {
				"down": { "uv": [ 9, 2.5, 9.5, 3.5 ], "texture": "#string" },
				"up": { "uv": [ 9, 12.5, 9.5, 13.5 ], "texture": "#string" },
				"north": { "uv": [ 6.5, 7.5, 7, 8 ], "texture": "#string" },
				"south": { "uv": [ 9, 7.5, 9.5, 8 ], "texture": "#string" },
				"west": { "uv": [ 12.5, 7.5, 13.5, 8 ], "texture": "#string" },
				"east": { "uv": [ 2.5, 7.5, 3.5, 8 ], "texture": "#string" }
			}
		},
		{
			"__comment": "wood15",
			"from": [ 9, 8.5, 2 ],
			"to": [ 11, 9, 2.5 ],
			"faces": {
				"down": { "uv": [ 9, 13.5, 11, 14 ], "texture": "#wood" },
				"up": { "uv": [ 9, 2, 11, 2.5 ], "texture": "#wood" },
				"north": { "uv": [ 5, 7, 7, 7.5 ], "texture": "#wood" },
				"south": { "uv": [ 9, 7, 11, 7.5 ], "texture": "#wood" },
				"west": { "uv": [ 2, 7, 2.5, 7.5 ], "texture": "#wood" },
				"east": { "uv": [ 13.5, 7, 14, 7.5 ], "texture": "#wood" }
			}
		},
		{
			"__comment": "wood16",
			"from": [ 9, 8.5, 13.5 ],
			"to": [ 11, 9, 14 ],
			"faces": {
				"down": { "uv": [ 9, 2, 11, 2.5 ], "texture": "#wood" },
				"up": { "uv": [ 9, 13.5, 11, 14 ], "texture": "#wood" },
				"north": { "uv": [ 5, 7, 7, 7.5 ], "texture": "#wood" },
				"south": { "uv": [ 9, 7, 11, 7.5 ], "texture": "#wood" },
				"west": { "uv": [ 13.5, 7, 14, 7.5 ], "texture": "#wood" },
				"east": { "uv": [ 2, 7, 2.5, 7.5 ], "texture": "#wood" }
			}
		},
		{
			"__comment": "top_wood",
			"from": [ 9.5, 7, 2 ],
			"to": [ 10.5, 7.5, 2.5 ],
			"faces": {
				"down": { "uv": [ 9.5, 13.5, 10.5, 14 ], "texture": "#wood" },
				"north": { "uv": [ 5.5, 8.5, 6.5, 9 ], "texture": "#wood" },
				"south": { "uv": [ 9.5, 8.5, 10.5, 9 ], "texture": "#wood" },
				"west": { "uv": [ 2, 8.5, 2.5, 9 ], "texture": "#wood" },
				"east": { "uv": [ 13.5, 8.5, 14, 9 ], "texture": "#wood" }
			}
		},
		{
			"__comment": "top_wood1",
			"from": [ 9.5, 7, 13.5 ],
			"to": [ 10.5, 7.5, 14 ],
			"faces": {
				"down": { "uv": [ 9.5, 2, 10.5, 2.5 ], "texture": "#wood" },
				"north": { "uv": [ 5.5, 8.5, 6.5, 9 ], "texture": "#wood" },
				"south": { "uv": [ 9.5, 8.5, 10.5, 9 ], "texture": "#wood" },
				"west": { "uv": [ 13.5, 8.5, 14, 9 ], "texture": "#wood" },
				"east": { "uv": [ 2, 8.5, 2.5, 9 ], "texture": "#wood" }
			}
		},
		{
			"__comment": "wood17",
			"from": [ 9.5, 7.5, 1.5 ],
			"to": [ 11.5, 8, 2 ],
			"faces": {
				"down": { "uv": [ 9.5, 14, 11.5, 14.5 ], "texture": "#wood" },
				"up": { "uv": [ 9.5, 1.5, 11.5, 2 ], "texture": "#wood" },
				"north": { "uv": [ 4.5, 8, 6.5, 8.5 ], "texture": "#wood" },
				"south": { "uv": [ 9.5, 8, 11.5, 8.5 ], "texture": "#wood" },
				"west": { "uv": [ 1.5, 8, 2, 8.5 ], "texture": "#wood" },
				"east": { "uv": [ 14, 8, 14.5, 8.5 ], "texture": "#wood" }
			}
		},
		{
			"__comment": "wood18",
			"from": [ 9.5, 7.5, 2.5 ],
			"to": [ 12, 8, 3 ],
			"faces": {
				"down": { "uv": [ 9.5, 13, 12, 13.5 ], "texture": "#wood" },
				"up": { "uv": [ 9.5, 2.5, 12, 3 ], "texture": "#wood" },
				"north": { "uv": [ 4, 8, 6.5, 8.5 ], "texture": "#wood" },
				"south": { "uv": [ 9.5, 8, 12, 8.5 ], "texture": "#wood" },
				"west": { "uv": [ 2.5, 8, 3, 8.5 ], "texture": "#wood" },
				"east": { "uv": [ 13, 8, 13.5, 8.5 ], "texture": "#wood" }
			}
		},
		{
			"__comment": "wood19",
			"from": [ 9.5, 7.5, 13 ],
			"to": [ 12, 8, 13.5 ],
			"faces": {
				"down": { "uv": [ 9.5, 2.5, 12, 3 ], "texture": "#wood" },
				"up": { "uv": [ 9.5, 13, 12, 13.5 ], "texture": "#wood" },
				"north": { "uv": [ 4, 8, 6.5, 8.5 ], "texture": "#wood" },
				"south": { "uv": [ 9.5, 8, 12, 8.5 ], "texture": "#wood" },
				"west": { "uv": [ 13, 8, 13.5, 8.5 ], "texture": "#wood" },
				"east": { "uv": [ 2.5, 8, 3, 8.5 ], "texture": "#wood" }
			}
		},
		{
			"__comment": "wood20",
			"from": [ 9.5, 7.5, 14 ],
			"to": [ 11.5, 8, 14.5 ],
			"faces": {
				"down": { "uv": [ 9.5, 1.5, 11.5, 2 ], "texture": "#wood" },
				"up": { "uv": [ 9.5, 14, 11.5, 14.5 ], "texture": "#wood" },
				"north": { "uv": [ 4.5, 8, 6.5, 8.5 ], "texture": "#wood" },
				"south": { "uv": [ 9.5, 8, 11.5, 8.5 ], "texture": "#wood" },
				"west": { "uv": [ 14, 8, 14.5, 8.5 ], "texture": "#wood" },
				"east": { "uv": [ 1.5, 8, 2, 8.5 ], "texture": "#wood" }
			}
		},
		{
			"__comment": "string7",
			"from": [ 9.5, 8, 2 ],
			"to": [ 10, 8.5, 2.5 ],
			"faces": {
				"north": { "uv": [ 6, 7.5, 6.5, 8 ], "texture": "#string" },
				"south": { "uv": [ 9.5, 7.5, 10, 8 ], "texture": "#string" },
				"west": { "uv": [ 2, 7.5, 2.5, 8 ], "texture": "#string" }
			}
		},
		{
			"__comment": "string8",
			"from": [ 9.5, 8, 13.5 ],
			"to": [ 10, 8.5, 14 ],
			"faces": {
				"north": { "uv": [ 6, 7.5, 6.5, 8 ], "texture": "#string" },
				"south": { "uv": [ 9.5, 7.5, 10, 8 ], "texture": "#string" },
				"west": { "uv": [ 13.5, 7.5, 14, 8 ], "texture": "#string" }
			}
		},
		{
			"__comment": "wood21",
			"from": [ 9.5, 8.5, 1.5 ],
			"to": [ 11.5, 9, 2 ],
			"faces": {
				"down": { "uv": [ 9.5, 14, 11.5, 14.5 ], "texture": "#wood" },
				"up": { "uv": [ 9.5, 1.5, 11.5, 2 ], "texture": "#wood" },
				"north": { "uv": [ 4.5, 7, 6.5, 7.5 ], "texture": "#wood" },
				"south": { "uv": [ 9.5, 7, 11.5, 7.5 ], "texture": "#wood" },
				"west": { "uv": [ 1.5, 7, 2, 7.5 ], "texture": "#wood" },
				"east": { "uv": [ 14, 7, 14.5, 7.5 ], "texture": "#wood" }
			}
		},
		{
			"__comment": "wood22",
			"from": [ 9.5, 8.5, 2.5 ],
			"to": [ 12, 9, 3 ],
			"faces": {
				"down": { "uv": [ 9.5, 13, 12, 13.5 ], "texture": "#wood" },
				"up": { "uv": [ 9.5, 2.5, 12, 3 ], "texture": "#wood" },
				"north": { "uv": [ 4, 7, 6.5, 7.5 ], "texture": "#wood" },
				"south": { "uv": [ 9.5, 7, 12, 7.5 ], "texture": "#wood" },
				"west": { "uv": [ 2.5, 7, 3, 7.5 ], "texture": "#wood" },
				"east": { "uv": [ 13, 7, 13.5, 7.5 ], "texture": "#wood" }
			}
		},
		{
			"__comment": "wood23",
			"from": [ 9.5, 8.5, 13 ],
			"to": [ 12, 9, 13.5 ],
			"faces": {
				"down": { "uv": [ 9.5, 2.5, 12, 3 ], "texture": "#wood" },
				"up": { "uv": [ 9.5, 13, 12, 13.5 ], "texture": "#wood" },
				"north": { "uv": [ 4, 7, 6.5, 7.5 ], "texture": "#wood" },
				"south": { "uv": [ 9.5, 7, 12, 7.5 ], "texture": "#wood" },
				"west": { "uv": [ 13, 7, 13.5, 7.5 ], "texture": "#wood" },
				"east": { "uv": [ 2.5, 7, 3, 7.5 ], "texture": "#wood" }
			}
		},
		{
			"__comment": "wood24",
			"from": [ 9.5, 8.5, 14 ],
			"to": [ 11.5, 9, 14.5 ],
			"faces": {
				"down": { "uv": [ 9.5, 1.5, 11.5, 2 ], "texture": "#wood" },
				"up": { "uv": [ 9.5, 14, 11.5, 14.5 ], "texture": "#wood" },
				"north": { "uv": [ 4.5, 7, 6.5, 7.5 ], "texture": "#wood" },
				"south": { "uv": [ 9.5, 7, 11.5, 7.5 ], "texture": "#wood" },
				"west": { "uv": [ 14, 7, 14.5, 7.5 ], "texture": "#wood" },
				"east": { "uv": [ 1.5, 7, 2, 7.5 ], "texture": "#wood" }
			}
		},
		{
			"__comment": "top_wood2",
			"from": [ 9.5, 9, 2 ],
			"to": [ 10.5, 9.5, 2.5 ],
			"faces": {
				"up": { "uv": [ 9.5, 2, 10.5, 2.5 ], "texture": "#wood" },
				"north": { "uv": [ 5.5, 6.5, 6.5, 7 ], "texture": "#wood" },
				"south": { "uv": [ 9.5, 6.5, 10.5, 7 ], "texture": "#wood" },
				"west": { "uv": [ 2, 6.5, 2.5, 7 ], "texture": "#wood" },
				"east": { "uv": [ 13.5, 6.5, 14, 7 ], "texture": "#wood" }
			}
		},
		{
			"__comment": "top_wood3",
			"from": [ 9.5, 9, 13.5 ],
			"to": [ 10.5, 9.5, 14 ],
			"faces": {
				"up": { "uv": [ 9.5, 13.5, 10.5, 14 ], "texture": "#wood" },
				"north": { "uv": [ 5.5, 6.5, 6.5, 7 ], "texture": "#wood" },
				"south": { "uv": [ 9.5, 6.5, 10.5, 7 ], "texture": "#wood" },
				"west": { "uv": [ 13.5, 6.5, 14, 7 ], "texture": "#wood" },
				"east": { "uv": [ 2, 6.5, 2.5, 7 ], "texture": "#wood" }
			}
		},
		{
			"__comment": "top_wood4",
			"from": [ 10, 7, 1.5 ],
			"to": [ 11, 7.5, 2 ],
			"faces": {
				"down": { "uv": [ 10, 14, 11, 14.5 ], "texture": "#wood" },
				"north": { "uv": [ 5, 8.5, 6, 9 ], "texture": "#wood" },
				"south": { "uv": [ 10, 8.5, 11, 9 ], "texture": "#wood" },
				"west": { "uv": [ 1.5, 8.5, 2, 9 ], "texture": "#wood" },
				"east": { "uv": [ 14, 8.5, 14.5, 9 ], "texture": "#wood" }
			}
		},
		{
			"__comment": "top_wood5",
			"from": [ 10, 7, 2.5 ],
			"to": [ 11, 7.5, 3 ],
			"faces": {
				"down": { "uv": [ 10, 13, 11, 13.5 ], "texture": "#wood" },
				"north": { "uv": [ 5, 8.5, 6, 9 ], "texture": "#wood" },
				"south": { "uv": [ 10, 8.5, 11, 9 ], "texture": "#wood" },
				"west": { "uv": [ 2.5, 8.5, 3, 9 ], "texture": "#wood" },
				"east": { "uv": [ 13, 8.5, 13.5, 9 ], "texture": "#wood" }
			}
		},
		{
			"__comment": "top_wood6",
			"from": [ 10, 7, 13 ],
			"to": [ 11, 7.5, 13.5 ],
			"faces": {
				"down": { "uv": [ 10, 2.5, 11, 3 ], "texture": "#wood" },
				"north": { "uv": [ 5, 8.5, 6, 9 ], "texture": "#wood" },
				"south": { "uv": [ 10, 8.5, 11, 9 ], "texture": "#wood" },
				"west": { "uv": [ 13, 8.5, 13.5, 9 ], "texture": "#wood" },
				"east": { "uv": [ 2.5, 8.5, 3, 9 ], "texture": "#wood" }
			}
		},
		{
			"__comment": "top_wood7",
			"from": [ 10, 7, 14 ],
			"to": [ 11, 7.5, 14.5 ],
			"faces": {
				"down": { "uv": [ 10, 1.5, 11, 2 ], "texture": "#wood" },
				"north": { "uv": [ 5, 8.5, 6, 9 ], "texture": "#wood" },
				"south": { "uv": [ 10, 8.5, 11, 9 ], "texture": "#wood" },
				"west": { "uv": [ 14, 8.5, 14.5, 9 ], "texture": "#wood" },
				"east": { "uv": [ 1.5, 8.5, 2, 9 ], "texture": "#wood" }
			}
		},
		{
			"__comment": "wood25",
			"from": [ 10, 7.5, 1 ],
			"to": [ 11, 8, 1.5 ],
			"faces": {
				"down": { "uv": [ 10, 14.5, 11, 15 ], "texture": "#wood" },
				"up": { "uv": [ 10, 1, 11, 1.5 ], "texture": "#wood" },
				"north": { "uv": [ 5, 8, 6, 8.5 ], "texture": "#wood" },
				"west": { "uv": [ 1, 8, 1.5, 8.5 ], "texture": "#wood" },
				"east": { "uv": [ 14.5, 8, 15, 8.5 ], "texture": "#wood" }
			}
		},
		{
			"__comment": "wood26",
			"from": [ 10, 7.5, 3 ],
			"to": [ 12.5, 8, 3.5 ],
			"faces": {
				"down": { "uv": [ 10, 12.5, 12.5, 13 ], "texture": "#wood" },
				"up": { "uv": [ 10, 3, 12.5, 3.5 ], "texture": "#wood" },
				"north": { "uv": [ 3.5, 8, 6, 8.5 ], "texture": "#wood" },
				"south": { "uv": [ 10, 8, 12.5, 8.5 ], "texture": "#wood" },
				"west": { "uv": [ 3, 8, 3.5, 8.5 ], "texture": "#wood" },
				"east": { "uv": [ 12.5, 8, 13, 8.5 ], "texture": "#wood" }
			}
		},
		{
			"__comment": "wood27",
			"from": [ 10, 7.5, 12.5 ],
			"to": [ 12.5, 8, 13 ],
			"faces": {
				"down": { "uv": [ 10, 3, 12.5, 3.5 ], "texture": "#wood" },
				"up": { "uv": [ 10, 12.5, 12.5, 13 ], "texture": "#wood" },
				"north": { "uv": [ 3.5, 8, 6, 8.5 ], "texture": "#wood" },
				"south": { "uv": [ 10, 8, 12.5, 8.5 ], "texture": "#wood" },
				"west": { "uv": [ 12.5, 8, 13, 8.5 ], "texture": "#wood" },
				"east": { "uv": [ 3, 8, 3.5, 8.5 ], "texture": "#wood" }
			}
		},
		{
			"__comment": "wood28",
			"from": [ 10, 7.5, 14.5 ],
			"to": [ 11, 8, 15 ],
			"faces": {
				"down": { "uv": [ 10, 1, 11, 1.5 ], "texture": "#wood" },
				"up": { "uv": [ 10, 14.5, 11, 15 ], "texture": "#wood" },
				"south": { "uv": [ 10, 8, 11, 8.5 ], "texture": "#wood" },
				"west": { "uv": [ 14.5, 8, 15, 8.5 ], "texture": "#wood" },
				"east": { "uv": [ 1, 8, 1.5, 8.5 ], "texture": "#wood" }
			}
		},
		{
			"__comment": "string9",
			"from": [ 10, 8, 1.5 ],
			"to": [ 10.5, 8.5, 2 ],
			"faces": {
				"north": { "uv": [ 5.5, 7.5, 6, 8 ], "texture": "#string" },
				"west": { "uv": [ 1.5, 7.5, 2, 8 ], "texture": "#string" }
			}
		},
		{
			"__comment": "wood29",
			"from": [ 10, 8, 2 ],
			"to": [ 10.5, 8.5, 3 ],
			"faces": {
				"down": { "uv": [ 10, 13, 10.5, 14 ], "texture": "#wood" },
				"up": { "uv": [ 10, 2, 10.5, 3 ], "texture": "#wood" },
				"south": { "uv": [ 10, 7.5, 10.5, 8 ], "texture": "#wood" },
				"west": { "uv": [ 2, 7.5, 3, 8 ], "texture": "#wood" },
				"east": { "uv": [ 13, 7.5, 14, 8 ], "texture": "#wood" }
			}
		},
		{
			"__comment": "wood30",
			"from": [ 10, 8, 13 ],
			"to": [ 10.5, 8.5, 14 ],
			"faces": {
				"down": { "uv": [ 10, 2, 10.5, 3 ], "texture": "#wood" },
				"up": { "uv": [ 10, 13, 10.5, 14 ], "texture": "#wood" },
				"north": { "uv": [ 5.5, 7.5, 6, 8 ], "texture": "#wood" },
				"west": { "uv": [ 13, 7.5, 14, 8 ], "texture": "#wood" },
				"east": { "uv": [ 2, 7.5, 3, 8 ], "texture": "#wood" }
			}
		},
		{
			"__comment": "string10",
			"from": [ 10, 8, 14 ],
			"to": [ 10.5, 8.5, 14.5 ],
			"faces": {
				"south": { "uv": [ 10, 7.5, 10.5, 8 ], "texture": "#string" },
				"west": { "uv": [ 14, 7.5, 14.5, 8 ], "texture": "#string" }
			}
		},
		{
			"__comment": "wood31",
			"from": [ 10, 8.5, 1 ],
			"to": [ 11, 9, 1.5 ],
			"faces": {
				"down": { "uv": [ 10, 14.5, 11, 15 ], "texture": "#wood" },
				"up": { "uv": [ 10, 1, 11, 1.5 ], "texture": "#wood" },
				"north": { "uv": [ 5, 7, 6, 7.5 ], "texture": "#wood" },
				"west": { "uv": [ 1, 7, 1.5, 7.5 ], "texture": "#wood" },
				"east": { "uv": [ 14.5, 7, 15, 7.5 ], "texture": "#wood" }
			}
		},
		{
			"__comment": "wood32",
			"from": [ 10, 8.5, 3 ],
			"to": [ 12.5, 9, 3.5 ],
			"faces": {
				"down": { "uv": [ 10, 12.5, 12.5, 13 ], "texture": "#wood" },
				"up": { "uv": [ 10, 3, 12.5, 3.5 ], "texture": "#wood" },
				"north": { "uv": [ 3.5, 7, 6, 7.5 ], "texture": "#wood" },
				"south": { "uv": [ 10, 7, 12.5, 7.5 ], "texture": "#wood" },
				"west": { "uv": [ 3, 7, 3.5, 7.5 ], "texture": "#wood" },
				"east": { "uv": [ 12.5, 7, 13, 7.5 ], "texture": "#wood" }
			}
		},
		{
			"__comment": "wood33",
			"from": [ 10, 8.5, 12.5 ],
			"to": [ 12.5, 9, 13 ],
			"faces": {
				"down": { "uv": [ 10, 3, 12.5, 3.5 ], "texture": "#wood" },
				"up": { "uv": [ 10, 12.5, 12.5, 13 ], "texture": "#wood" },
				"north": { "uv": [ 3.5, 7, 6, 7.5 ], "texture": "#wood" },
				"south": { "uv": [ 10, 7, 12.5, 7.5 ], "texture": "#wood" },
				"west": { "uv": [ 12.5, 7, 13, 7.5 ], "texture": "#wood" },
				"east": { "uv": [ 3, 7, 3.5, 7.5 ], "texture": "#wood" }
			}
		},
		{
			"__comment": "wood34",
			"from": [ 10, 8.5, 14.5 ],
			"to": [ 11, 9, 15 ],
			"faces": {
				"down": { "uv": [ 10, 1, 11, 1.5 ], "texture": "#wood" },
				"up": { "uv": [ 10, 14.5, 11, 15 ], "texture": "#wood" },
				"south": { "uv": [ 10, 7, 11, 7.5 ], "texture": "#wood" },
				"west": { "uv": [ 14.5, 7, 15, 7.5 ], "texture": "#wood" },
				"east": { "uv": [ 1, 7, 1.5, 7.5 ], "texture": "#wood" }
			}
		},
		{
			"__comment": "top_wood8",
			"from": [ 10, 9, 1.5 ],
			"to": [ 11, 9.5, 2 ],
			"faces": {
				"up": { "uv": [ 10, 1.5, 11, 2 ], "texture": "#wood" },
				"north": { "uv": [ 5, 6.5, 6, 7 ], "texture": "#wood" },
				"south": { "uv": [ 10, 6.5, 11, 7 ], "texture": "#wood" },
				"west": { "uv": [ 1.5, 6.5, 2, 7 ], "texture": "#wood" },
				"east": { "uv": [ 14, 6.5, 14.5, 7 ], "texture": "#wood" }
			}
		},
		{
			"__comment": "top_wood9",
			"from": [ 10, 9, 2.5 ],
			"to": [ 11, 9.5, 3 ],
			"faces": {
				"up": { "uv": [ 10, 2.5, 11, 3 ], "texture": "#wood" },
				"north": { "uv": [ 5, 6.5, 6, 7 ], "texture": "#wood" },
				"south": { "uv": [ 10, 6.5, 11, 7 ], "texture": "#wood" },
				"west": { "uv": [ 2.5, 6.5, 3, 7 ], "texture": "#wood" },
				"east": { "uv": [ 13, 6.5, 13.5, 7 ], "texture": "#wood" }
			}
		},
		{
			"__comment": "top_wood10",
			"from": [ 10, 9, 13 ],
			"to": [ 11, 9.5, 13.5 ],
			"faces": {
				"up": { "uv": [ 10, 13, 11, 13.5 ], "texture": "#wood" },
				"north": { "uv": [ 5, 6.5, 6, 7 ], "texture": "#wood" },
				"south": { "uv": [ 10, 6.5, 11, 7 ], "texture": "#wood" },
				"west": { "uv": [ 13, 6.5, 13.5, 7 ], "texture": "#wood" },
				"east": { "uv": [ 2.5, 6.5, 3, 7 ], "texture": "#wood" }
			}
		},
		{
			"__comment": "top_wood11",
			"from": [ 10, 9, 14 ],
			"to": [ 11, 9.5, 14.5 ],
			"faces": {
				"up": { "uv": [ 10, 14, 11, 14.5 ], "texture": "#wood" },
				"north": { "uv": [ 5, 6.5, 6, 7 ], "texture": "#wood" },
				"south": { "uv": [ 10, 6.5, 11, 7 ], "texture": "#wood" },
				"west": { "uv": [ 14, 6.5, 14.5, 7 ], "texture": "#wood" },
				"east": { "uv": [ 1.5, 6.5, 2, 7 ], "texture": "#wood" }
			}
		},
		{
			"__comment": "handle5",
			"from": [ 10.5, 6.5, 7 ],
			"to": [ 11.5, 7, 7.5 ],
			"faces": {
				"down": { "uv": [ 10.5, 8.5, 11.5, 9 ], "texture": "#iron" },
				"up": { "uv": [ 10.5, 7, 11.5, 7.5 ], "texture": "#iron" },
				"north": { "uv": [ 4.5, 9, 5.5, 9.5 ], "texture": "#iron" },
				"west": { "uv": [ 7, 9, 7.5, 9.5 ], "texture": "#iron" },
				"east": { "uv": [ 8.5, 9, 9, 9.5 ], "texture": "#iron" }
			}
		},
		{
			"__comment": "handle6",
			"from": [ 10.5, 6.5, 8.5 ],
			"to": [ 11.5, 7, 9 ],
			"faces": {
				"down": { "uv": [ 10.5, 7, 11.5, 7.5 ], "texture": "#iron" },
				"up": { "uv": [ 10.5, 8.5, 11.5, 9 ], "texture": "#iron" },
				"south": { "uv": [ 10.5, 9, 11.5, 9.5 ], "texture": "#iron" },
				"west": { "uv": [ 8.5, 9, 9, 9.5 ], "texture": "#iron" },
				"east": { "uv": [ 7, 9, 7.5, 9.5 ], "texture": "#iron" }
			}
		},
		{
			"__comment": "wood35",
			"from": [ 10.5, 8, 1.5 ],
			"to": [ 11, 8.5, 2 ],
			"faces": {
				"north": { "uv": [ 5, 7.5, 5.5, 8 ], "texture": "#wood" },
				"south": { "uv": [ 10.5, 7.5, 11, 8 ], "texture": "#wood" },
				"east": { "uv": [ 14, 7.5, 14.5, 8 ], "texture": "#wood" }
			}
		},
		{
			"__comment": "wood36",
			"from": [ 10.5, 8, 14 ],
			"to": [ 11, 8.5, 14.5 ],
			"faces": {
				"north": { "uv": [ 5, 7.5, 5.5, 8 ], "texture": "#wood" },
				"south": { "uv": [ 10.5, 7.5, 11, 8 ], "texture": "#wood" },
				"east": { "uv": [ 1.5, 7.5, 2, 8 ], "texture": "#wood" }
			}
		},
		{
			"__comment": "top_wood12",
			"from": [ 11, 7, 3 ],
			"to": [ 12, 7.5, 3.5 ],
			"faces": {
				"down": { "uv": [ 11, 12.5, 12, 13 ], "texture": "#wood" },
				"north": { "uv": [ 4, 8.5, 5, 9 ], "texture": "#wood" },
				"south": { "uv": [ 11, 8.5, 12, 9 ], "texture": "#wood" },
				"west": { "uv": [ 3, 8.5, 3.5, 9 ], "texture": "#wood" },
				"east": { "uv": [ 12.5, 8.5, 13, 9 ], "texture": "#wood" }
			}
		},
		{
			"__comment": "top_wood13",
			"from": [ 11, 7, 12.5 ],
			"to": [ 12, 7.5, 13 ],
			"faces": {
				"down": { "uv": [ 11, 3, 12, 3.5 ], "texture": "#wood" },
				"north": { "uv": [ 4, 8.5, 5, 9 ], "texture": "#wood" },
				"south": { "uv": [ 11, 8.5, 12, 9 ], "texture": "#wood" },
				"west": { "uv": [ 12.5, 8.5, 13, 9 ], "texture": "#wood" },
				"east": { "uv": [ 3, 8.5, 3.5, 9 ], "texture": "#wood" }
			}
		},
		{
			"__comment": "wood37",
			"from": [ 11, 7.5, 3.5 ],
			"to": [ 13, 8, 4.5 ],
			"faces": {
				"down": { "uv": [ 11, 11.5, 13, 12.5 ], "texture": "#wood" },
				"up": { "uv": [ 11, 3.5, 13, 4.5 ], "texture": "#wood" },
				"north": { "uv": [ 3, 8, 5, 8.5 ], "texture": "#wood" },
				"south": { "uv": [ 11, 8, 13, 8.5 ], "texture": "#wood" },
				"west": { "uv": [ 3.5, 8, 4.5, 8.5 ], "texture": "#wood" },
				"east": { "uv": [ 11.5, 8, 12.5, 8.5 ], "texture": "#wood" }
			}
		},
		{
			"__comment": "wood38",
			"from": [ 11, 7.5, 11.5 ],
			"to": [ 13, 8, 12.5 ],
			"faces": {
				"down": { "uv": [ 11, 3.5, 13, 4.5 ], "texture": "#wood" },
				"up": { "uv": [ 11, 11.5, 13, 12.5 ], "texture": "#wood" },
				"north": { "uv": [ 3, 8, 5, 8.5 ], "texture": "#wood" },
				"south": { "uv": [ 11, 8, 13, 8.5 ], "texture": "#wood" },
				"west": { "uv": [ 11.5, 8, 12.5, 8.5 ], "texture": "#wood" },
				"east": { "uv": [ 3.5, 8, 4.5, 8.5 ], "texture": "#wood" }
			}
		},
		{
			"__comment": "wood39",
			"from": [ 11, 8.5, 3.5 ],
			"to": [ 13, 9, 4.5 ],
			"faces": {
				"down": { "uv": [ 11, 11.5, 13, 12.5 ], "texture": "#wood" },
				"up": { "uv": [ 11, 3.5, 13, 4.5 ], "texture": "#wood" },
				"north": { "uv": [ 3, 7, 5, 7.5 ], "texture": "#wood" },
				"south": { "uv": [ 11, 7, 13, 7.5 ], "texture": "#wood" },
				"west": { "uv": [ 3.5, 7, 4.5, 7.5 ], "texture": "#wood" },
				"east": { "uv": [ 11.5, 7, 12.5, 7.5 ], "texture": "#wood" }
			}
		},
		{
			"__comment": "wood40",
			"from": [ 11, 8.5, 11.5 ],
			"to": [ 13, 9, 12.5 ],
			"faces": {
				"down": { "uv": [ 11, 3.5, 13, 4.5 ], "texture": "#wood" },
				"up": { "uv": [ 11, 11.5, 13, 12.5 ], "texture": "#wood" },
				"north": { "uv": [ 3, 7, 5, 7.5 ], "texture": "#wood" },
				"south": { "uv": [ 11, 7, 13, 7.5 ], "texture": "#wood" },
				"west": { "uv": [ 11.5, 7, 12.5, 7.5 ], "texture": "#wood" },
				"east": { "uv": [ 3.5, 7, 4.5, 7.5 ], "texture": "#wood" }
			}
		},
		{
			"__comment": "top_wood14",
			"from": [ 11, 9, 3 ],
			"to": [ 12, 9.5, 3.5 ],
			"faces": {
				"up": { "uv": [ 11, 3, 12, 3.5 ], "texture": "#wood" },
				"north": { "uv": [ 4, 6.5, 5, 7 ], "texture": "#wood" },
				"south": { "uv": [ 11, 6.5, 12, 7 ], "texture": "#wood" },
				"west": { "uv": [ 3, 6.5, 3.5, 7 ], "texture": "#wood" },
				"east": { "uv": [ 12.5, 6.5, 13, 7 ], "texture": "#wood" }
			}
		},
		{
			"__comment": "top_wood15",
			"from": [ 11, 9, 12.5 ],
			"to": [ 12, 9.5, 13 ],
			"faces": {
				"up": { "uv": [ 11, 12.5, 12, 13 ], "texture": "#wood" },
				"north": { "uv": [ 4, 6.5, 5, 7 ], "texture": "#wood" },
				"south": { "uv": [ 11, 6.5, 12, 7 ], "texture": "#wood" },
				"west": { "uv": [ 12.5, 6.5, 13, 7 ], "texture": "#wood" },
				"east": { "uv": [ 3, 6.5, 3.5, 7 ], "texture": "#wood" }
			}
		},
		{
			"__comment": "top_wood16",
			"from": [ 11.5, 7, 3.5 ],
			"to": [ 12.5, 7.5, 4.5 ],
			"faces": {
				"down": { "uv": [ 11.5, 11.5, 12.5, 12.5 ], "texture": "#wood" },
				"north": { "uv": [ 3.5, 8.5, 4.5, 9 ], "texture": "#wood" },
				"south": { "uv": [ 11.5, 8.5, 12.5, 9 ], "texture": "#wood" },
				"west": { "uv": [ 3.5, 8.5, 4.5, 9 ], "texture": "#wood" },
				"east": { "uv": [ 11.5, 8.5, 12.5, 9 ], "texture": "#wood" }
			}
		},
		{
			"__comment": "handle7",
			"from": [ 11.5, 7, 7 ],
			"to": [ 12, 7.5, 7.5 ],
			"faces": {
				"down": { "uv": [ 11.5, 8.5, 12, 9 ], "texture": "#iron" },
				"north": { "uv": [ 4, 8.5, 4.5, 9 ], "texture": "#iron" },
				"west": { "uv": [ 7, 8.5, 7.5, 9 ], "texture": "#iron" }
			}
		},
		{
			"__comment": "handle8",
			"from": [ 11.5, 7, 8.5 ],
			"to": [ 12, 7.5, 9 ],
			"faces": {
				"down": { "uv": [ 11.5, 7, 12, 7.5 ], "texture": "#iron" },
				"south": { "uv": [ 11.5, 8.5, 12, 9 ], "texture": "#iron" },
				"west": { "uv": [ 8.5, 8.5, 9, 9 ], "texture": "#iron" }
			}
		},
		{
			"__comment": "top_wood17",
			"from": [ 11.5, 7, 11.5 ],
			"to": [ 12.5, 7.5, 12.5 ],
			"faces": {
				"down": { "uv": [ 11.5, 3.5, 12.5, 4.5 ], "texture": "#wood" },
				"north": { "uv": [ 3.5, 8.5, 4.5, 9 ], "texture": "#wood" },
				"south": { "uv": [ 11.5, 8.5, 12.5, 9 ], "texture": "#wood" },
				"west": { "uv": [ 11.5, 8.5, 12.5, 9 ], "texture": "#wood" },
				"east": { "uv": [ 3.5, 8.5, 4.5, 9 ], "texture": "#wood" }
			}
		},
		{
			"__comment": "wood41",
			"from": [ 11.5, 7.5, 4.5 ],
			"to": [ 13.5, 8, 6 ],
			"faces": {
				"down": { "uv": [ 11.5, 10, 13.5, 11.5 ], "texture": "#wood" },
				"up": { "uv": [ 11.5, 4.5, 13.5, 6 ], "texture": "#wood" },
				"north": { "uv": [ 2.5, 8, 4.5, 8.5 ], "texture": "#wood" },
				"south": { "uv": [ 11.5, 8, 13.5, 8.5 ], "texture": "#wood" },
				"west": { "uv": [ 4.5, 8, 6, 8.5 ], "texture": "#wood" },
				"east": { "uv": [ 10, 8, 11.5, 8.5 ], "texture": "#wood" }
			}
		},
		{
			"__comment": "wood42",
			"from": [ 11.5, 7.5, 10 ],
			"to": [ 13.5, 8, 11.5 ],
			"faces": {
				"down": { "uv": [ 11.5, 4.5, 13.5, 6 ], "texture": "#wood" },
				"up": { "uv": [ 11.5, 10, 13.5, 11.5 ], "texture": "#wood" },
				"north": { "uv": [ 2.5, 8, 4.5, 8.5 ], "texture": "#wood" },
				"south": { "uv": [ 11.5, 8, 13.5, 8.5 ], "texture": "#wood" },
				"west": { "uv": [ 10, 8, 11.5, 8.5 ], "texture": "#wood" },
				"east": { "uv": [ 4.5, 8, 6, 8.5 ], "texture": "#wood" }
			}
		},
		{
			"__comment": "wood43",
			"from": [ 11.5, 8.5, 4.5 ],
			"to": [ 13.5, 9, 6 ],
			"faces": {
				"down": { "uv": [ 11.5, 10, 13.5, 11.5 ], "texture": "#wood" },
				"up": { "uv": [ 11.5, 4.5, 13.5, 6 ], "texture": "#wood" },
				"north": { "uv": [ 2.5, 7, 4.5, 7.5 ], "texture": "#wood" },
				"south": { "uv": [ 11.5, 7, 13.5, 7.5 ], "texture": "#wood" },
				"west": { "uv": [ 4.5, 7, 6, 7.5 ], "texture": "#wood" },
				"east": { "uv": [ 10, 7, 11.5, 7.5 ], "texture": "#wood" }
			}
		},
		{
			"__comment": "wood44",
			"from": [ 11.5, 8.5, 10 ],
			"to": [ 13.5, 9, 11.5 ],
			"faces": {
				"down": { "uv": [ 11.5, 4.5, 13.5, 6 ], "texture": "#wood" },
				"up": { "uv": [ 11.5, 10, 13.5, 11.5 ], "texture": "#wood" },
				"north": { "uv": [ 2.5, 7, 4.5, 7.5 ], "texture": "#wood" },
				"south": { "uv": [ 11.5, 7, 13.5, 7.5 ], "texture": "#wood" },
				"west": { "uv": [ 10, 7, 11.5, 7.5 ], "texture": "#wood" },
				"east": { "uv": [ 4.5, 7, 6, 7.5 ], "texture": "#wood" }
			}
		},
		{
			"__comment": "top_wood18",
			"from": [ 11.5, 9, 3.5 ],
			"to": [ 12.5, 9.5, 4.5 ],
			"faces": {
				"up": { "uv": [ 11.5, 3.5, 12.5, 4.5 ], "texture": "#wood" },
				"north": { "uv": [ 3.5, 6.5, 4.5, 7 ], "texture": "#wood" },
				"south": { "uv": [ 11.5, 6.5, 12.5, 7 ], "texture": "#wood" },
				"west": { "uv": [ 3.5, 6.5, 4.5, 7 ], "texture": "#wood" },
				"east": { "uv": [ 11.5, 6.5, 12.5, 7 ], "texture": "#wood" }
			}
		},
		{
			"__comment": "top_wood19",
			"from": [ 11.5, 9, 11.5 ],
			"to": [ 12.5, 9.5, 12.5 ],
			"faces": {
				"up": { "uv": [ 11.5, 11.5, 12.5, 12.5 ], "texture": "#wood" },
				"north": { "uv": [ 3.5, 6.5, 4.5, 7 ], "texture": "#wood" },
				"south": { "uv": [ 11.5, 6.5, 12.5, 7 ], "texture": "#wood" },
				"west": { "uv": [ 11.5, 6.5, 12.5, 7 ], "texture": "#wood" },
				"east": { "uv": [ 3.5, 6.5, 4.5, 7 ], "texture": "#wood" }
			}
		},
		{
			"__comment": "top_wood20",
			"from": [ 12, 7, 4.5 ],
			"to": [ 13, 7.5, 6 ],
			"faces": {
				"down": { "uv": [ 12, 10, 13, 11.5 ], "texture": "#wood" },
				"north": { "uv": [ 3, 8.5, 4, 9 ], "texture": "#wood" },
				"south": { "uv": [ 12, 8.5, 13, 9 ], "texture": "#wood" },
				"west": { "uv": [ 4.5, 8.5, 6, 9 ], "texture": "#wood" },
				"east": { "uv": [ 10, 8.5, 11.5, 9 ], "texture": "#wood" }
			}
		},
		{
			"__comment": "top_wood21",
			"from": [ 12, 7, 7 ],
			"to": [ 13.5, 7.5, 9 ],
			"faces": {
				"down": { "uv": [ 12, 7, 13.5, 9 ], "texture": "#wood" },
				"up": { "uv": [ 12, 7, 13.5, 9 ], "texture": "#wood" },
				"north": { "uv": [ 2.5, 8.5, 4, 9 ], "texture": "#wood" },
				"south": { "uv": [ 12, 8.5, 13.5, 9 ], "texture": "#wood" },
				"west": { "uv": [ 7, 8.5, 9, 9 ], "texture": "#wood" },
				"east": { "uv": [ 7, 8.5, 9, 9 ], "texture": "#wood" }
			}
		},
		{
			"__comment": "top_wood22",
			"from": [ 12, 7, 10 ],
			"to": [ 13, 7.5, 11.5 ],
			"faces": {
				"down": { "uv": [ 12, 4.5, 13, 6 ], "texture": "#wood" },
				"north": { "uv": [ 3, 8.5, 4, 9 ], "texture": "#wood" },
				"south": { "uv": [ 12, 8.5, 13, 9 ], "texture": "#wood" },
				"west": { "uv": [ 10, 8.5, 11.5, 9 ], "texture": "#wood" },
				"east": { "uv": [ 4.5, 8.5, 6, 9 ], "texture": "#wood" }
			}
		},
		{
			"__comment": "wood45",
			"from": [ 12, 7.5, 6 ],
			"to": [ 14, 8, 6.5 ],
			"faces": {
				"down": { "uv": [ 12, 9.5, 14, 10 ], "texture": "#wood" },
				"up": { "uv": [ 12, 6, 14, 6.5 ], "texture": "#wood" },
				"north": { "uv": [ 2, 8, 4, 8.5 ], "texture": "#wood" },
				"west": { "uv": [ 6, 8, 6.5, 8.5 ], "texture": "#wood" },
				"east": { "uv": [ 9.5, 8, 10, 8.5 ], "texture": "#wood" }
			}
		},
		{
			"__comment": "wood46",
			"from": [ 12, 7.5, 9.5 ],
			"to": [ 14, 8, 10 ],
			"faces": {
				"down": { "uv": [ 12, 6, 14, 6.5 ], "texture": "#wood" },
				"up": { "uv": [ 12, 9.5, 14, 10 ], "texture": "#wood" },
				"south": { "uv": [ 12, 8, 14, 8.5 ], "texture": "#wood" },
				"west": { "uv": [ 9.5, 8, 10, 8.5 ], "texture": "#wood" },
				"east": { "uv": [ 6, 8, 6.5, 8.5 ], "texture": "#wood" }
			}
		},
		{
			"__comment": "wood47",
			"from": [ 12, 8, 6.5 ],
			"to": [ 14, 8.5, 7 ],
			"faces": {
				"north": { "uv": [ 2, 7.5, 4, 8 ], "texture": "#wood" },
				"west": { "uv": [ 6.5, 7.5, 7, 8 ], "texture": "#wood" },
				"east": { "uv": [ 9, 7.5, 9.5, 8 ], "texture": "#wood" }
			}
		},
		{
			"__comment": "wood48",
			"from": [ 12, 8, 9 ],
			"to": [ 14, 8.5, 9.5 ],
			"faces": {
				"south": { "uv": [ 12, 7.5, 14, 8 ], "texture": "#wood" },
				"west": { "uv": [ 9, 7.5, 9.5, 8 ], "texture": "#wood" },
				"east": { "uv": [ 6.5, 7.5, 7, 8 ], "texture": "#wood" }
			}
		},
		{
			"__comment": "wood49",
			"from": [ 12, 8.5, 6 ],
			"to": [ 14, 9, 6.5 ],
			"faces": {
				"down": { "uv": [ 12, 9.5, 14, 10 ], "texture": "#wood" },
				"up": { "uv": [ 12, 6, 14, 6.5 ], "texture": "#wood" },
				"north": { "uv": [ 2, 7, 4, 7.5 ], "texture": "#wood" },
				"west": { "uv": [ 6, 7, 6.5, 7.5 ], "texture": "#wood" },
				"east": { "uv": [ 9.5, 7, 10, 7.5 ], "texture": "#wood" }
			}
		},
		{
			"__comment": "wood50",
			"from": [ 12, 8.5, 9.5 ],
			"to": [ 14, 9, 10 ],
			"faces": {
				"down": { "uv": [ 12, 6, 14, 6.5 ], "texture": "#wood" },
				"up": { "uv": [ 12, 9.5, 14, 10 ], "texture": "#wood" },
				"south": { "uv": [ 12, 7, 14, 7.5 ], "texture": "#wood" },
				"west": { "uv": [ 9.5, 7, 10, 7.5 ], "texture": "#wood" },
				"east": { "uv": [ 6, 7, 6.5, 7.5 ], "texture": "#wood" }
			}
		},
		{
			"__comment": "top_wood23",
			"from": [ 12, 9, 4.5 ],
			"to": [ 13, 9.5, 6 ],
			"faces": {
				"up": { "uv": [ 12, 4.5, 13, 6 ], "texture": "#wood" },
				"north": { "uv": [ 3, 6.5, 4, 7 ], "texture": "#wood" },
				"south": { "uv": [ 12, 6.5, 13, 7 ], "texture": "#wood" },
				"west": { "uv": [ 4.5, 6.5, 6, 7 ], "texture": "#wood" },
				"east": { "uv": [ 10, 6.5, 11.5, 7 ], "texture": "#wood" }
			}
		},
		{
			"__comment": "top_wood24",
			"from": [ 12, 9, 6.5 ],
			"to": [ 13, 9.5, 7 ],
			"faces": {
				"up": { "uv": [ 12, 6.5, 13, 7 ], "texture": "#wood" },
				"north": { "uv": [ 3, 6.5, 4, 7 ], "texture": "#wood" },
				"south": { "uv": [ 12, 6.5, 13, 7 ], "texture": "#wood" },
				"west": { "uv": [ 6.5, 6.5, 7, 7 ], "texture": "#wood" },
				"east": { "uv": [ 9, 6.5, 9.5, 7 ], "texture": "#wood" }
			}
		},
		{
			"__comment": "top_wood25",
			"from": [ 12, 9, 9 ],
			"to": [ 13, 9.5, 9.5 ],
			"faces": {
				"up": { "uv": [ 12, 9, 13, 9.5 ], "texture": "#wood" },
				"north": { "uv": [ 3, 6.5, 4, 7 ], "texture": "#wood" },
				"south": { "uv": [ 12, 6.5, 13, 7 ], "texture": "#wood" },
				"west": { "uv": [ 9, 6.5, 9.5, 7 ], "texture": "#wood" },
				"east": { "uv": [ 6.5, 6.5, 7, 7 ], "texture": "#wood" }
			}
		},
		{
			"__comment": "top_wood26",
			"from": [ 12, 9, 10 ],
			"to": [ 13, 9.5, 11.5 ],
			"faces": {
				"up": { "uv": [ 12, 10, 13, 11.5 ], "texture": "#wood" },
				"north": { "uv": [ 3, 6.5, 4, 7 ], "texture": "#wood" },
				"south": { "uv": [ 12, 6.5, 13, 7 ], "texture": "#wood" },
				"west": { "uv": [ 10, 6.5, 11.5, 7 ], "texture": "#wood" },
				"east": { "uv": [ 4.5, 6.5, 6, 7 ], "texture": "#wood" }
			}
		},
		{
			"__comment": "top_wood27",
			"from": [ 12.5, 7, 6 ],
			"to": [ 13.5, 7.5, 7 ],
			"faces": {
				"down": { "uv": [ 12.5, 9, 13.5, 10 ], "texture": "#wood" },
				"up": { "uv": [ 12.5, 6, 13.5, 7 ], "texture": "#wood" },
				"north": { "uv": [ 2.5, 8.5, 3.5, 9 ], "texture": "#wood" },
				"west": { "uv": [ 6, 8.5, 7, 9 ], "texture": "#wood" },
				"east": { "uv": [ 9, 8.5, 10, 9 ], "texture": "#wood" }
			}
		},
		{
			"__comment": "top_wood28",
			"from": [ 12.5, 7, 9.5 ],
			"to": [ 13.5, 7.5, 10 ],
			"faces": {
				"down": { "uv": [ 12.5, 6, 13.5, 6.5 ], "texture": "#wood" },
				"north": { "uv": [ 2.5, 8.5, 3.5, 9 ], "texture": "#wood" },
				"south": { "uv": [ 12.5, 8.5, 13.5, 9 ], "texture": "#wood" },
				"west": { "uv": [ 9.5, 8.5, 10, 9 ], "texture": "#wood" },
				"east": { "uv": [ 6, 8.5, 6.5, 9 ], "texture": "#wood" }
			}
		},
		{
			"__comment": "wood51",
			"from": [ 12.5, 8, 6 ],
			"to": [ 13.5, 8.5, 6.5 ],
			"faces": {
				"north": { "uv": [ 2.5, 7.5, 3.5, 8 ], "texture": "#wood" },
				"west": { "uv": [ 6, 7.5, 6.5, 8 ], "texture": "#wood" },
				"east": { "uv": [ 9.5, 7.5, 10, 8 ], "texture": "#wood" }
			}
		},
		{
			"__comment": "wood52",
			"from": [ 12.5, 8, 9.5 ],
			"to": [ 13.5, 8.5, 10 ],
			"faces": {
				"south": { "uv": [ 12.5, 7.5, 13.5, 8 ], "texture": "#wood" },
				"west": { "uv": [ 9.5, 7.5, 10, 8 ], "texture": "#wood" },
				"east": { "uv": [ 6, 7.5, 6.5, 8 ], "texture": "#wood" }
			}
		},
		{
			"__comment": "top_wood29",
			"from": [ 12.5, 9, 6 ],
			"to": [ 13.5, 9.5, 6.5 ],
			"faces": {
				"up": { "uv": [ 12.5, 6, 13.5, 6.5 ], "texture": "#wood" },
				"north": { "uv": [ 2.5, 6.5, 3.5, 7 ], "texture": "#wood" },
				"south": { "uv": [ 12.5, 6.5, 13.5, 7 ], "texture": "#wood" },
				"west": { "uv": [ 6, 6.5, 6.5, 7 ], "texture": "#wood" },
				"east": { "uv": [ 9.5, 6.5, 10, 7 ], "texture": "#wood" }
			}
		},
		{
			"__comment": "top_wood30",
			"from": [ 12.5, 9, 9.5 ],
			"to": [ 13.5, 9.5, 10 ],
			"faces": {
				"up": { "uv": [ 12.5, 9.5, 13.5, 10 ], "texture": "#wood" },
				"north": { "uv": [ 2.5, 6.5, 3.5, 7 ], "texture": "#wood" },
				"south": { "uv": [ 12.5, 6.5, 13.5, 7 ], "texture": "#wood" },
				"west": { "uv": [ 9.5, 6.5, 10, 7 ], "texture": "#wood" },
				"east": { "uv": [ 6, 6.5, 6.5, 7 ], "texture": "#wood" }
			}
		},
		{
			"__comment": "top_wood31",
			"from": [ 13, 7, 9 ],
			"to": [ 13.5, 7.5, 9.5 ],
			"faces": {
				"down": { "uv": [ 13, 6.5, 13.5, 7 ], "texture": "#wood" },
				"west": { "uv": [ 9, 8.5, 9.5, 9 ], "texture": "#wood" },
				"east": { "uv": [ 6.5, 8.5, 7, 9 ], "texture": "#wood" }
			}
		},
		{
			"__comment": "front4",
			"from": [ 14, 7.5, 6.5 ],
			"to": [ 15, 8, 7 ],
			"faces": {
				"down": { "uv": [ 14, 9, 15, 9.5 ], "texture": "#iron" },
				"up": { "uv": [ 14, 6.5, 15, 7 ], "texture": "#iron" },
				"north": { "uv": [ 1, 8, 2, 8.5 ], "texture": "#iron" },
				"south": { "uv": [ 14, 8, 15, 8.5 ], "texture": "#iron" },
				"east": { "uv": [ 9, 8, 9.5, 8.5 ], "texture": "#iron" }
			}
		},
		{
			"__comment": "front",
			"from": [ 14, 7.5, 9 ],
			"to": [ 15, 8, 9.5 ],
			"faces": {
				"down": { "uv": [ 14, 6.5, 15, 7 ], "texture": "#iron" },
				"up": { "uv": [ 14, 9, 15, 9.5 ], "texture": "#iron" },
				"north": { "uv": [ 1, 8, 2, 8.5 ], "texture": "#iron" },
				"south": { "uv": [ 14, 8, 15, 8.5 ], "texture": "#iron" },
				"east": { "uv": [ 6.5, 8, 7, 8.5 ], "texture": "#iron" }
			}
		},
		{
			"__comment": "front3",
			"from": [ 15, 7.5, 7 ],
			"to": [ 15.5, 8, 7.5 ],
			"faces": {
				"down": { "uv": [ 15, 8.5, 15.5, 9 ], "texture": "#iron" },
				"up": { "uv": [ 15, 7, 15.5, 7.5 ], "texture": "#iron" },
				"north": { "uv": [ 0.5, 8, 1, 8.5 ], "texture": "#iron" },
				"south": { "uv": [ 15, 8, 15.5, 8.5 ], "texture": "#iron" },
				"west": { "uv": [ 7, 8, 7.5, 8.5 ], "texture": "#iron" },
				"east": { "uv": [ 8.5, 8, 9, 8.5 ], "texture": "#iron" }
			}
		},
		{
			"__comment": "front1",
			"from": [ 15, 7.5, 8.5 ],
			"to": [ 15.5, 8, 9 ],
			"faces": {
				"down": { "uv": [ 15, 7, 15.5, 7.5 ], "texture": "#iron" },
				"up": { "uv": [ 15, 8.5, 15.5, 9 ], "texture": "#iron" },
				"north": { "uv": [ 0.5, 8, 1, 8.5 ], "texture": "#iron" },
				"south": { "uv": [ 15, 8, 15.5, 8.5 ], "texture": "#iron" },
				"west": { "uv": [ 8.5, 8, 9, 8.5 ], "texture": "#iron" },
				"east": { "uv": [ 7, 8, 7.5, 8.5 ], "texture": "#iron" }
			}
		},
		{
			"__comment": "front2",
			"from": [ 15.5, 7.5, 7.5 ],
			"to": [ 16, 8, 8.5 ],
			"faces": {
				"down": { "uv": [ 15.5, 7.5, 16, 8.5 ], "texture": "#iron" },
				"up": { "uv": [ 15.5, 7.5, 16, 8.5 ], "texture": "#iron" },
				"north": { "uv": [ 0, 8, 0.5, 8.5 ], "texture": "#iron" },
				"south": { "uv": [ 15.5, 8, 16, 8.5 ], "texture": "#iron" },
				"west": { "uv": [ 7.5, 8, 8.5, 8.5 ], "texture": "#iron" },
				"east": { "uv": [ 7.5, 8, 8.5, 8.5 ], "texture": "#iron" }
			}
		}
	]
}