{
    "variants": {
        "": [
			{ "model": "block/dark_oak_planks", "weight": 70 },
            { "model": "block/dark_oak_planks0", "weight": 40 },
            { "model": "block/dark_oak_planks1", "weight": 20 }
        ]
    }
}
