{
    "variants": {
        "type=bottom": { "model": "block/diorite_slab" },
        "type=top": { "model": "block/diorite_slab_top" },
        "type=double": [
            { "model": "block/diorite_cobble" },
            { "model": "block/diorite_cobble1" },
            { "model": "block/diorite_cobble2" },
            { "model": "block/diorite_cobble3" },
            { "model": "block/diorite_cobble4" }
        ]
    }
}
