{
    "variants": {
        "": [
			{ "model": "block/dirt0", "weight": 45 },
            { "model": "block/dirt1", "weight": 30 },
            { "model": "block/dirt2", "weight": 25 },
            { "model": "block/dirt3", "weight": 10 }
        ]
    }
}
