{
    "variants": {
        "snowy=false": [
            { "model": "block/grass_block" },
            { "model": "block/grass_block1" },
            { "model": "block/grass_block2" },
            { "model": "block/grass_block", "y": 90 },
            { "model": "block/grass_block1", "y": 90 },
            { "model": "block/grass_block2", "y": 90 },
            { "model": "block/grass_block", "y": 180 },
            { "model": "block/grass_block1", "y": 180 },
            { "model": "block/grass_block2", "y": 180 },
            { "model": "block/grass_block", "y": 270 },
            { "model": "block/grass_block1", "y": 270 },
            { "model": "block/grass_block2", "y": 270 }
        ],
        "snowy=true":  { "model": "block/grass_block_snow" }
    }
}
