{
    "variants": {
        "type=bottom": { "model": "block/red_sandstone_slab" },
        "type=top": { "model": "block/red_sandstone_slab_top" },
        "type=double": [
            { "model": "block/red_sandstone_double_slab" },
            { "model": "block/red_sandstone_double_slab1" },
            { "model": "block/red_sandstone_double_slab2" },
            { "model": "block/red_sandstone_double_slab3" },
            { "model": "block/red_sandstone_double_slab4" },
            { "model": "block/red_sandstone_double_slab5" }
        ]
    }
}
