{
    "variants": {
        "type=bottom": { "model": "block/smooth_quartz_slab" },
        "type=top": { "model": "block/smooth_quartz_slab_top" },
        "type=double": { "model": "block/quartz_small_bricks" }
    }
}
