{
    "variants": {
        "": [
			{ "model": "block/white_terracotta", "weight": 60 },
            { "model": "block/white_terracotta1", "weight": 40 },
            { "model": "block/white_terracotta2", "weight": 5 },
            { "model": "block/white_terracotta3", "weight": 5 }
        ]
    }
}
