{
    "variants": {
        "facing=south": { "model": "block/white_glazed_terracotta" },
        "facing=west": { "model": "block/white_glazed_terracotta_side2", "y": 90 },
        "facing=north": { "model": "block/white_glazed_terracotta_front", "y": 180 },
        "facing=east": { "model": "block/white_glazed_terracotta_side", "y": 270 }
    }
}
