{
	"credit": "Made with Blockbench",
	"textures": {
		"0": "./obiwan_lightsaber",
		"particle": "./obiwan_lightsaber"
	},
	"elements": [
		{
			"from": [7.375, -12.5, 7],
			"to": [8.625, -11.5, 9],
			"faces": {
				"north": {"uv": [0.5, 1, 2.5, 2], "texture": "#0"},
				"east": {"uv": [0.5, 1, 2.5, 2], "texture": "#0"},
				"south": {"uv": [0.5, 1, 2.5, 2], "texture": "#0"},
				"west": {"uv": [0.5, 1, 2.5, 2], "texture": "#0"},
				"up": {"uv": [0.5, 1, 2.5, 2], "texture": "#0"},
				"down": {"uv": [0.5, 1, 2.5, 2], "texture": "#0"}
			}
		},
		{
			"from": [7, -12.5, 7.375],
			"to": [9, -11.5, 8.625],
			"faces": {
				"north": {"uv": [0, 0, 2, 1], "texture": "#0"},
				"east": {"uv": [0, 0, 1.25, 1], "texture": "#0"},
				"south": {"uv": [0, 0, 2, 1], "texture": "#0"},
				"west": {"uv": [0, 0, 1.25, 1], "texture": "#0"},
				"up": {"uv": [0, 0, 2, 1.25], "texture": "#0"},
				"down": {"uv": [0, 0, 2, 1.25], "texture": "#0"}
			}
		},
		{
			"from": [7.375, -12.75, 7.375],
			"to": [8.625, -11.25, 8.625],
			"faces": {
				"north": {"uv": [1, 1, 2.25, 5], "texture": "#0"},
				"east": {"uv": [1, 1, 2.25, 5], "texture": "#0"},
				"south": {"uv": [1, 1, 2.25, 5], "texture": "#0"},
				"west": {"uv": [1, 1, 2.25, 5], "texture": "#0"},
				"up": {"uv": [2.5, 1.5, 3.75, 2.75], "texture": "#0"},
				"down": {"uv": [3, 4, 4.25, 5.25], "texture": "#0"}
			}
		},
		{
			"from": [7.375, -7.75, 7.375],
			"to": [8.625, -7.5, 8.625],
			"faces": {
				"north": {"uv": [1.5, 2.5, 2.75, 2.75], "texture": "#0"},
				"east": {"uv": [1.5, 2.5, 2.75, 2.75], "texture": "#0"},
				"south": {"uv": [1.5, 2.5, 2.75, 2.75], "texture": "#0"},
				"west": {"uv": [1.5, 2.5, 2.75, 2.75], "texture": "#0"},
				"up": {"uv": [1.5, 2.5, 2.75, 3.75], "texture": "#0"},
				"down": {"uv": [1.5, 2.5, 2.75, 3.75], "texture": "#0"}
			}
		},
		{
			"from": [7.375, -7.25, 7.375],
			"to": [8.625, -7, 8.625],
			"faces": {
				"north": {"uv": [1.5, 2.5, 2.75, 2.75], "texture": "#0"},
				"east": {"uv": [1.5, 2.5, 2.75, 2.75], "texture": "#0"},
				"south": {"uv": [1.5, 2.5, 2.75, 2.75], "texture": "#0"},
				"west": {"uv": [1.5, 2.5, 2.75, 2.75], "texture": "#0"},
				"up": {"uv": [1.5, 2.5, 2.75, 3.75], "texture": "#0"},
				"down": {"uv": [1.5, 2.5, 2.75, 3.75], "texture": "#0"}
			}
		},
		{
			"from": [7.375, -6.75, 7.375],
			"to": [8.625, -6.5, 8.625],
			"faces": {
				"north": {"uv": [1.5, 2.5, 2.75, 2.75], "texture": "#0"},
				"east": {"uv": [1.5, 2.5, 2.75, 2.75], "texture": "#0"},
				"south": {"uv": [1.5, 2.5, 2.75, 2.75], "texture": "#0"},
				"west": {"uv": [1.5, 2.5, 2.75, 2.75], "texture": "#0"},
				"up": {"uv": [1.5, 2.5, 2.75, 3.75], "texture": "#0"},
				"down": {"uv": [1.5, 2.5, 2.75, 3.75], "texture": "#0"}
			}
		},
		{
			"from": [7.5, -8, 7.5],
			"to": [8.5, -4.75, 8.5],
			"faces": {
				"north": {"uv": [11, 3, 12, 6.25], "texture": "#0"},
				"east": {"uv": [11, 3, 12, 6.25], "texture": "#0"},
				"south": {"uv": [11, 3, 12, 6.25], "texture": "#0"},
				"west": {"uv": [11, 3, 12, 6.25], "texture": "#0"},
				"up": {"uv": [11, 3, 12, 6.25], "texture": "#0"},
				"down": {"uv": [11, 3, 12, 6.25], "texture": "#0"}
			}
		},
		{
			"from": [7.375, -6.25, 7.375],
			"to": [8.625, -6, 8.625],
			"faces": {
				"north": {"uv": [1.5, 2.5, 2.75, 2.75], "texture": "#0"},
				"east": {"uv": [1.5, 2.5, 2.75, 2.75], "texture": "#0"},
				"south": {"uv": [1.5, 2.5, 2.75, 2.75], "texture": "#0"},
				"west": {"uv": [1.5, 2.5, 2.75, 2.75], "texture": "#0"},
				"up": {"uv": [1.5, 2.5, 2.75, 3.75], "texture": "#0"},
				"down": {"uv": [1.5, 2.5, 2.75, 3.75], "texture": "#0"}
			}
		},
		{
			"from": [7.375, -5.75, 7.375],
			"to": [8.625, -5.5, 8.625],
			"faces": {
				"north": {"uv": [1.5, 2.5, 2.75, 2.75], "texture": "#0"},
				"east": {"uv": [1.5, 2.5, 2.75, 2.75], "texture": "#0"},
				"south": {"uv": [1.5, 2.5, 2.75, 2.75], "texture": "#0"},
				"west": {"uv": [1.5, 2.5, 2.75, 2.75], "texture": "#0"},
				"up": {"uv": [1.5, 2.5, 2.75, 3.75], "texture": "#0"},
				"down": {"uv": [1.5, 2.5, 2.75, 3.75], "texture": "#0"}
			}
		},
		{
			"from": [7.375, -5.25, 7.375],
			"to": [8.625, -5, 8.625],
			"faces": {
				"north": {"uv": [1.5, 2.5, 2.75, 2.75], "texture": "#0"},
				"east": {"uv": [1.5, 2.5, 2.75, 2.75], "texture": "#0"},
				"south": {"uv": [1.5, 2.5, 2.75, 2.75], "texture": "#0"},
				"west": {"uv": [1.5, 2.5, 2.75, 2.75], "texture": "#0"},
				"up": {"uv": [1.5, 2.5, 2.75, 2.75], "texture": "#0"},
				"down": {"uv": [1.5, 2.5, 2.75, 2.75], "texture": "#0"}
			}
		},
		{
			"from": [7.625, -4, 7.625],
			"to": [8.375, -2.5, 8.375],
			"faces": {
				"north": {"uv": [2.5, 11.5, 3.25, 13], "texture": "#0"},
				"east": {"uv": [2.5, 11.5, 3.25, 13], "texture": "#0"},
				"south": {"uv": [2.5, 11.5, 3.25, 13], "texture": "#0"},
				"west": {"uv": [2.5, 11.5, 3.25, 13], "texture": "#0"},
				"up": {"uv": [2.5, 11.5, 3.25, 13], "texture": "#0"},
				"down": {"uv": [2.5, 11.5, 3.25, 13], "texture": "#0"}
			}
		},
		{
			"from": [7.375, -4.25, 7.375],
			"to": [8.625, -4, 8.625],
			"faces": {
				"north": {"uv": [7, 2.5, 8.25, 2.75], "texture": "#0"},
				"east": {"uv": [7, 2.5, 8.25, 2.75], "texture": "#0"},
				"south": {"uv": [7, 2.5, 8.25, 2.75], "texture": "#0"},
				"west": {"uv": [7, 2.5, 8.25, 2.75], "texture": "#0"},
				"up": {"uv": [7, 2.5, 8.25, 2.75], "texture": "#0"},
				"down": {"uv": [7, 2.5, 8.25, 2.75], "texture": "#0"}
			}
		},
		{
			"from": [7.5, -4, 7.5],
			"to": [8.5, -3.5, 8.5],
			"faces": {
				"north": {"uv": [7.5, 3.5, 8.5, 4], "texture": "#0"},
				"east": {"uv": [7.5, 3.5, 8.5, 4], "texture": "#0"},
				"south": {"uv": [7.5, 3.5, 8.5, 4], "texture": "#0"},
				"west": {"uv": [7.5, 3.5, 8.5, 4], "texture": "#0"},
				"up": {"uv": [7.5, 3.5, 8.5, 4], "texture": "#0"},
				"down": {"uv": [7.5, 3.5, 8.5, 4], "texture": "#0"}
			}
		},
		{
			"from": [7.375, -2.5, 7.375],
			"to": [8.625, -2.25, 8.625],
			"faces": {
				"north": {"uv": [2.5, 3, 3.75, 3.25], "texture": "#0"},
				"east": {"uv": [2.5, 3, 3.75, 3.25], "texture": "#0"},
				"south": {"uv": [2.5, 3, 3.75, 3.25], "texture": "#0"},
				"west": {"uv": [2.5, 3, 3.75, 3.25], "texture": "#0"},
				"up": {"uv": [2.5, 3, 3.75, 3.25], "texture": "#0"},
				"down": {"uv": [2.5, 3, 3.75, 3.25], "texture": "#0"}
			}
		},
		{
			"from": [7.25, -2.25, 7.25],
			"to": [8.75, -1.75, 8.75],
			"faces": {
				"north": {"uv": [1, 2, 2.5, 2.5], "texture": "#0"},
				"east": {"uv": [1, 2, 2.5, 2.5], "texture": "#0"},
				"south": {"uv": [1, 2, 2.5, 2.5], "texture": "#0"},
				"west": {"uv": [1, 2, 2.5, 2.5], "texture": "#0"},
				"up": {"uv": [1, 2, 2.5, 2.5], "texture": "#0"},
				"down": {"uv": [1, 2, 2.5, 2.5], "texture": "#0"}
			}
		},
		{
			"from": [7, -1.75, 7],
			"to": [9, -1.6, 9],
			"faces": {
				"north": {"uv": [1.5, 1.5, 3.5, 1.65], "texture": "#0"},
				"east": {"uv": [1.5, 1.5, 3.5, 1.65], "texture": "#0"},
				"south": {"uv": [1.5, 1.5, 3.5, 1.65], "texture": "#0"},
				"west": {"uv": [1.5, 1.5, 3.5, 1.65], "texture": "#0"},
				"up": {"uv": [1.5, 1.5, 3.5, 1.65], "texture": "#0"},
				"down": {"uv": [1.5, 1.5, 3.5, 1.65], "texture": "#0"}
			}
		},
		{
			"from": [7.625, -2, 7.625],
			"to": [8.375, -1.25, 8.375],
			"faces": {
				"north": {"uv": [1, 1.5, 1.75, 2.25], "texture": "#0"},
				"east": {"uv": [1, 1.5, 1.75, 2.25], "texture": "#0"},
				"south": {"uv": [1, 1.5, 1.75, 2.25], "texture": "#0"},
				"west": {"uv": [1, 1.5, 1.75, 2.25], "texture": "#0"},
				"up": {"uv": [1, 1.5, 1.75, 2.25], "texture": "#0"},
				"down": {"uv": [1, 1.5, 1.75, 2.25], "texture": "#0"}
			}
		},
		{
			"from": [7, -9.6, 7.625],
			"to": [7.75, -8.1, 8.375],
			"faces": {
				"north": {"uv": [2.5, 2, 3.25, 3.5], "texture": "#0"},
				"east": {"uv": [2.5, 2, 3.25, 3.5], "texture": "#0"},
				"south": {"uv": [2.5, 2, 3.25, 3.5], "texture": "#0"},
				"west": {"uv": [2.5, 2, 3.25, 3.5], "texture": "#0"},
				"up": {"uv": [2.5, 2, 3.25, 3.5], "texture": "#0"},
				"down": {"uv": [2.5, 2, 3.25, 3.5], "texture": "#0"}
			}
		},
		{
			"from": [7.625, -5, 7.625],
			"to": [8.375, -3.5, 8.375],
			"faces": {
				"north": {"uv": [8, 2, 8.75, 3.5], "texture": "#0"},
				"east": {"uv": [8, 2, 8.75, 3.5], "texture": "#0"},
				"south": {"uv": [8, 2, 8.75, 3.5], "texture": "#0"},
				"west": {"uv": [8, 2, 8.75, 3.5], "texture": "#0"},
				"up": {"uv": [8, 2, 8.75, 3.5], "texture": "#0"},
				"down": {"uv": [8, 2, 8.75, 3.5], "texture": "#0"}
			}
		},
		{
			"from": [7.75, -2, 7.75],
			"to": [8.25, 26, 8.25],
			"faces": {
				"north": {"uv": [8.5, 11.5, 9, 16], "texture": "#0"},
				"east": {"uv": [8.5, 11.5, 9, 16], "texture": "#0"},
				"south": {"uv": [8.5, 11.5, 9, 16], "texture": "#0"},
				"west": {"uv": [8.5, 11.5, 9, 16], "texture": "#0"},
				"up": {"uv": [8.5, 11.5, 9, 16], "texture": "#0"},
				"down": {"uv": [8.5, 11.5, 9, 16], "texture": "#0"}
			}
		},
		{
			"from": [7.5, -1.25, 7.5],
			"to": [8.5, 26.75, 8.5],
			"faces": {
				"north": {"uv": [13.5, 10.5, 15, 16], "texture": "#0"},
				"east": {"uv": [13.5, 10.5, 15, 16], "texture": "#0"},
				"south": {"uv": [13.5, 10.5, 15, 16], "texture": "#0"},
				"west": {"uv": [13.5, 10.5, 15, 16], "texture": "#0"},
				"up": {"uv": [13.5, 10.5, 15, 16], "texture": "#0"},
				"down": {"uv": [13.5, 10.5, 15, 16], "texture": "#0"}
			}
		},
		{
			"from": [7.375, -9.75, 7.375],
			"to": [8.625, -8, 8.625],
			"faces": {
				"north": {"uv": [1, 1, 2.25, 5], "texture": "#0"},
				"east": {"uv": [1, 1, 2.25, 5], "texture": "#0"},
				"south": {"uv": [1, 1, 2.25, 5], "texture": "#0"},
				"west": {"uv": [1, 1, 2.25, 5], "texture": "#0"},
				"up": {"uv": [2.5, 1.5, 3.75, 2.75], "texture": "#0"},
				"down": {"uv": [3, 4, 4.25, 5.25], "texture": "#0"}
			}
		},
		{
			"from": [7.375, -11.2, 7.375],
			"to": [8.625, -9.8, 8.625],
			"faces": {
				"north": {"uv": [11.5, 2.5, 13.25, 5], "texture": "#0"},
				"east": {"uv": [11.5, 2.5, 13.25, 5], "texture": "#0"},
				"south": {"uv": [11.5, 2.5, 13.25, 5], "texture": "#0"},
				"west": {"uv": [11.5, 2.5, 13.25, 5], "texture": "#0"},
				"up": {"uv": [11.5, 2.5, 13.25, 5], "texture": "#0"},
				"down": {"uv": [11.5, 2.5, 13.25, 5], "texture": "#0"}
			}
		},
		{
			"from": [7.5, -12, 7.5],
			"to": [8.5, -8.75, 8.5],
			"faces": {
				"north": {"uv": [11, 3, 12, 6.25], "texture": "#0"},
				"east": {"uv": [11, 3, 12, 6.25], "texture": "#0"},
				"south": {"uv": [11, 3, 12, 6.25], "texture": "#0"},
				"west": {"uv": [11, 3, 12, 6.25], "texture": "#0"},
				"up": {"uv": [11, 3, 12, 6.25], "texture": "#0"},
				"down": {"uv": [11, 3, 12, 6.25], "texture": "#0"}
			}
		}
	],
	"display": {
		"thirdperson_righthand": {
			"scale": [0.9, 0.9, 0.9],
			"translation": [0, 12, 1.5]
		},
		"thirdperson_lefthand": {
			"scale": [0.9, 0.9, 0.9],
			"translation": [0, 12, 1.5]
		},
		"firstperson_righthand": {
			"translation": [2.5, 15.5, 0]
		},
		"firstperson_lefthand": {
			"translation": [2.5, 15.5, 0]
		},
		"fixed": {
			"translation": [0, 12, 0]
		},
		"gui": {
			"scale": [0.5, 0.5, 0.5],
			"rotation": [0, 0, -45]
		},
		"ground": {
			"translation": [0, -2.5, 0],
			"rotation": [90, 0, 0]
		}
	}
}